%!PS-Adobe-3.0 EPSF-3.0
%%Title: C:\workspace2\Datasets\2D\ILGDB\Log\glaceful-oath-10883\earlinessPerClass_t3.eps
%%Creator: matplotlib version 3.1.3, http://matplotlib.org/
%%CreationDate: Tue Apr 27 16:15:14 2021
%%Orientation: portrait
%%BoundingBox: -13.848437499999982 155.98968750000003 625.8484375 636.0103124999999
%%EndComments
%%BeginProlog
/mpldict 8 dict def
mpldict begin
/m { moveto } bind def
/l { lineto } bind def
/r { rlineto } bind def
/c { curveto } bind def
/cl { closepath } bind def
/box {
m
1 index 0 r
0 exch r
neg 0 r
cl
} bind def
/clipbox {
box
clip
newpath
} bind def
%!PS-Adobe-3.0 Resource-Font
%%Title: DejaVu Sans
%%Copyright: Copyright (c) 2003 by Bitstream, Inc. All Rights Reserved. Copyright (c) 2006 by Tavmjong Bah. All Rights Reserved. DejaVu changes are in public domain 
%%Creator: Converted from TrueType to type 3 by PPR
25 dict begin
/_d{bind def}bind def
/_m{moveto}_d
/_l{lineto}_d
/_cl{closepath eofill}_d
/_c{curveto}_d
/_sc{7 -1 roll{setcachedevice}{pop pop pop pop pop pop}ifelse}_d
/_e{exec}_d
/FontName /DejaVuSans def
/PaintType 0 def
/FontMatrix[.001 0 0 .001 0 0]def
/FontBBox[-1021 -463 1793 1232]def
/FontType 3 def
/Encoding [ /space /period /zero /one /two /three /four /six /eight /C /E /a /b /c /d /e /f /i /l /m /n /o /p /r /s /t /y ] def
/FontInfo 10 dict dup begin
/FamilyName (DejaVu Sans) def
/FullName (DejaVu Sans) def
/Notice (Copyright (c) 2003 by Bitstream, Inc. All Rights Reserved. Copyright (c) 2006 by Tavmjong Bah. All Rights Reserved. DejaVu changes are in public domain ) def
/Weight (Book) def
/Version (Version 2.35) def
/ItalicAngle 0.0 def
/isFixedPitch false def
/UnderlinePosition -130 def
/UnderlineThickness 90 def
end readonly def
/CharStrings 28 dict dup begin
/.notdef 0 def
/space{318 0 0 0 0 0 _sc
}_d
/period{318 0 107 0 210 124 _sc
107 124 _m
210 124 _l
210 0 _l
107 0 _l
107 124 _l
_cl}_d
/zero{636 0 66 -13 570 742 _sc
318 664 _m
267 664 229 639 203 589 _c
177 539 165 464 165 364 _c
165 264 177 189 203 139 _c
229 89 267 64 318 64 _c
369 64 407 89 433 139 _c
458 189 471 264 471 364 _c
471 464 458 539 433 589 _c
407 639 369 664 318 664 _c
318 742 _m
399 742 461 709 505 645 _c
548 580 570 486 570 364 _c
570 241 548 147 505 83 _c
461 19 399 -13 318 -13 _c
236 -13 173 19 130 83 _c
87 147 66 241 66 364 _c
66 486 87 580 130 645 _c
173 709 236 742 318 742 _c
_cl}_d
/one{636 0 110 0 544 729 _sc
124 83 _m
285 83 _l
285 639 _l
110 604 _l
110 694 _l
284 729 _l
383 729 _l
383 83 _l
544 83 _l
544 0 _l
124 0 _l
124 83 _l
_cl}_d
/two{{636 0 73 0 536 742 _sc
192 83 _m
536 83 _l
536 0 _l
73 0 _l
73 83 _l
110 121 161 173 226 239 _c
290 304 331 346 348 365 _c
380 400 402 430 414 455 _c
426 479 433 504 433 528 _c
433 566 419 598 392 622 _c
365 646 330 659 286 659 _c
255 659 222 653 188 643 _c
154 632 117 616 78 594 _c
78 694 _l
118 710 155 722 189 730 _c
223 738 255 742 284 742 _c
}_e{359 742 419 723 464 685 _c
509 647 532 597 532 534 _c
532 504 526 475 515 449 _c
504 422 484 390 454 354 _c
446 344 420 317 376 272 _c
332 227 271 164 192 83 _c
_cl}_e}_d
/three{{636 0 76 -13 556 742 _sc
406 393 _m
453 383 490 362 516 330 _c
542 298 556 258 556 212 _c
556 140 531 84 482 45 _c
432 6 362 -13 271 -13 _c
240 -13 208 -10 176 -4 _c
144 1 110 10 76 22 _c
76 117 _l
103 101 133 89 166 81 _c
198 73 232 69 268 69 _c
330 69 377 81 409 105 _c
441 129 458 165 458 212 _c
458 254 443 288 413 312 _c
383 336 341 349 287 349 _c
}_e{202 349 _l
202 430 _l
291 430 _l
339 430 376 439 402 459 _c
428 478 441 506 441 543 _c
441 580 427 609 401 629 _c
374 649 336 659 287 659 _c
260 659 231 656 200 650 _c
169 644 135 635 98 623 _c
98 711 _l
135 721 170 729 203 734 _c
235 739 266 742 296 742 _c
370 742 429 725 473 691 _c
517 657 539 611 539 553 _c
539 513 527 479 504 451 _c
481 423 448 403 406 393 _c
_cl}_e}_d
/four{636 0 49 0 580 729 _sc
378 643 _m
129 254 _l
378 254 _l
378 643 _l
352 729 _m
476 729 _l
476 254 _l
580 254 _l
580 172 _l
476 172 _l
476 0 _l
378 0 _l
378 172 _l
49 172 _l
49 267 _l
352 729 _l
_cl}_d
/six{{636 0 70 -13 573 742 _sc
330 404 _m
286 404 251 388 225 358 _c
199 328 186 286 186 234 _c
186 181 199 139 225 109 _c
251 79 286 64 330 64 _c
374 64 409 79 435 109 _c
461 139 474 181 474 234 _c
474 286 461 328 435 358 _c
409 388 374 404 330 404 _c
526 713 _m
526 623 _l
501 635 476 644 451 650 _c
425 656 400 659 376 659 _c
310 659 260 637 226 593 _c
}_e{192 549 172 482 168 394 _c
187 422 211 444 240 459 _c
269 474 301 482 336 482 _c
409 482 467 459 509 415 _c
551 371 573 310 573 234 _c
573 159 550 99 506 54 _c
462 9 403 -13 330 -13 _c
246 -13 181 19 137 83 _c
92 147 70 241 70 364 _c
70 479 97 571 152 639 _c
206 707 280 742 372 742 _c
396 742 421 739 447 735 _c
472 730 498 723 526 713 _c
_cl}_e}_d
/eight{{636 0 68 -13 568 742 _sc
318 346 _m
271 346 234 333 207 308 _c
180 283 167 249 167 205 _c
167 161 180 126 207 101 _c
234 76 271 64 318 64 _c
364 64 401 76 428 102 _c
455 127 469 161 469 205 _c
469 249 455 283 429 308 _c
402 333 365 346 318 346 _c
219 388 _m
177 398 144 418 120 447 _c
96 476 85 511 85 553 _c
85 611 105 657 147 691 _c
188 725 245 742 318 742 _c
}_e{390 742 447 725 489 691 _c
530 657 551 611 551 553 _c
551 511 539 476 515 447 _c
491 418 459 398 417 388 _c
464 377 501 355 528 323 _c
554 291 568 251 568 205 _c
568 134 546 80 503 43 _c
459 5 398 -13 318 -13 _c
237 -13 175 5 132 43 _c
89 80 68 134 68 205 _c
68 251 81 291 108 323 _c
134 355 171 377 219 388 _c
183 544 _m
183 506 194 476 218 455 _c
}_e{242 434 275 424 318 424 _c
360 424 393 434 417 455 _c
441 476 453 506 453 544 _c
453 582 441 611 417 632 _c
393 653 360 664 318 664 _c
275 664 242 653 218 632 _c
194 611 183 582 183 544 _c
_cl}_e}_d
/C{{698 0 56 -13 644 742 _sc
644 673 _m
644 569 _l
610 599 575 622 537 638 _c
499 653 460 661 418 661 _c
334 661 270 635 226 584 _c
182 533 160 460 160 364 _c
160 268 182 194 226 143 _c
270 92 334 67 418 67 _c
460 67 499 74 537 90 _c
575 105 610 128 644 159 _c
644 56 _l
609 32 572 15 534 4 _c
496 -7 455 -13 412 -13 _c
302 -13 215 20 151 87 _c
}_e{87 154 56 246 56 364 _c
56 481 87 573 151 641 _c
215 708 302 742 412 742 _c
456 742 497 736 535 725 _c
573 713 610 696 644 673 _c
_cl}_e}_d
/E{632 0 98 0 568 729 _sc
98 729 _m
559 729 _l
559 646 _l
197 646 _l
197 430 _l
544 430 _l
544 347 _l
197 347 _l
197 83 _l
568 83 _l
568 0 _l
98 0 _l
98 729 _l
_cl}_d
/a{{613 0 60 -13 522 560 _sc
343 275 _m
270 275 220 266 192 250 _c
164 233 150 205 150 165 _c
150 133 160 107 181 89 _c
202 70 231 61 267 61 _c
317 61 357 78 387 114 _c
417 149 432 196 432 255 _c
432 275 _l
343 275 _l
522 312 _m
522 0 _l
432 0 _l
432 83 _l
411 49 385 25 355 10 _c
325 -5 287 -13 243 -13 _c
187 -13 142 2 109 33 _c
76 64 60 106 60 159 _c
}_e{60 220 80 266 122 298 _c
163 329 224 345 306 345 _c
432 345 _l
432 354 _l
432 395 418 427 391 450 _c
364 472 326 484 277 484 _c
245 484 215 480 185 472 _c
155 464 127 453 100 439 _c
100 522 _l
132 534 164 544 195 550 _c
226 556 256 560 286 560 _c
365 560 424 539 463 498 _c
502 457 522 395 522 312 _c
_cl}_e}_d
/b{{635 0 91 -13 580 760 _sc
487 273 _m
487 339 473 390 446 428 _c
418 466 381 485 334 485 _c
286 485 249 466 222 428 _c
194 390 181 339 181 273 _c
181 207 194 155 222 117 _c
249 79 286 61 334 61 _c
381 61 418 79 446 117 _c
473 155 487 207 487 273 _c
181 464 _m
199 496 223 520 252 536 _c
281 552 316 560 356 560 _c
422 560 476 533 518 481 _c
559 428 580 359 580 273 _c
}_e{580 187 559 117 518 65 _c
476 13 422 -13 356 -13 _c
316 -13 281 -5 252 10 _c
223 25 199 49 181 82 _c
181 0 _l
91 0 _l
91 760 _l
181 760 _l
181 464 _l
_cl}_e}_d
/c{{550 0 55 -13 488 560 _sc
488 526 _m
488 442 _l
462 456 437 466 411 473 _c
385 480 360 484 334 484 _c
276 484 230 465 198 428 _c
166 391 150 339 150 273 _c
150 206 166 154 198 117 _c
230 80 276 62 334 62 _c
360 62 385 65 411 72 _c
437 79 462 90 488 104 _c
488 21 _l
462 9 436 0 410 -5 _c
383 -10 354 -13 324 -13 _c
242 -13 176 12 128 64 _c
}_e{79 115 55 185 55 273 _c
55 362 79 432 128 483 _c
177 534 244 560 330 560 _c
358 560 385 557 411 551 _c
437 545 463 537 488 526 _c
_cl}_e}_d
/d{{635 0 55 -13 544 760 _sc
454 464 _m
454 760 _l
544 760 _l
544 0 _l
454 0 _l
454 82 _l
435 49 411 25 382 10 _c
353 -5 319 -13 279 -13 _c
213 -13 159 13 117 65 _c
75 117 55 187 55 273 _c
55 359 75 428 117 481 _c
159 533 213 560 279 560 _c
319 560 353 552 382 536 _c
411 520 435 496 454 464 _c
148 273 _m
148 207 161 155 188 117 _c
215 79 253 61 301 61 _c
}_e{348 61 385 79 413 117 _c
440 155 454 207 454 273 _c
454 339 440 390 413 428 _c
385 466 348 485 301 485 _c
253 485 215 466 188 428 _c
161 390 148 339 148 273 _c
_cl}_e}_d
/e{{615 0 55 -13 562 560 _sc
562 296 _m
562 252 _l
149 252 _l
153 190 171 142 205 110 _c
238 78 284 62 344 62 _c
378 62 412 66 444 74 _c
476 82 509 95 541 113 _c
541 28 _l
509 14 476 3 442 -3 _c
408 -9 373 -13 339 -13 _c
251 -13 182 12 131 62 _c
80 112 55 181 55 268 _c
55 357 79 428 127 481 _c
175 533 241 560 323 560 _c
397 560 455 536 498 489 _c
}_e{540 441 562 377 562 296 _c
472 322 _m
471 371 457 410 431 440 _c
404 469 368 484 324 484 _c
274 484 234 469 204 441 _c
174 413 156 373 152 322 _c
472 322 _l
_cl}_e}_d
/f{352 0 23 0 371 760 _sc
371 760 _m
371 685 _l
285 685 _l
253 685 230 678 218 665 _c
205 652 199 629 199 595 _c
199 547 _l
347 547 _l
347 477 _l
199 477 _l
199 0 _l
109 0 _l
109 477 _l
23 477 _l
23 547 _l
109 547 _l
109 585 _l
109 645 123 690 151 718 _c
179 746 224 760 286 760 _c
371 760 _l
_cl}_d
/i{278 0 94 0 184 760 _sc
94 547 _m
184 547 _l
184 0 _l
94 0 _l
94 547 _l
94 760 _m
184 760 _l
184 646 _l
94 646 _l
94 760 _l
_cl}_d
/l{278 0 94 0 184 760 _sc
94 760 _m
184 760 _l
184 0 _l
94 0 _l
94 760 _l
_cl}_d
/m{{974 0 91 0 889 560 _sc
520 442 _m
542 482 569 511 600 531 _c
631 550 668 560 711 560 _c
767 560 811 540 842 500 _c
873 460 889 403 889 330 _c
889 0 _l
799 0 _l
799 327 _l
799 379 789 418 771 444 _c
752 469 724 482 686 482 _c
639 482 602 466 575 435 _c
548 404 535 362 535 309 _c
535 0 _l
445 0 _l
445 327 _l
445 379 435 418 417 444 _c
398 469 369 482 331 482 _c
}_e{285 482 248 466 221 435 _c
194 404 181 362 181 309 _c
181 0 _l
91 0 _l
91 547 _l
181 547 _l
181 462 _l
201 495 226 520 255 536 _c
283 552 317 560 357 560 _c
397 560 430 550 458 530 _c
486 510 506 480 520 442 _c
_cl}_e}_d
/n{634 0 91 0 549 560 _sc
549 330 _m
549 0 _l
459 0 _l
459 327 _l
459 379 448 417 428 443 _c
408 469 378 482 338 482 _c
289 482 251 466 223 435 _c
195 404 181 362 181 309 _c
181 0 _l
91 0 _l
91 547 _l
181 547 _l
181 462 _l
202 494 227 519 257 535 _c
286 551 320 560 358 560 _c
420 560 468 540 500 501 _c
532 462 549 405 549 330 _c
_cl}_d
/o{612 0 55 -13 557 560 _sc
306 484 _m
258 484 220 465 192 427 _c
164 389 150 338 150 273 _c
150 207 163 156 191 118 _c
219 80 257 62 306 62 _c
354 62 392 80 420 118 _c
448 156 462 207 462 273 _c
462 337 448 389 420 427 _c
392 465 354 484 306 484 _c
306 560 _m
384 560 445 534 490 484 _c
534 433 557 363 557 273 _c
557 183 534 113 490 63 _c
445 12 384 -13 306 -13 _c
227 -13 165 12 121 63 _c
77 113 55 183 55 273 _c
55 363 77 433 121 484 _c
165 534 227 560 306 560 _c
_cl}_d
/p{{635 0 91 -207 580 560 _sc
181 82 _m
181 -207 _l
91 -207 _l
91 547 _l
181 547 _l
181 464 _l
199 496 223 520 252 536 _c
281 552 316 560 356 560 _c
422 560 476 533 518 481 _c
559 428 580 359 580 273 _c
580 187 559 117 518 65 _c
476 13 422 -13 356 -13 _c
316 -13 281 -5 252 10 _c
223 25 199 49 181 82 _c
487 273 _m
487 339 473 390 446 428 _c
418 466 381 485 334 485 _c
}_e{286 485 249 466 222 428 _c
194 390 181 339 181 273 _c
181 207 194 155 222 117 _c
249 79 286 61 334 61 _c
381 61 418 79 446 117 _c
473 155 487 207 487 273 _c
_cl}_e}_d
/r{411 0 91 0 411 560 _sc
411 463 _m
401 469 390 473 378 476 _c
366 478 353 480 339 480 _c
288 480 249 463 222 430 _c
194 397 181 350 181 288 _c
181 0 _l
91 0 _l
91 547 _l
181 547 _l
181 462 _l
199 495 224 520 254 536 _c
284 552 321 560 365 560 _c
371 560 378 559 386 559 _c
393 558 401 557 411 555 _c
411 463 _l
_cl}_d
/s{{521 0 54 -13 472 560 _sc
443 531 _m
443 446 _l
417 458 391 468 364 475 _c
336 481 308 485 279 485 _c
234 485 200 478 178 464 _c
156 450 145 430 145 403 _c
145 382 153 366 169 354 _c
185 342 217 330 265 320 _c
296 313 _l
360 299 405 279 432 255 _c
458 230 472 195 472 151 _c
472 100 452 60 412 31 _c
372 1 316 -13 246 -13 _c
216 -13 186 -10 154 -5 _c
}_e{122 0 89 8 54 20 _c
54 113 _l
87 95 120 82 152 74 _c
184 65 216 61 248 61 _c
290 61 323 68 346 82 _c
368 96 380 117 380 144 _c
380 168 371 187 355 200 _c
339 213 303 226 247 238 _c
216 245 _l
160 257 119 275 95 299 _c
70 323 58 356 58 399 _c
58 450 76 490 112 518 _c
148 546 200 560 268 560 _c
301 560 332 557 362 552 _c
391 547 418 540 443 531 _c
}_e{_cl}_e}_d
/t{392 0 27 0 368 702 _sc
183 702 _m
183 547 _l
368 547 _l
368 477 _l
183 477 _l
183 180 _l
183 135 189 106 201 94 _c
213 81 238 75 276 75 _c
368 75 _l
368 0 _l
276 0 _l
206 0 158 13 132 39 _c
106 65 93 112 93 180 _c
93 477 _l
27 477 _l
27 547 _l
93 547 _l
93 702 _l
183 702 _l
_cl}_d
/y{592 0 30 -207 562 547 _sc
322 -50 _m
296 -114 271 -157 247 -177 _c
223 -197 191 -207 151 -207 _c
79 -207 _l
79 -132 _l
132 -132 _l
156 -132 175 -126 189 -114 _c
203 -102 218 -75 235 -31 _c
251 9 _l
30 547 _l
125 547 _l
296 119 _l
467 547 _l
562 547 _l
322 -50 _l
_cl}_d
end readonly def

/BuildGlyph
 {exch begin
 CharStrings exch
 2 copy known not{pop /.notdef}if
 true 3 1 roll get exec
 end}_d

/BuildChar {
 1 index /Encoding get exch get
 1 index /BuildGlyph get exec
}_d

FontName currentdict end definefont pop
end
%%EndProlog
mpldict begin
-13.848 155.99 translate
639.697 480.021 0 0 clipbox
gsave
0 -0 m
639.696875 -0 l
639.696875 480.020625 l
0 480.020625 l
cl
1.000 setgray
fill
grestore
gsave
74.496875 173.840625 m
632.496875 173.840625 l
632.496875 472.820625 l
74.496875 472.820625 l
cl
1.000 setgray
fill
grestore
gsave
558 299 74.5 173.8 clipbox
99.860511 173.840625 m
119.371001 173.840625 l
119.371001 458.583482 l
99.860511 458.583482 l
cl
0.122 0.467 0.706 setrgbcolor
fill
grestore
gsave
558 299 74.5 173.8 clipbox
124.248623 173.840625 m
143.759113 173.840625 l
143.759113 422.667102 l
124.248623 422.667102 l
cl
0.122 0.467 0.706 setrgbcolor
fill
grestore
gsave
558 299 74.5 173.8 clipbox
148.636735 173.840625 m
168.147225 173.840625 l
168.147225 407.052649 l
148.636735 407.052649 l
cl
0.122 0.467 0.706 setrgbcolor
fill
grestore
gsave
558 299 74.5 173.8 clipbox
173.024847 173.840625 m
192.535337 173.840625 l
192.535337 425.177245 l
173.024847 425.177245 l
cl
0.122 0.467 0.706 setrgbcolor
fill
grestore
gsave
558 299 74.5 173.8 clipbox
197.412959 173.840625 m
216.923448 173.840625 l
216.923448 450.525227 l
197.412959 450.525227 l
cl
0.122 0.467 0.706 setrgbcolor
fill
grestore
gsave
558 299 74.5 173.8 clipbox
221.801071 173.840625 m
241.31156 173.840625 l
241.31156 414.991774 l
221.801071 414.991774 l
cl
0.122 0.467 0.706 setrgbcolor
fill
grestore
gsave
558 299 74.5 173.8 clipbox
246.189183 173.840625 m
265.699672 173.840625 l
265.699672 437.462504 l
246.189183 437.462504 l
cl
0.122 0.467 0.706 setrgbcolor
fill
grestore
gsave
558 299 74.5 173.8 clipbox
270.577295 173.840625 m
290.087784 173.840625 l
290.087784 396.699969 l
270.577295 396.699969 l
cl
0.122 0.467 0.706 setrgbcolor
fill
grestore
gsave
558 299 74.5 173.8 clipbox
294.965406 173.840625 m
314.475896 173.840625 l
314.475896 389.928657 l
294.965406 389.928657 l
cl
0.122 0.467 0.706 setrgbcolor
fill
grestore
gsave
558 299 74.5 173.8 clipbox
319.353518 173.840625 m
338.864008 173.840625 l
338.864008 455.753134 l
319.353518 455.753134 l
cl
0.122 0.467 0.706 setrgbcolor
fill
grestore
gsave
558 299 74.5 173.8 clipbox
343.74163 173.840625 m
363.25212 173.840625 l
363.25212 429.507537 l
343.74163 429.507537 l
cl
0.122 0.467 0.706 setrgbcolor
fill
grestore
gsave
558 299 74.5 173.8 clipbox
368.129742 173.840625 m
387.640232 173.840625 l
387.640232 432.410621 l
368.129742 432.410621 l
cl
0.122 0.467 0.706 setrgbcolor
fill
grestore
gsave
558 299 74.5 173.8 clipbox
392.517854 173.840625 m
412.028344 173.840625 l
412.028344 426.523528 l
392.517854 426.523528 l
cl
0.122 0.467 0.706 setrgbcolor
fill
grestore
gsave
558 299 74.5 173.8 clipbox
416.905966 173.840625 m
436.416455 173.840625 l
436.416455 427.933139 l
416.905966 427.933139 l
cl
0.122 0.467 0.706 setrgbcolor
fill
grestore
gsave
558 299 74.5 173.8 clipbox
441.294078 173.840625 m
460.804567 173.840625 l
460.804567 389.3274 l
441.294078 389.3274 l
cl
0.122 0.467 0.706 setrgbcolor
fill
grestore
gsave
558 299 74.5 173.8 clipbox
465.68219 173.840625 m
485.192679 173.840625 l
485.192679 448.523502 l
465.68219 448.523502 l
cl
0.122 0.467 0.706 setrgbcolor
fill
grestore
gsave
558 299 74.5 173.8 clipbox
490.070302 173.840625 m
509.580791 173.840625 l
509.580791 404.793147 l
490.070302 404.793147 l
cl
0.122 0.467 0.706 setrgbcolor
fill
grestore
gsave
558 299 74.5 173.8 clipbox
514.458413 173.840625 m
533.968903 173.840625 l
533.968903 404.461804 l
514.458413 404.461804 l
cl
0.122 0.467 0.706 setrgbcolor
fill
grestore
gsave
558 299 74.5 173.8 clipbox
538.846525 173.840625 m
558.357015 173.840625 l
558.357015 447.389809 l
538.846525 447.389809 l
cl
0.122 0.467 0.706 setrgbcolor
fill
grestore
gsave
558 299 74.5 173.8 clipbox
563.234637 173.840625 m
582.745127 173.840625 l
582.745127 439.006245 l
563.234637 439.006245 l
cl
0.122 0.467 0.706 setrgbcolor
fill
grestore
gsave
558 299 74.5 173.8 clipbox
587.622749 173.840625 m
607.133239 173.840625 l
607.133239 416.898007 l
587.622749 416.898007 l
cl
0.122 0.467 0.706 setrgbcolor
fill
grestore
0.800 setlinewidth
1 setlinejoin
0 setlinecap
[] 0 setdash
0.000 setgray
gsave
/o {
gsave
newpath
translate
0.8 setlinewidth
1 setlinejoin
0 setlinecap
0 0 m
0 -3.5 l

gsave
0.000 setgray
fill
grestore
stroke
grestore
} bind def
109.616 173.841 o
grestore
/DejaVuSans findfont
22.000 scalefont
setfont
gsave
115.686069 74.715625 translate
90.000000 rotate
0.000000 0.000000 m /d glyphshow
13.964844 0.000000 m /i glyphshow
20.077148 0.000000 m /s glyphshow
31.539062 0.000000 m /p glyphshow
45.503906 0.000000 m /l glyphshow
51.616211 0.000000 m /a glyphshow
65.097656 0.000000 m /y glyphshow
78.117188 0.000000 m /one glyphshow
grestore
gsave
/o {
gsave
newpath
translate
0.8 setlinewidth
1 setlinejoin
0 setlinecap
0 0 m
0 -3.5 l

gsave
0.000 setgray
fill
grestore
stroke
grestore
} bind def
134.004 173.841 o
grestore
gsave
140.074181 74.715625 translate
90.000000 rotate
0.000000 0.000000 m /d glyphshow
13.964844 0.000000 m /i glyphshow
20.077148 0.000000 m /s glyphshow
31.539062 0.000000 m /p glyphshow
45.503906 0.000000 m /l glyphshow
51.616211 0.000000 m /a glyphshow
65.097656 0.000000 m /y glyphshow
78.117188 0.000000 m /two glyphshow
grestore
gsave
/o {
gsave
newpath
translate
0.8 setlinewidth
1 setlinejoin
0 setlinecap
0 0 m
0 -3.5 l

gsave
0.000 setgray
fill
grestore
stroke
grestore
} bind def
158.392 173.841 o
grestore
gsave
164.462292 74.715625 translate
90.000000 rotate
0.000000 0.000000 m /d glyphshow
13.964844 0.000000 m /i glyphshow
20.077148 0.000000 m /s glyphshow
31.539062 0.000000 m /p glyphshow
45.503906 0.000000 m /l glyphshow
51.616211 0.000000 m /a glyphshow
65.097656 0.000000 m /y glyphshow
78.117188 0.000000 m /three glyphshow
grestore
gsave
/o {
gsave
newpath
translate
0.8 setlinewidth
1 setlinejoin
0 setlinecap
0 0 m
0 -3.5 l

gsave
0.000 setgray
fill
grestore
stroke
grestore
} bind def
182.78 173.841 o
grestore
gsave
188.850404 110.606250 translate
90.000000 rotate
0.000000 0.000000 m /e glyphshow
13.535156 0.000000 m /d glyphshow
27.500000 0.000000 m /i glyphshow
33.612305 0.000000 m /t glyphshow
42.238281 0.000000 m /one glyphshow
grestore
gsave
/o {
gsave
newpath
translate
0.8 setlinewidth
1 setlinejoin
0 setlinecap
0 0 m
0 -3.5 l

gsave
0.000 setgray
fill
grestore
stroke
grestore
} bind def
207.168 173.841 o
grestore
gsave
213.238516 110.606250 translate
90.000000 rotate
0.000000 0.000000 m /e glyphshow
13.535156 0.000000 m /d glyphshow
27.500000 0.000000 m /i glyphshow
33.612305 0.000000 m /t glyphshow
42.238281 0.000000 m /two glyphshow
grestore
gsave
/o {
gsave
newpath
translate
0.8 setlinewidth
1 setlinejoin
0 setlinecap
0 0 m
0 -3.5 l

gsave
0.000 setgray
fill
grestore
stroke
grestore
} bind def
231.556 173.841 o
grestore
gsave
237.626628 110.606250 translate
90.000000 rotate
0.000000 0.000000 m /e glyphshow
13.535156 0.000000 m /d glyphshow
27.500000 0.000000 m /i glyphshow
33.612305 0.000000 m /t glyphshow
42.238281 0.000000 m /three glyphshow
grestore
gsave
/o {
gsave
newpath
translate
0.8 setlinewidth
1 setlinejoin
0 setlinecap
0 0 m
0 -3.5 l

gsave
0.000 setgray
fill
grestore
stroke
grestore
} bind def
255.944 173.841 o
grestore
gsave
262.014740 89.559375 translate
90.000000 rotate
0.000000 0.000000 m /e glyphshow
13.535156 0.000000 m /f glyphshow
21.280273 0.000000 m /f glyphshow
29.025391 0.000000 m /e glyphshow
42.560547 0.000000 m /c glyphshow
54.656250 0.000000 m /t glyphshow
63.282227 0.000000 m /one glyphshow
grestore
gsave
/o {
gsave
newpath
translate
0.8 setlinewidth
1 setlinejoin
0 setlinecap
0 0 m
0 -3.5 l

gsave
0.000 setgray
fill
grestore
stroke
grestore
} bind def
280.333 173.841 o
grestore
gsave
286.402852 89.559375 translate
90.000000 rotate
0.000000 0.000000 m /e glyphshow
13.535156 0.000000 m /f glyphshow
21.280273 0.000000 m /f glyphshow
29.025391 0.000000 m /e glyphshow
42.560547 0.000000 m /c glyphshow
54.656250 0.000000 m /t glyphshow
63.282227 0.000000 m /two glyphshow
grestore
gsave
/o {
gsave
newpath
translate
0.8 setlinewidth
1 setlinejoin
0 setlinecap
0 0 m
0 -3.5 l

gsave
0.000 setgray
fill
grestore
stroke
grestore
} bind def
304.721 173.841 o
grestore
gsave
310.790964 89.559375 translate
90.000000 rotate
0.000000 0.000000 m /e glyphshow
13.535156 0.000000 m /f glyphshow
21.280273 0.000000 m /f glyphshow
29.025391 0.000000 m /e glyphshow
42.560547 0.000000 m /c glyphshow
54.656250 0.000000 m /t glyphshow
63.282227 0.000000 m /three glyphshow
grestore
gsave
/o {
gsave
newpath
translate
0.8 setlinewidth
1 setlinejoin
0 setlinecap
0 0 m
0 -3.5 l

gsave
0.000 setgray
fill
grestore
stroke
grestore
} bind def
329.109 173.841 o
grestore
gsave
335.179076 88.965625 translate
90.000000 rotate
0.000000 0.000000 m /f glyphshow
7.745117 0.000000 m /o glyphshow
21.205078 0.000000 m /l glyphshow
27.317383 0.000000 m /d glyphshow
41.282227 0.000000 m /e glyphshow
54.817383 0.000000 m /r glyphshow
63.862305 0.000000 m /one glyphshow
grestore
gsave
/o {
gsave
newpath
translate
0.8 setlinewidth
1 setlinejoin
0 setlinecap
0 0 m
0 -3.5 l

gsave
0.000 setgray
fill
grestore
stroke
grestore
} bind def
353.497 173.841 o
grestore
gsave
359.567187 88.965625 translate
90.000000 rotate
0.000000 0.000000 m /f glyphshow
7.745117 0.000000 m /o glyphshow
21.205078 0.000000 m /l glyphshow
27.317383 0.000000 m /d glyphshow
41.282227 0.000000 m /e glyphshow
54.817383 0.000000 m /r glyphshow
63.862305 0.000000 m /two glyphshow
grestore
gsave
/o {
gsave
newpath
translate
0.8 setlinewidth
1 setlinejoin
0 setlinecap
0 0 m
0 -3.5 l

gsave
0.000 setgray
fill
grestore
stroke
grestore
} bind def
377.885 173.841 o
grestore
gsave
383.955299 88.965625 translate
90.000000 rotate
0.000000 0.000000 m /f glyphshow
7.745117 0.000000 m /o glyphshow
21.205078 0.000000 m /l glyphshow
27.317383 0.000000 m /d glyphshow
41.282227 0.000000 m /e glyphshow
54.817383 0.000000 m /r glyphshow
63.862305 0.000000 m /three glyphshow
grestore
gsave
/o {
gsave
newpath
translate
0.8 setlinewidth
1 setlinejoin
0 setlinecap
0 0 m
0 -3.5 l

gsave
0.000 setgray
fill
grestore
stroke
grestore
} bind def
402.273 173.841 o
grestore
gsave
408.343411 87.590625 translate
90.000000 rotate
0.000000 0.000000 m /f glyphshow
7.745117 0.000000 m /r glyphshow
16.790039 0.000000 m /a glyphshow
30.271484 0.000000 m /m glyphshow
51.702148 0.000000 m /e glyphshow
65.237305 0.000000 m /one glyphshow
grestore
gsave
/o {
gsave
newpath
translate
0.8 setlinewidth
1 setlinejoin
0 setlinecap
0 0 m
0 -3.5 l

gsave
0.000 setgray
fill
grestore
stroke
grestore
} bind def
426.661 173.841 o
grestore
gsave
432.731523 87.590625 translate
90.000000 rotate
0.000000 0.000000 m /f glyphshow
7.745117 0.000000 m /r glyphshow
16.790039 0.000000 m /a glyphshow
30.271484 0.000000 m /m glyphshow
51.702148 0.000000 m /e glyphshow
65.237305 0.000000 m /two glyphshow
grestore
gsave
/o {
gsave
newpath
translate
0.8 setlinewidth
1 setlinejoin
0 setlinecap
0 0 m
0 -3.5 l

gsave
0.000 setgray
fill
grestore
stroke
grestore
} bind def
451.049 173.841 o
grestore
gsave
457.119635 87.590625 translate
90.000000 rotate
0.000000 0.000000 m /f glyphshow
7.745117 0.000000 m /r glyphshow
16.790039 0.000000 m /a glyphshow
30.271484 0.000000 m /m glyphshow
51.702148 0.000000 m /e glyphshow
65.237305 0.000000 m /three glyphshow
grestore
gsave
/o {
gsave
newpath
translate
0.8 setlinewidth
1 setlinejoin
0 setlinecap
0 0 m
0 -3.5 l

gsave
0.000 setgray
fill
grestore
stroke
grestore
} bind def
475.437 173.841 o
grestore
gsave
481.507747 32.496875 translate
90.000000 rotate
0.000000 0.000000 m /o glyphshow
13.459961 0.000000 m /r glyphshow
22.504883 0.000000 m /i glyphshow
28.617188 0.000000 m /e glyphshow
42.152344 0.000000 m /n glyphshow
56.095703 0.000000 m /t glyphshow
64.721680 0.000000 m /a glyphshow
78.203125 0.000000 m /t glyphshow
86.829102 0.000000 m /i glyphshow
92.941406 0.000000 m /o glyphshow
106.401367 0.000000 m /n glyphshow
120.344727 0.000000 m /one glyphshow
grestore
gsave
/o {
gsave
newpath
translate
0.8 setlinewidth
1 setlinejoin
0 setlinecap
0 0 m
0 -3.5 l

gsave
0.000 setgray
fill
grestore
stroke
grestore
} bind def
499.826 173.841 o
grestore
gsave
505.895859 32.496875 translate
90.000000 rotate
0.000000 0.000000 m /o glyphshow
13.459961 0.000000 m /r glyphshow
22.504883 0.000000 m /i glyphshow
28.617188 0.000000 m /e glyphshow
42.152344 0.000000 m /n glyphshow
56.095703 0.000000 m /t glyphshow
64.721680 0.000000 m /a glyphshow
78.203125 0.000000 m /t glyphshow
86.829102 0.000000 m /i glyphshow
92.941406 0.000000 m /o glyphshow
106.401367 0.000000 m /n glyphshow
120.344727 0.000000 m /two glyphshow
grestore
gsave
/o {
gsave
newpath
translate
0.8 setlinewidth
1 setlinejoin
0 setlinecap
0 0 m
0 -3.5 l

gsave
0.000 setgray
fill
grestore
stroke
grestore
} bind def
524.214 173.841 o
grestore
gsave
530.283971 32.496875 translate
90.000000 rotate
0.000000 0.000000 m /o glyphshow
13.459961 0.000000 m /r glyphshow
22.504883 0.000000 m /i glyphshow
28.617188 0.000000 m /e glyphshow
42.152344 0.000000 m /n glyphshow
56.095703 0.000000 m /t glyphshow
64.721680 0.000000 m /a glyphshow
78.203125 0.000000 m /t glyphshow
86.829102 0.000000 m /i glyphshow
92.941406 0.000000 m /o glyphshow
106.401367 0.000000 m /n glyphshow
120.344727 0.000000 m /three glyphshow
grestore
gsave
/o {
gsave
newpath
translate
0.8 setlinewidth
1 setlinejoin
0 setlinecap
0 0 m
0 -3.5 l

gsave
0.000 setgray
fill
grestore
stroke
grestore
} bind def
548.602 173.841 o
grestore
gsave
554.672083 99.934375 translate
90.000000 rotate
0.000000 0.000000 m /s glyphshow
11.461914 0.000000 m /e glyphshow
24.997070 0.000000 m /n glyphshow
38.940430 0.000000 m /d glyphshow
52.905273 0.000000 m /one glyphshow
grestore
gsave
/o {
gsave
newpath
translate
0.8 setlinewidth
1 setlinejoin
0 setlinecap
0 0 m
0 -3.5 l

gsave
0.000 setgray
fill
grestore
stroke
grestore
} bind def
572.99 173.841 o
grestore
gsave
579.060194 99.934375 translate
90.000000 rotate
0.000000 0.000000 m /s glyphshow
11.461914 0.000000 m /e glyphshow
24.997070 0.000000 m /n glyphshow
38.940430 0.000000 m /d glyphshow
52.905273 0.000000 m /two glyphshow
grestore
gsave
/o {
gsave
newpath
translate
0.8 setlinewidth
1 setlinejoin
0 setlinecap
0 0 m
0 -3.5 l

gsave
0.000 setgray
fill
grestore
stroke
grestore
} bind def
597.378 173.841 o
grestore
gsave
603.448306 99.934375 translate
90.000000 rotate
0.000000 0.000000 m /s glyphshow
11.461914 0.000000 m /e glyphshow
24.997070 0.000000 m /n glyphshow
38.940430 0.000000 m /d glyphshow
52.905273 0.000000 m /three glyphshow
grestore
gsave
294.450000 11.778125 translate
0.000000 rotate
0.000000 0.000000 m /C glyphshow
15.361328 0.000000 m /l glyphshow
21.473633 0.000000 m /a glyphshow
34.955078 0.000000 m /s glyphshow
46.416992 0.000000 m /s glyphshow
57.878906 0.000000 m /space glyphshow
64.872070 0.000000 m /l glyphshow
70.984375 0.000000 m /a glyphshow
84.465820 0.000000 m /b glyphshow
98.430664 0.000000 m /e glyphshow
111.965820 0.000000 m /l glyphshow
grestore
gsave
/o {
gsave
newpath
translate
0.8 setlinewidth
1 setlinejoin
0 setlinecap
0 0 m
-3.5 0 l

gsave
0.000 setgray
fill
grestore
stroke
grestore
} bind def
74.4969 173.841 o
grestore
gsave
32.496875 165.481250 translate
0.000000 rotate
0.000000 0.000000 m /zero glyphshow
13.997070 0.000000 m /period glyphshow
20.990234 0.000000 m /zero glyphshow
grestore
gsave
/o {
gsave
newpath
translate
0.8 setlinewidth
1 setlinejoin
0 setlinecap
0 0 m
-3.5 0 l

gsave
0.000 setgray
fill
grestore
stroke
grestore
} bind def
74.4969 231.243 o
grestore
gsave
32.496875 222.884018 translate
0.000000 rotate
0.000000 0.000000 m /zero glyphshow
13.997070 0.000000 m /period glyphshow
20.990234 0.000000 m /two glyphshow
grestore
gsave
/o {
gsave
newpath
translate
0.8 setlinewidth
1 setlinejoin
0 setlinecap
0 0 m
-3.5 0 l

gsave
0.000 setgray
fill
grestore
stroke
grestore
} bind def
74.4969 288.646 o
grestore
gsave
32.496875 280.286787 translate
0.000000 rotate
0.000000 0.000000 m /zero glyphshow
13.997070 0.000000 m /period glyphshow
20.990234 0.000000 m /four glyphshow
grestore
gsave
/o {
gsave
newpath
translate
0.8 setlinewidth
1 setlinejoin
0 setlinecap
0 0 m
-3.5 0 l

gsave
0.000 setgray
fill
grestore
stroke
grestore
} bind def
74.4969 346.049 o
grestore
gsave
32.496875 337.689555 translate
0.000000 rotate
0.000000 0.000000 m /zero glyphshow
13.997070 0.000000 m /period glyphshow
20.990234 0.000000 m /six glyphshow
grestore
gsave
/o {
gsave
newpath
translate
0.8 setlinewidth
1 setlinejoin
0 setlinecap
0 0 m
-3.5 0 l

gsave
0.000 setgray
fill
grestore
stroke
grestore
} bind def
74.4969 403.452 o
grestore
gsave
32.496875 395.092324 translate
0.000000 rotate
0.000000 0.000000 m /zero glyphshow
13.997070 0.000000 m /period glyphshow
20.990234 0.000000 m /eight glyphshow
grestore
gsave
/o {
gsave
newpath
translate
0.8 setlinewidth
1 setlinejoin
0 setlinecap
0 0 m
-3.5 0 l

gsave
0.000 setgray
fill
grestore
stroke
grestore
} bind def
74.4969 460.854 o
grestore
gsave
32.496875 452.495092 translate
0.000000 rotate
0.000000 0.000000 m /one glyphshow
13.997070 0.000000 m /period glyphshow
20.990234 0.000000 m /zero glyphshow
grestore
gsave
23.918750 273.799375 translate
90.000000 rotate
0.000000 0.000000 m /E glyphshow
13.900391 0.000000 m /a glyphshow
27.381836 0.000000 m /r glyphshow
36.426758 0.000000 m /l glyphshow
42.539062 0.000000 m /i glyphshow
48.651367 0.000000 m /n glyphshow
62.594727 0.000000 m /e glyphshow
76.129883 0.000000 m /s glyphshow
87.591797 0.000000 m /s glyphshow
grestore
0 setlinejoin
2 setlinecap
[] 0 setdash
gsave
74.496875 173.840625 m
74.496875 472.820625 l
stroke
grestore
gsave
632.496875 173.840625 m
632.496875 472.820625 l
stroke
grestore
gsave
74.496875 173.840625 m
632.496875 173.840625 l
stroke
grestore
gsave
74.496875 472.820625 m
632.496875 472.820625 l
stroke
grestore

end
showpage
