TrueAcceptPerClass,
0.98 ; 0.96 ; 0.98 ; 0.90 ; 0.78 ; 0.82 ; 0.84 ; 0.97 ; 0.77 ; 0.46 ; 0.97 ; 0.90 ; 0.81 ; 0.60 ; 0.68 ; 0.82 ; 0.91 ; 0.77 ; 0.81 ; 0.73 ; 0.65
FalseAcceptPerClass,
0.02 ; 0.04 ; 0.02 ; 0.10 ; 0.22 ; 0.18 ; 0.16 ; 0.03 ; 0.23 ; 0.16 ; 0.03 ; 0.10 ; 0.13 ; 0.40 ; 0.33 ; 0.09 ; 0.09 ; 0.23 ; 0.18 ; 0.26 ; 0.35
rejectedPerClass,
0.00 ; 0.00 ; 0.00 ; 0.00 ; 0.00 ; 0.00 ; 0.00 ; 0.00 ; 0.00 ; 0.38 ; 0.00 ; 0.00 ; 0.06 ; 0.00 ; 0.00 ; 0.09 ; 0.00 ; 0.00 ; 0.01 ; 0.01 ; 0.00
averageLengthCompletionPerClass,
0.99 ; 0.69 ; 0.62 ; 0.72 ; 0.91 ; 0.74 ; 0.83 ; 0.64 ; 0.61 ; 0.93 ; 0.77 ; 0.82 ; 0.80 ; 0.75 ; 0.62 ; 0.94 ; 0.67 ; 0.68 ; 0.91 ; 0.82 ; 0.74
TrueAccept,
0.7975609756097561
FalseAccept,
0.16747967479674797
rejected,
0.034959349593495934
averageLengthCompletion
0.7681311784684023
