%!PS-Adobe-3.0 EPSF-3.0
%%Title: C:\workspace2\Datasets\2D\ILGDB\Log\glaceful-oath-10883\TAR_FAR_Reject_t5.eps
%%Creator: matplotlib version 3.1.3, http://matplotlib.org/
%%CreationDate: Tue Apr 27 16:20:26 2021
%%Orientation: portrait
%%BoundingBox: -27.23124999999996 208.65375000000003 639.2312499999999 583.3462499999999
%%EndComments
%%BeginProlog
/mpldict 8 dict def
mpldict begin
/m { moveto } bind def
/l { lineto } bind def
/r { rlineto } bind def
/c { curveto } bind def
/cl { closepath } bind def
/box {
m
1 index 0 r
0 exch r
neg 0 r
cl
} bind def
/clipbox {
box
clip
newpath
} bind def
%!PS-Adobe-3.0 Resource-Font
%%Title: DejaVu Sans
%%Copyright: Copyright (c) 2003 by Bitstream, Inc. All Rights Reserved. Copyright (c) 2006 by Tavmjong Bah. All Rights Reserved. DejaVu changes are in public domain 
%%Creator: Converted from TrueType to type 3 by PPR
25 dict begin
/_d{bind def}bind def
/_m{moveto}_d
/_l{lineto}_d
/_cl{closepath eofill}_d
/_c{curveto}_d
/_sc{7 -1 roll{setcachedevice}{pop pop pop pop pop pop}ifelse}_d
/_e{exec}_d
/FontName /DejaVuSans def
/PaintType 0 def
/FontMatrix[.001 0 0 .001 0 0]def
/FontBBox[-1021 -463 1793 1232]def
/FontType 3 def
/Encoding [ /space /period /zero /one /two /four /five /six /seven /eight /A /C /F /G /R /T /a /c /e /i /j /l /m /n /o /p /r /s /t /u /v ] def
/FontInfo 10 dict dup begin
/FamilyName (DejaVu Sans) def
/FullName (DejaVu Sans) def
/Notice (Copyright (c) 2003 by Bitstream, Inc. All Rights Reserved. Copyright (c) 2006 by Tavmjong Bah. All Rights Reserved. DejaVu changes are in public domain ) def
/Weight (Book) def
/Version (Version 2.35) def
/ItalicAngle 0.0 def
/isFixedPitch false def
/UnderlinePosition -130 def
/UnderlineThickness 90 def
end readonly def
/CharStrings 32 dict dup begin
/.notdef 0 def
/space{318 0 0 0 0 0 _sc
}_d
/period{318 0 107 0 210 124 _sc
107 124 _m
210 124 _l
210 0 _l
107 0 _l
107 124 _l
_cl}_d
/zero{636 0 66 -13 570 742 _sc
318 664 _m
267 664 229 639 203 589 _c
177 539 165 464 165 364 _c
165 264 177 189 203 139 _c
229 89 267 64 318 64 _c
369 64 407 89 433 139 _c
458 189 471 264 471 364 _c
471 464 458 539 433 589 _c
407 639 369 664 318 664 _c
318 742 _m
399 742 461 709 505 645 _c
548 580 570 486 570 364 _c
570 241 548 147 505 83 _c
461 19 399 -13 318 -13 _c
236 -13 173 19 130 83 _c
87 147 66 241 66 364 _c
66 486 87 580 130 645 _c
173 709 236 742 318 742 _c
_cl}_d
/one{636 0 110 0 544 729 _sc
124 83 _m
285 83 _l
285 639 _l
110 604 _l
110 694 _l
284 729 _l
383 729 _l
383 83 _l
544 83 _l
544 0 _l
124 0 _l
124 83 _l
_cl}_d
/two{{636 0 73 0 536 742 _sc
192 83 _m
536 83 _l
536 0 _l
73 0 _l
73 83 _l
110 121 161 173 226 239 _c
290 304 331 346 348 365 _c
380 400 402 430 414 455 _c
426 479 433 504 433 528 _c
433 566 419 598 392 622 _c
365 646 330 659 286 659 _c
255 659 222 653 188 643 _c
154 632 117 616 78 594 _c
78 694 _l
118 710 155 722 189 730 _c
223 738 255 742 284 742 _c
}_e{359 742 419 723 464 685 _c
509 647 532 597 532 534 _c
532 504 526 475 515 449 _c
504 422 484 390 454 354 _c
446 344 420 317 376 272 _c
332 227 271 164 192 83 _c
_cl}_e}_d
/four{636 0 49 0 580 729 _sc
378 643 _m
129 254 _l
378 254 _l
378 643 _l
352 729 _m
476 729 _l
476 254 _l
580 254 _l
580 172 _l
476 172 _l
476 0 _l
378 0 _l
378 172 _l
49 172 _l
49 267 _l
352 729 _l
_cl}_d
/five{{636 0 77 -13 549 729 _sc
108 729 _m
495 729 _l
495 646 _l
198 646 _l
198 467 _l
212 472 227 476 241 478 _c
255 480 270 482 284 482 _c
365 482 429 459 477 415 _c
525 370 549 310 549 234 _c
549 155 524 94 475 51 _c
426 8 357 -13 269 -13 _c
238 -13 207 -10 175 -6 _c
143 -1 111 6 77 17 _c
77 116 _l
106 100 136 88 168 80 _c
199 72 232 69 267 69 _c
}_e{323 69 368 83 401 113 _c
433 143 450 183 450 234 _c
450 284 433 324 401 354 _c
368 384 323 399 267 399 _c
241 399 214 396 188 390 _c
162 384 135 375 108 363 _c
108 729 _l
_cl}_e}_d
/six{{636 0 70 -13 573 742 _sc
330 404 _m
286 404 251 388 225 358 _c
199 328 186 286 186 234 _c
186 181 199 139 225 109 _c
251 79 286 64 330 64 _c
374 64 409 79 435 109 _c
461 139 474 181 474 234 _c
474 286 461 328 435 358 _c
409 388 374 404 330 404 _c
526 713 _m
526 623 _l
501 635 476 644 451 650 _c
425 656 400 659 376 659 _c
310 659 260 637 226 593 _c
}_e{192 549 172 482 168 394 _c
187 422 211 444 240 459 _c
269 474 301 482 336 482 _c
409 482 467 459 509 415 _c
551 371 573 310 573 234 _c
573 159 550 99 506 54 _c
462 9 403 -13 330 -13 _c
246 -13 181 19 137 83 _c
92 147 70 241 70 364 _c
70 479 97 571 152 639 _c
206 707 280 742 372 742 _c
396 742 421 739 447 735 _c
472 730 498 723 526 713 _c
_cl}_e}_d
/seven{636 0 82 0 551 729 _sc
82 729 _m
551 729 _l
551 687 _l
286 0 _l
183 0 _l
432 646 _l
82 646 _l
82 729 _l
_cl}_d
/eight{{636 0 68 -13 568 742 _sc
318 346 _m
271 346 234 333 207 308 _c
180 283 167 249 167 205 _c
167 161 180 126 207 101 _c
234 76 271 64 318 64 _c
364 64 401 76 428 102 _c
455 127 469 161 469 205 _c
469 249 455 283 429 308 _c
402 333 365 346 318 346 _c
219 388 _m
177 398 144 418 120 447 _c
96 476 85 511 85 553 _c
85 611 105 657 147 691 _c
188 725 245 742 318 742 _c
}_e{390 742 447 725 489 691 _c
530 657 551 611 551 553 _c
551 511 539 476 515 447 _c
491 418 459 398 417 388 _c
464 377 501 355 528 323 _c
554 291 568 251 568 205 _c
568 134 546 80 503 43 _c
459 5 398 -13 318 -13 _c
237 -13 175 5 132 43 _c
89 80 68 134 68 205 _c
68 251 81 291 108 323 _c
134 355 171 377 219 388 _c
183 544 _m
183 506 194 476 218 455 _c
}_e{242 434 275 424 318 424 _c
360 424 393 434 417 455 _c
441 476 453 506 453 544 _c
453 582 441 611 417 632 _c
393 653 360 664 318 664 _c
275 664 242 653 218 632 _c
194 611 183 582 183 544 _c
_cl}_e}_d
/A{684 0 8 0 676 729 _sc
342 632 _m
208 269 _l
476 269 _l
342 632 _l
286 729 _m
398 729 _l
676 0 _l
573 0 _l
507 187 _l
178 187 _l
112 0 _l
8 0 _l
286 729 _l
_cl}_d
/C{{698 0 56 -13 644 742 _sc
644 673 _m
644 569 _l
610 599 575 622 537 638 _c
499 653 460 661 418 661 _c
334 661 270 635 226 584 _c
182 533 160 460 160 364 _c
160 268 182 194 226 143 _c
270 92 334 67 418 67 _c
460 67 499 74 537 90 _c
575 105 610 128 644 159 _c
644 56 _l
609 32 572 15 534 4 _c
496 -7 455 -13 412 -13 _c
302 -13 215 20 151 87 _c
}_e{87 154 56 246 56 364 _c
56 481 87 573 151 641 _c
215 708 302 742 412 742 _c
456 742 497 736 535 725 _c
573 713 610 696 644 673 _c
_cl}_e}_d
/F{575 0 98 0 517 729 _sc
98 729 _m
517 729 _l
517 646 _l
197 646 _l
197 431 _l
486 431 _l
486 348 _l
197 348 _l
197 0 _l
98 0 _l
98 729 _l
_cl}_d
/G{{775 0 56 -13 693 742 _sc
595 104 _m
595 300 _l
434 300 _l
434 381 _l
693 381 _l
693 68 _l
655 40 613 20 567 7 _c
521 -6 472 -13 420 -13 _c
306 -13 216 20 152 86 _c
88 152 56 245 56 364 _c
56 482 88 575 152 642 _c
216 708 306 742 420 742 _c
467 742 512 736 555 724 _c
598 712 638 695 674 673 _c
674 568 _l
637 598 598 621 557 637 _c
516 653 473 661 428 661 _c
}_e{338 661 271 636 227 586 _c
182 536 160 462 160 364 _c
160 265 182 191 227 141 _c
271 91 338 67 428 67 _c
462 67 493 70 521 76 _c
549 82 573 91 595 104 _c
_cl}_e}_d
/R{{695 0 98 0 666 729 _sc
444 342 _m
465 334 486 319 506 296 _c
526 272 546 240 566 199 _c
666 0 _l
560 0 _l
467 187 _l
443 235 419 268 397 284 _c
374 300 343 308 304 308 _c
197 308 _l
197 0 _l
98 0 _l
98 729 _l
321 729 _l
404 729 466 711 507 677 _c
548 642 569 589 569 519 _c
569 473 558 434 537 404 _c
515 374 484 353 444 342 _c
197 648 _m
197 389 _l
321 389 _l
}_e{368 389 404 400 428 422 _c
452 444 465 476 465 519 _c
465 561 452 593 428 615 _c
404 637 368 648 321 648 _c
197 648 _l
_cl}_e}_d
/T{611 0 -2 0 614 729 _sc
-2 729 _m
614 729 _l
614 646 _l
355 646 _l
355 0 _l
256 0 _l
256 646 _l
-2 646 _l
-2 729 _l
_cl}_d
/a{{613 0 60 -13 522 560 _sc
343 275 _m
270 275 220 266 192 250 _c
164 233 150 205 150 165 _c
150 133 160 107 181 89 _c
202 70 231 61 267 61 _c
317 61 357 78 387 114 _c
417 149 432 196 432 255 _c
432 275 _l
343 275 _l
522 312 _m
522 0 _l
432 0 _l
432 83 _l
411 49 385 25 355 10 _c
325 -5 287 -13 243 -13 _c
187 -13 142 2 109 33 _c
76 64 60 106 60 159 _c
}_e{60 220 80 266 122 298 _c
163 329 224 345 306 345 _c
432 345 _l
432 354 _l
432 395 418 427 391 450 _c
364 472 326 484 277 484 _c
245 484 215 480 185 472 _c
155 464 127 453 100 439 _c
100 522 _l
132 534 164 544 195 550 _c
226 556 256 560 286 560 _c
365 560 424 539 463 498 _c
502 457 522 395 522 312 _c
_cl}_e}_d
/c{{550 0 55 -13 488 560 _sc
488 526 _m
488 442 _l
462 456 437 466 411 473 _c
385 480 360 484 334 484 _c
276 484 230 465 198 428 _c
166 391 150 339 150 273 _c
150 206 166 154 198 117 _c
230 80 276 62 334 62 _c
360 62 385 65 411 72 _c
437 79 462 90 488 104 _c
488 21 _l
462 9 436 0 410 -5 _c
383 -10 354 -13 324 -13 _c
242 -13 176 12 128 64 _c
}_e{79 115 55 185 55 273 _c
55 362 79 432 128 483 _c
177 534 244 560 330 560 _c
358 560 385 557 411 551 _c
437 545 463 537 488 526 _c
_cl}_e}_d
/e{{615 0 55 -13 562 560 _sc
562 296 _m
562 252 _l
149 252 _l
153 190 171 142 205 110 _c
238 78 284 62 344 62 _c
378 62 412 66 444 74 _c
476 82 509 95 541 113 _c
541 28 _l
509 14 476 3 442 -3 _c
408 -9 373 -13 339 -13 _c
251 -13 182 12 131 62 _c
80 112 55 181 55 268 _c
55 357 79 428 127 481 _c
175 533 241 560 323 560 _c
397 560 455 536 498 489 _c
}_e{540 441 562 377 562 296 _c
472 322 _m
471 371 457 410 431 440 _c
404 469 368 484 324 484 _c
274 484 234 469 204 441 _c
174 413 156 373 152 322 _c
472 322 _l
_cl}_e}_d
/i{278 0 94 0 184 760 _sc
94 547 _m
184 547 _l
184 0 _l
94 0 _l
94 547 _l
94 760 _m
184 760 _l
184 646 _l
94 646 _l
94 760 _l
_cl}_d
/j{278 0 -17 -207 184 760 _sc
94 547 _m
184 547 _l
184 -9 _l
184 -78 170 -128 144 -160 _c
117 -191 74 -207 16 -207 _c
-17 -207 _l
-17 -131 _l
6 -131 _l
40 -131 63 -123 75 -107 _c
87 -91 94 -58 94 -9 _c
94 547 _l
94 760 _m
184 760 _l
184 646 _l
94 646 _l
94 760 _l
_cl}_d
/l{278 0 94 0 184 760 _sc
94 760 _m
184 760 _l
184 0 _l
94 0 _l
94 760 _l
_cl}_d
/m{{974 0 91 0 889 560 _sc
520 442 _m
542 482 569 511 600 531 _c
631 550 668 560 711 560 _c
767 560 811 540 842 500 _c
873 460 889 403 889 330 _c
889 0 _l
799 0 _l
799 327 _l
799 379 789 418 771 444 _c
752 469 724 482 686 482 _c
639 482 602 466 575 435 _c
548 404 535 362 535 309 _c
535 0 _l
445 0 _l
445 327 _l
445 379 435 418 417 444 _c
398 469 369 482 331 482 _c
}_e{285 482 248 466 221 435 _c
194 404 181 362 181 309 _c
181 0 _l
91 0 _l
91 547 _l
181 547 _l
181 462 _l
201 495 226 520 255 536 _c
283 552 317 560 357 560 _c
397 560 430 550 458 530 _c
486 510 506 480 520 442 _c
_cl}_e}_d
/n{634 0 91 0 549 560 _sc
549 330 _m
549 0 _l
459 0 _l
459 327 _l
459 379 448 417 428 443 _c
408 469 378 482 338 482 _c
289 482 251 466 223 435 _c
195 404 181 362 181 309 _c
181 0 _l
91 0 _l
91 547 _l
181 547 _l
181 462 _l
202 494 227 519 257 535 _c
286 551 320 560 358 560 _c
420 560 468 540 500 501 _c
532 462 549 405 549 330 _c
_cl}_d
/o{612 0 55 -13 557 560 _sc
306 484 _m
258 484 220 465 192 427 _c
164 389 150 338 150 273 _c
150 207 163 156 191 118 _c
219 80 257 62 306 62 _c
354 62 392 80 420 118 _c
448 156 462 207 462 273 _c
462 337 448 389 420 427 _c
392 465 354 484 306 484 _c
306 560 _m
384 560 445 534 490 484 _c
534 433 557 363 557 273 _c
557 183 534 113 490 63 _c
445 12 384 -13 306 -13 _c
227 -13 165 12 121 63 _c
77 113 55 183 55 273 _c
55 363 77 433 121 484 _c
165 534 227 560 306 560 _c
_cl}_d
/p{{635 0 91 -207 580 560 _sc
181 82 _m
181 -207 _l
91 -207 _l
91 547 _l
181 547 _l
181 464 _l
199 496 223 520 252 536 _c
281 552 316 560 356 560 _c
422 560 476 533 518 481 _c
559 428 580 359 580 273 _c
580 187 559 117 518 65 _c
476 13 422 -13 356 -13 _c
316 -13 281 -5 252 10 _c
223 25 199 49 181 82 _c
487 273 _m
487 339 473 390 446 428 _c
418 466 381 485 334 485 _c
}_e{286 485 249 466 222 428 _c
194 390 181 339 181 273 _c
181 207 194 155 222 117 _c
249 79 286 61 334 61 _c
381 61 418 79 446 117 _c
473 155 487 207 487 273 _c
_cl}_e}_d
/r{411 0 91 0 411 560 _sc
411 463 _m
401 469 390 473 378 476 _c
366 478 353 480 339 480 _c
288 480 249 463 222 430 _c
194 397 181 350 181 288 _c
181 0 _l
91 0 _l
91 547 _l
181 547 _l
181 462 _l
199 495 224 520 254 536 _c
284 552 321 560 365 560 _c
371 560 378 559 386 559 _c
393 558 401 557 411 555 _c
411 463 _l
_cl}_d
/s{{521 0 54 -13 472 560 _sc
443 531 _m
443 446 _l
417 458 391 468 364 475 _c
336 481 308 485 279 485 _c
234 485 200 478 178 464 _c
156 450 145 430 145 403 _c
145 382 153 366 169 354 _c
185 342 217 330 265 320 _c
296 313 _l
360 299 405 279 432 255 _c
458 230 472 195 472 151 _c
472 100 452 60 412 31 _c
372 1 316 -13 246 -13 _c
216 -13 186 -10 154 -5 _c
}_e{122 0 89 8 54 20 _c
54 113 _l
87 95 120 82 152 74 _c
184 65 216 61 248 61 _c
290 61 323 68 346 82 _c
368 96 380 117 380 144 _c
380 168 371 187 355 200 _c
339 213 303 226 247 238 _c
216 245 _l
160 257 119 275 95 299 _c
70 323 58 356 58 399 _c
58 450 76 490 112 518 _c
148 546 200 560 268 560 _c
301 560 332 557 362 552 _c
391 547 418 540 443 531 _c
}_e{_cl}_e}_d
/t{392 0 27 0 368 702 _sc
183 702 _m
183 547 _l
368 547 _l
368 477 _l
183 477 _l
183 180 _l
183 135 189 106 201 94 _c
213 81 238 75 276 75 _c
368 75 _l
368 0 _l
276 0 _l
206 0 158 13 132 39 _c
106 65 93 112 93 180 _c
93 477 _l
27 477 _l
27 547 _l
93 547 _l
93 702 _l
183 702 _l
_cl}_d
/u{634 0 85 -13 543 560 _sc
85 216 _m
85 547 _l
175 547 _l
175 219 _l
175 167 185 129 205 103 _c
225 77 255 64 296 64 _c
344 64 383 79 411 110 _c
439 141 453 183 453 237 _c
453 547 _l
543 547 _l
543 0 _l
453 0 _l
453 84 _l
431 50 405 26 377 10 _c
348 -5 315 -13 277 -13 _c
214 -13 166 6 134 45 _c
101 83 85 140 85 216 _c
311 560 _m
311 560 _l
_cl}_d
/v{592 0 30 0 562 547 _sc
30 547 _m
125 547 _l
296 88 _l
467 547 _l
562 547 _l
357 0 _l
235 0 _l
30 547 _l
_cl}_d
end readonly def

/BuildGlyph
 {exch begin
 CharStrings exch
 2 copy known not{pop /.notdef}if
 true 3 1 roll get exec
 end}_d

/BuildChar {
 1 index /Encoding get exch get
 1 index /BuildGlyph get exec
}_d

FontName currentdict end definefont pop
end
%%EndProlog
mpldict begin
-27.231 208.654 translate
666.462 374.692 0 0 clipbox
gsave
0 0 m
666.4625 0 l
666.4625 374.6925 l
0 374.6925 l
cl
1.000 setgray
fill
grestore
gsave
101.2625 68.5125 m
659.2625 68.5125 l
659.2625 367.4925 l
101.2625 367.4925 l
cl
1.000 setgray
fill
grestore
0.800 setlinewidth
1 setlinejoin
0 setlinecap
[] 0 setdash
0.000 setgray
gsave
/o {
gsave
newpath
translate
0.8 setlinewidth
1 setlinejoin
0 setlinecap
0 0 m
0 -3.5 l

gsave
0.000 setgray
fill
grestore
stroke
grestore
} bind def
126.626 68.5125 o
grestore
/DejaVuSans findfont
26.000 scalefont
setfont
gsave
105.946449 41.762500 translate
0.000000 rotate
0.000000 0.000000 m /zero glyphshow
16.541992 0.000000 m /period glyphshow
24.806641 0.000000 m /zero glyphshow
grestore
gsave
/o {
gsave
newpath
translate
0.8 setlinewidth
1 setlinejoin
0 setlinecap
0 0 m
0 -3.5 l

gsave
0.000 setgray
fill
grestore
stroke
grestore
} bind def
228.081 68.5125 o
grestore
gsave
207.400994 41.762500 translate
0.000000 rotate
0.000000 0.000000 m /zero glyphshow
16.541992 0.000000 m /period glyphshow
24.806641 0.000000 m /two glyphshow
grestore
gsave
/o {
gsave
newpath
translate
0.8 setlinewidth
1 setlinejoin
0 setlinecap
0 0 m
0 -3.5 l

gsave
0.000 setgray
fill
grestore
stroke
grestore
} bind def
329.535 68.5125 o
grestore
gsave
308.855540 41.762500 translate
0.000000 rotate
0.000000 0.000000 m /zero glyphshow
16.541992 0.000000 m /period glyphshow
24.806641 0.000000 m /four glyphshow
grestore
gsave
/o {
gsave
newpath
translate
0.8 setlinewidth
1 setlinejoin
0 setlinecap
0 0 m
0 -3.5 l

gsave
0.000 setgray
fill
grestore
stroke
grestore
} bind def
430.99 68.5125 o
grestore
gsave
410.310085 41.762500 translate
0.000000 rotate
0.000000 0.000000 m /zero glyphshow
16.541992 0.000000 m /period glyphshow
24.806641 0.000000 m /six glyphshow
grestore
gsave
/o {
gsave
newpath
translate
0.8 setlinewidth
1 setlinejoin
0 setlinecap
0 0 m
0 -3.5 l

gsave
0.000 setgray
fill
grestore
stroke
grestore
} bind def
532.444 68.5125 o
grestore
gsave
511.764631 41.762500 translate
0.000000 rotate
0.000000 0.000000 m /zero glyphshow
16.541992 0.000000 m /period glyphshow
24.806641 0.000000 m /eight glyphshow
grestore
gsave
/o {
gsave
newpath
translate
0.8 setlinewidth
1 setlinejoin
0 setlinecap
0 0 m
0 -3.5 l

gsave
0.000 setgray
fill
grestore
stroke
grestore
} bind def
633.899 68.5125 o
grestore
gsave
613.219176 41.762500 translate
0.000000 rotate
0.000000 0.000000 m /one glyphshow
16.541992 0.000000 m /period glyphshow
24.806641 0.000000 m /zero glyphshow
grestore
gsave
252.059375 12.606250 translate
0.000000 rotate
0.000000 0.000000 m /G glyphshow
20.147461 0.000000 m /e glyphshow
36.143555 0.000000 m /s glyphshow
49.689453 0.000000 m /t glyphshow
59.883789 0.000000 m /u glyphshow
76.362305 0.000000 m /r glyphshow
87.051758 0.000000 m /e glyphshow
103.047852 0.000000 m /space glyphshow
111.312500 0.000000 m /c glyphshow
125.607422 0.000000 m /o glyphshow
141.514648 0.000000 m /m glyphshow
166.841797 0.000000 m /p glyphshow
183.345703 0.000000 m /l glyphshow
190.569336 0.000000 m /e glyphshow
206.565430 0.000000 m /t glyphshow
216.759766 0.000000 m /i glyphshow
223.983398 0.000000 m /o glyphshow
239.890625 0.000000 m /n glyphshow
grestore
0.400 setlinewidth
2 setlinecap
0.690 setgray
gsave
558 299 101.3 68.51 clipbox
101.2625 82.1025 m
659.2625 82.1025 l
stroke
grestore
0.800 setlinewidth
0 setlinecap
0.000 setgray
gsave
/o {
gsave
newpath
translate
0.8 setlinewidth
1 setlinejoin
0 setlinecap
0 0 m
-3.5 0 l

gsave
0.000 setgray
fill
grestore
stroke
grestore
} bind def
101.263 82.1025 o
grestore
gsave
36.356250 72.227500 translate
0.000000 rotate
0.000000 0.000000 m /zero glyphshow
16.541992 0.000000 m /period glyphshow
24.806641 0.000000 m /zero glyphshow
41.348633 0.000000 m /zero glyphshow
grestore
0.400 setlinewidth
2 setlinecap
0.690 setgray
gsave
558 299 101.3 68.51 clipbox
101.2625 150.0525 m
659.2625 150.0525 l
stroke
grestore
0.800 setlinewidth
0 setlinecap
0.000 setgray
gsave
/o {
gsave
newpath
translate
0.8 setlinewidth
1 setlinejoin
0 setlinecap
0 0 m
-3.5 0 l

gsave
0.000 setgray
fill
grestore
stroke
grestore
} bind def
101.263 150.053 o
grestore
gsave
36.356250 140.177500 translate
0.000000 rotate
0.000000 0.000000 m /zero glyphshow
16.541992 0.000000 m /period glyphshow
24.806641 0.000000 m /two glyphshow
41.348633 0.000000 m /five glyphshow
grestore
0.400 setlinewidth
2 setlinecap
0.690 setgray
gsave
558 299 101.3 68.51 clipbox
101.2625 218.0025 m
659.2625 218.0025 l
stroke
grestore
0.800 setlinewidth
0 setlinecap
0.000 setgray
gsave
/o {
gsave
newpath
translate
0.8 setlinewidth
1 setlinejoin
0 setlinecap
0 0 m
-3.5 0 l

gsave
0.000 setgray
fill
grestore
stroke
grestore
} bind def
101.263 218.002 o
grestore
gsave
36.356250 208.127500 translate
0.000000 rotate
0.000000 0.000000 m /zero glyphshow
16.541992 0.000000 m /period glyphshow
24.806641 0.000000 m /five glyphshow
41.348633 0.000000 m /zero glyphshow
grestore
0.400 setlinewidth
2 setlinecap
0.690 setgray
gsave
558 299 101.3 68.51 clipbox
101.2625 285.9525 m
659.2625 285.9525 l
stroke
grestore
0.800 setlinewidth
0 setlinecap
0.000 setgray
gsave
/o {
gsave
newpath
translate
0.8 setlinewidth
1 setlinejoin
0 setlinecap
0 0 m
-3.5 0 l

gsave
0.000 setgray
fill
grestore
stroke
grestore
} bind def
101.263 285.953 o
grestore
gsave
36.356250 276.077500 translate
0.000000 rotate
0.000000 0.000000 m /zero glyphshow
16.541992 0.000000 m /period glyphshow
24.806641 0.000000 m /seven glyphshow
41.348633 0.000000 m /five glyphshow
grestore
0.400 setlinewidth
2 setlinecap
0.690 setgray
gsave
558 299 101.3 68.51 clipbox
101.2625 353.9025 m
659.2625 353.9025 l
stroke
grestore
0.800 setlinewidth
0 setlinecap
0.000 setgray
gsave
/o {
gsave
newpath
translate
0.8 setlinewidth
1 setlinejoin
0 setlinecap
0 0 m
-3.5 0 l

gsave
0.000 setgray
fill
grestore
stroke
grestore
} bind def
101.263 353.903 o
grestore
gsave
36.356250 344.027500 translate
0.000000 rotate
0.000000 0.000000 m /one glyphshow
16.541992 0.000000 m /period glyphshow
24.806641 0.000000 m /zero glyphshow
41.348633 0.000000 m /zero glyphshow
grestore
gsave
26.950000 187.900937 translate
90.000000 rotate
0.000000 0.000000 m /R glyphshow
18.065430 0.000000 m /a glyphshow
33.998047 0.000000 m /t glyphshow
44.192383 0.000000 m /e glyphshow
grestore
1.500 setlinewidth
2 setlinecap
0.000 0.000 1.000 setrgbcolor
gsave
558 299 101.3 68.51 clipbox
126.626136 353.9025 m
131.750103 353.9025 l
136.87407 353.9025 l
141.998037 353.9025 l
147.122004 353.9025 l
152.245971 353.9025 l
157.369938 353.9025 l
162.493905 353.9025 l
167.617872 353.9025 l
172.741839 353.9025 l
177.865806 353.9025 l
182.989773 353.9025 l
188.11374 353.9025 l
193.237707 353.9025 l
198.361674 353.9025 l
203.48564 353.9025 l
208.609607 353.9025 l
213.733574 353.9025 l
218.857541 353.9025 l
223.981508 353.9025 l
229.105475 353.9025 l
234.229442 353.9025 l
239.353409 353.9025 l
244.477376 353.9025 l
249.601343 353.9025 l
254.72531 353.9025 l
259.849277 353.9025 l
264.973244 353.9025 l
270.097211 353.9025 l
275.221178 353.9025 l
280.345145 353.9025 l
285.469112 353.9025 l
290.593079 353.9025 l
295.717045 353.9025 l
300.841012 353.9025 l
305.964979 353.681524 l
311.088946 353.681524 l
316.212913 353.681524 l
321.33688 353.681524 l
326.460847 353.681524 l
331.584814 353.681524 l
336.708781 353.681524 l
341.832748 353.681524 l
346.956715 353.018598 l
352.080682 353.018598 l
357.204649 353.018598 l
362.328616 352.797622 l
367.452583 352.576646 l
372.57655 352.576646 l
377.700517 352.576646 l
382.824483 351.91372 l
387.94845 351.91372 l
393.072417 351.692744 l
398.196384 351.692744 l
403.320351 351.250793 l
408.444318 350.587866 l
413.568285 350.145915 l
418.692252 350.145915 l
423.816219 349.703963 l
428.940186 348.820061 l
434.064153 347.273232 l
439.18812 346.610305 l
444.312087 345.726402 l
449.436054 345.505427 l
454.560021 343.958598 l
459.683988 342.85372 l
464.807955 341.30689 l
469.931921 341.30689 l
475.055888 340.202012 l
480.179855 338.434207 l
485.303822 336.445427 l
490.427789 335.561524 l
495.551756 333.130793 l
500.675723 331.142012 l
505.79969 330.700061 l
510.923657 327.385427 l
516.047624 324.954695 l
521.171591 321.640061 l
526.295558 320.535183 l
531.419525 319.209329 l
536.543492 317.6625 l
541.667459 314.568841 l
546.791426 312.580061 l
551.915393 309.486402 l
557.03936 307.276646 l
562.163326 304.845915 l
567.287293 303.520061 l
572.41126 300.868354 l
577.535227 297.55372 l
582.659194 296.448841 l
587.783161 292.029329 l
592.907128 290.040549 l
598.031095 287.167866 l
603.155062 284.074207 l
608.279029 279.875671 l
613.402996 275.456159 l
618.526963 274.793232 l
623.65093 274.572256 l
628.774897 274.572256 l
633.898864 102.21128 l
stroke
grestore
0.000 0.502 0.000 setrgbcolor
gsave
558 299 101.3 68.51 clipbox
126.626136 82.1025 m
131.750103 82.1025 l
136.87407 82.1025 l
141.998037 82.1025 l
147.122004 82.1025 l
152.245971 82.1025 l
157.369938 82.1025 l
162.493905 82.1025 l
167.617872 82.1025 l
172.741839 82.1025 l
177.865806 82.1025 l
182.989773 82.1025 l
188.11374 82.1025 l
193.237707 82.1025 l
198.361674 82.1025 l
203.48564 82.1025 l
208.609607 82.1025 l
213.733574 82.1025 l
218.857541 82.1025 l
223.981508 82.1025 l
229.105475 82.1025 l
234.229442 82.1025 l
239.353409 82.1025 l
244.477376 82.1025 l
249.601343 82.1025 l
254.72531 82.1025 l
259.849277 82.1025 l
264.973244 82.1025 l
270.097211 82.1025 l
275.221178 82.1025 l
280.345145 82.1025 l
285.469112 82.1025 l
290.593079 82.1025 l
295.717045 82.1025 l
300.841012 82.1025 l
305.964979 82.323476 l
311.088946 82.323476 l
316.212913 82.323476 l
321.33688 82.323476 l
326.460847 82.323476 l
331.584814 82.323476 l
336.708781 82.323476 l
341.832748 82.323476 l
346.956715 82.544451 l
352.080682 82.544451 l
357.204649 82.544451 l
362.328616 82.544451 l
367.452583 82.544451 l
372.57655 82.544451 l
377.700517 82.544451 l
382.824483 82.986402 l
387.94845 82.986402 l
393.072417 83.207378 l
398.196384 83.207378 l
403.320351 83.428354 l
408.444318 83.649329 l
413.568285 84.09128 l
418.692252 84.09128 l
423.816219 84.09128 l
428.940186 84.312256 l
434.064153 85.417134 l
439.18812 86.080061 l
444.312087 86.742988 l
449.436054 86.963963 l
454.560021 88.289817 l
459.683988 89.17372 l
464.807955 90.499573 l
469.931921 90.499573 l
475.055888 91.604451 l
480.179855 92.709329 l
485.303822 94.477134 l
490.427789 95.140061 l
495.551756 96.907866 l
500.675723 98.454695 l
505.79969 98.675671 l
510.923657 101.769329 l
516.047624 103.979085 l
521.171591 107.072744 l
526.295558 108.177622 l
531.419525 109.2825 l
536.543492 110.829329 l
541.667459 113.922988 l
546.791426 115.911768 l
551.915393 118.784451 l
557.03936 120.994207 l
562.163326 123.424939 l
567.287293 124.750793 l
572.41126 127.4025 l
577.535227 130.496159 l
582.659194 131.601037 l
587.783161 135.799573 l
592.907128 137.788354 l
598.031095 140.661037 l
603.155062 143.754695 l
608.279029 147.51128 l
613.402996 151.930793 l
618.526963 152.59372 l
623.65093 152.814695 l
628.774897 152.814695 l
633.898864 313.684939 l
stroke
grestore
1.000 0.000 0.000 setrgbcolor
gsave
558 299 101.3 68.51 clipbox
126.626136 82.1025 m
131.750103 82.1025 l
136.87407 82.1025 l
141.998037 82.1025 l
147.122004 82.1025 l
152.245971 82.1025 l
157.369938 82.1025 l
162.493905 82.1025 l
167.617872 82.1025 l
172.741839 82.1025 l
177.865806 82.1025 l
182.989773 82.1025 l
188.11374 82.1025 l
193.237707 82.1025 l
198.361674 82.1025 l
203.48564 82.1025 l
208.609607 82.1025 l
213.733574 82.1025 l
218.857541 82.1025 l
223.981508 82.1025 l
229.105475 82.1025 l
234.229442 82.1025 l
239.353409 82.1025 l
244.477376 82.1025 l
249.601343 82.1025 l
254.72531 82.1025 l
259.849277 82.1025 l
264.973244 82.1025 l
270.097211 82.1025 l
275.221178 82.1025 l
280.345145 82.1025 l
285.469112 82.1025 l
290.593079 82.1025 l
295.717045 82.1025 l
300.841012 82.1025 l
305.964979 82.1025 l
311.088946 82.1025 l
316.212913 82.1025 l
321.33688 82.1025 l
326.460847 82.1025 l
331.584814 82.1025 l
336.708781 82.1025 l
341.832748 82.1025 l
346.956715 82.544451 l
352.080682 82.544451 l
357.204649 82.544451 l
362.328616 82.765427 l
367.452583 82.986402 l
372.57655 82.986402 l
377.700517 82.986402 l
382.824483 83.207378 l
387.94845 83.207378 l
393.072417 83.207378 l
398.196384 83.207378 l
403.320351 83.428354 l
408.444318 83.870305 l
413.568285 83.870305 l
418.692252 83.870305 l
423.816219 84.312256 l
428.940186 84.975183 l
434.064153 85.417134 l
439.18812 85.417134 l
444.312087 85.63811 l
449.436054 85.63811 l
454.560021 85.859085 l
459.683988 86.080061 l
464.807955 86.301037 l
469.931921 86.301037 l
475.055888 86.301037 l
480.179855 86.963963 l
485.303822 87.184939 l
490.427789 87.405915 l
495.551756 88.068841 l
500.675723 88.510793 l
505.79969 88.731768 l
510.923657 88.952744 l
516.047624 89.17372 l
521.171591 89.394695 l
526.295558 89.394695 l
531.419525 89.615671 l
536.543492 89.615671 l
541.667459 89.615671 l
546.791426 89.615671 l
551.915393 89.836646 l
557.03936 89.836646 l
562.163326 89.836646 l
567.287293 89.836646 l
572.41126 89.836646 l
577.535227 90.057622 l
582.659194 90.057622 l
587.783161 90.278598 l
592.907128 90.278598 l
598.031095 90.278598 l
603.155062 90.278598 l
608.279029 90.720549 l
613.402996 90.720549 l
618.526963 90.720549 l
623.65093 90.720549 l
628.774897 90.720549 l
633.898864 102.21128 l
stroke
grestore
0.800 setlinewidth
0 setlinejoin
[] 0 setdash
0.000 setgray
gsave
101.2625 68.5125 m
101.2625 367.4925 l
stroke
grestore
gsave
659.2625 68.5125 m
659.2625 367.4925 l
stroke
grestore
gsave
101.2625 68.5125 m
659.2625 68.5125 l
stroke
grestore
gsave
101.2625 367.4925 m
659.2625 367.4925 l
stroke
grestore
1.000 setlinewidth
0 setlinecap
0.800 setgray
gsave
119.4625 156.868125 m
411.053125 156.868125 l
414.519792 156.868125 416.253125 158.601458 416.253125 162.068125 c
416.253125 273.936875 l
416.253125 277.403542 414.519792 279.136875 411.053125 279.136875 c
119.4625 279.136875 l
115.995833 279.136875 114.2625 277.403542 114.2625 273.936875 c
114.2625 162.068125 l
114.2625 158.601458 115.995833 156.868125 119.4625 156.868125 c
cl
gsave
1.000 setgray
fill
grestore
stroke
grestore
1.500 setlinewidth
1 setlinejoin
2 setlinecap
[] 0 setdash
0.000 0.000 1.000 setrgbcolor
gsave
124.6625 258.086875 m
176.6625 258.086875 l
stroke
grestore
0.000 setgray
gsave
197.462500 248.986875 translate
0.000000 rotate
0.000000 0.000000 m /R glyphshow
18.049805 0.000000 m /e glyphshow
34.045898 0.000000 m /j glyphshow
41.269531 0.000000 m /e glyphshow
57.265625 0.000000 m /c glyphshow
71.560547 0.000000 m /t glyphshow
81.754883 0.000000 m /space glyphshow
90.019531 0.000000 m /R glyphshow
108.084961 0.000000 m /a glyphshow
124.017578 0.000000 m /t glyphshow
134.211914 0.000000 m /e glyphshow
grestore
0.000 0.502 0.000 setrgbcolor
gsave
124.6625 219.930625 m
176.6625 219.930625 l
stroke
grestore
0.000 setgray
gsave
197.462500 210.830625 translate
0.000000 rotate
0.000000 0.000000 m /C glyphshow
18.154297 0.000000 m /u glyphshow
34.632812 0.000000 m /m glyphshow
59.959961 0.000000 m /u glyphshow
76.438477 0.000000 m /l glyphshow
83.662109 0.000000 m /a glyphshow
99.594727 0.000000 m /t glyphshow
109.789062 0.000000 m /i glyphshow
117.012695 0.000000 m /v glyphshow
132.399414 0.000000 m /e glyphshow
148.395508 0.000000 m /space glyphshow
156.660156 0.000000 m /T glyphshow
172.510742 0.000000 m /A glyphshow
190.296875 0.000000 m /R glyphshow
grestore
1.000 0.000 0.000 setrgbcolor
gsave
124.6625 181.774375 m
176.6625 181.774375 l
stroke
grestore
0.000 setgray
gsave
197.462500 172.674375 translate
0.000000 rotate
0.000000 0.000000 m /C glyphshow
18.154297 0.000000 m /u glyphshow
34.632812 0.000000 m /m glyphshow
59.959961 0.000000 m /u glyphshow
76.438477 0.000000 m /l glyphshow
83.662109 0.000000 m /a glyphshow
99.594727 0.000000 m /t glyphshow
109.789062 0.000000 m /i glyphshow
117.012695 0.000000 m /v glyphshow
132.399414 0.000000 m /e glyphshow
148.395508 0.000000 m /space glyphshow
156.660156 0.000000 m /F glyphshow
171.583984 0.000000 m /A glyphshow
189.370117 0.000000 m /R glyphshow
grestore

end
showpage
