Model: "model_early2d"
_________________________________________________________________
Layer (type)                 Output Shape              Param #   
=================================================================
max_pooling3d (MaxPooling3D) multiple                  0         
_________________________________________________________________
max_pooling3d_1 (MaxPooling3 multiple                  0         
_________________________________________________________________
ConvLayer0Dilat1 (Conv3D)    multiple                  925       
_________________________________________________________________
ConvLayer1Dilat2 (Conv3D)    multiple                  11275     
_________________________________________________________________
ConvLayer2Dilat4 (Conv3D)    multiple                  11275     
_________________________________________________________________
ConvLayer3Dilat8 (Conv3D)    multiple                  11275     
_________________________________________________________________
ConvLayer4Dilat16 (Conv3D)   multiple                  11275     
_________________________________________________________________
ConvLayer5Dilat1 (Conv3D)    multiple                  11275     
_________________________________________________________________
ConvLayer6Dilat2 (Conv3D)    multiple                  11275     
_________________________________________________________________
ConvLayer7Dilat4 (Conv3D)    multiple                  11275     
_________________________________________________________________
ConvLayer8Dilat8 (Conv3D)    multiple                  11275     
_________________________________________________________________
ConvLayer9Dilat16 (Conv3D)   multiple                  11275     
_________________________________________________________________
dropout (Dropout)            multiple                  0         
_________________________________________________________________
dropout_1 (Dropout)          multiple                  0         
_________________________________________________________________
dropout_2 (Dropout)          multiple                  0         
_________________________________________________________________
dropout_3 (Dropout)          multiple                  0         
_________________________________________________________________
dropout_4 (Dropout)          multiple                  0         
_________________________________________________________________
dropout_5 (Dropout)          multiple                  0         
_________________________________________________________________
dropout_6 (Dropout)          multiple                  0         
_________________________________________________________________
dropout_7 (Dropout)          multiple                  0         
_________________________________________________________________
dropout_8 (Dropout)          multiple                  0         
_________________________________________________________________
dropout_9 (Dropout)          multiple                  0         
_________________________________________________________________
add (Add)                    multiple                  0         
_________________________________________________________________
re_lu (ReLU)                 multiple                  0         
_________________________________________________________________
first_layerClassif0 (Dense)  multiple                  633900    
_________________________________________________________________
dropout_10 (Dropout)         multiple                  0         
_________________________________________________________________
classification (Dense)       multiple                  4681      
_________________________________________________________________
classification_aux (Dense)   multiple                  4681      
_________________________________________________________________
select1 (Dense)              multiple                  22650     
_________________________________________________________________
selectFinal (Dense)          multiple                  151       
_________________________________________________________________
concatenate (Concatenate)    multiple                  0         
=================================================================
Total params: 768,463
Trainable params: 768,463
Non-trainable params: 0
_________________________________________________________________
