%!PS-Adobe-3.0 EPSF-3.0
%%Title: C:\workspace2\Datasets\2D\MTG\MTGSetB\Log\splendid-bush-10930\earlinessPerClass_t4.eps
%%Creator: matplotlib version 3.1.3, http://matplotlib.org/
%%CreationDate: Tue Apr 27 15:42:39 2021
%%Orientation: portrait
%%BoundingBox: -13.848437499999982 195.981875 625.8484375 596.018125
%%EndComments
%%BeginProlog
/mpldict 8 dict def
mpldict begin
/m { moveto } bind def
/l { lineto } bind def
/r { rlineto } bind def
/c { curveto } bind def
/cl { closepath } bind def
/box {
m
1 index 0 r
0 exch r
neg 0 r
cl
} bind def
/clipbox {
box
clip
newpath
} bind def
%!PS-Adobe-3.0 Resource-Font
%%Title: DejaVu Sans
%%Copyright: Copyright (c) 2003 by Bitstream, Inc. All Rights Reserved. Copyright (c) 2006 by Tavmjong Bah. All Rights Reserved. DejaVu changes are in public domain 
%%Creator: Converted from TrueType to type 3 by PPR
25 dict begin
/_d{bind def}bind def
/_m{moveto}_d
/_l{lineto}_d
/_cl{closepath eofill}_d
/_c{curveto}_d
/_sc{7 -1 roll{setcachedevice}{pop pop pop pop pop pop}ifelse}_d
/_e{exec}_d
/FontName /DejaVuSans def
/PaintType 0 def
/FontMatrix[.001 0 0 .001 0 0]def
/FontBBox[-1021 -463 1793 1232]def
/FontType 3 def
/Encoding [ /space /period /zero /one /two /three /four /five /six /seven /eight /nine /A /B /C /E /underscore /a /b /e /i /l /n /r /s ] def
/FontInfo 10 dict dup begin
/FamilyName (DejaVu Sans) def
/FullName (DejaVu Sans) def
/Notice (Copyright (c) 2003 by Bitstream, Inc. All Rights Reserved. Copyright (c) 2006 by Tavmjong Bah. All Rights Reserved. DejaVu changes are in public domain ) def
/Weight (Book) def
/Version (Version 2.35) def
/ItalicAngle 0.0 def
/isFixedPitch false def
/UnderlinePosition -130 def
/UnderlineThickness 90 def
end readonly def
/CharStrings 26 dict dup begin
/.notdef 0 def
/space{318 0 0 0 0 0 _sc
}_d
/period{318 0 107 0 210 124 _sc
107 124 _m
210 124 _l
210 0 _l
107 0 _l
107 124 _l
_cl}_d
/zero{636 0 66 -13 570 742 _sc
318 664 _m
267 664 229 639 203 589 _c
177 539 165 464 165 364 _c
165 264 177 189 203 139 _c
229 89 267 64 318 64 _c
369 64 407 89 433 139 _c
458 189 471 264 471 364 _c
471 464 458 539 433 589 _c
407 639 369 664 318 664 _c
318 742 _m
399 742 461 709 505 645 _c
548 580 570 486 570 364 _c
570 241 548 147 505 83 _c
461 19 399 -13 318 -13 _c
236 -13 173 19 130 83 _c
87 147 66 241 66 364 _c
66 486 87 580 130 645 _c
173 709 236 742 318 742 _c
_cl}_d
/one{636 0 110 0 544 729 _sc
124 83 _m
285 83 _l
285 639 _l
110 604 _l
110 694 _l
284 729 _l
383 729 _l
383 83 _l
544 83 _l
544 0 _l
124 0 _l
124 83 _l
_cl}_d
/two{{636 0 73 0 536 742 _sc
192 83 _m
536 83 _l
536 0 _l
73 0 _l
73 83 _l
110 121 161 173 226 239 _c
290 304 331 346 348 365 _c
380 400 402 430 414 455 _c
426 479 433 504 433 528 _c
433 566 419 598 392 622 _c
365 646 330 659 286 659 _c
255 659 222 653 188 643 _c
154 632 117 616 78 594 _c
78 694 _l
118 710 155 722 189 730 _c
223 738 255 742 284 742 _c
}_e{359 742 419 723 464 685 _c
509 647 532 597 532 534 _c
532 504 526 475 515 449 _c
504 422 484 390 454 354 _c
446 344 420 317 376 272 _c
332 227 271 164 192 83 _c
_cl}_e}_d
/three{{636 0 76 -13 556 742 _sc
406 393 _m
453 383 490 362 516 330 _c
542 298 556 258 556 212 _c
556 140 531 84 482 45 _c
432 6 362 -13 271 -13 _c
240 -13 208 -10 176 -4 _c
144 1 110 10 76 22 _c
76 117 _l
103 101 133 89 166 81 _c
198 73 232 69 268 69 _c
330 69 377 81 409 105 _c
441 129 458 165 458 212 _c
458 254 443 288 413 312 _c
383 336 341 349 287 349 _c
}_e{202 349 _l
202 430 _l
291 430 _l
339 430 376 439 402 459 _c
428 478 441 506 441 543 _c
441 580 427 609 401 629 _c
374 649 336 659 287 659 _c
260 659 231 656 200 650 _c
169 644 135 635 98 623 _c
98 711 _l
135 721 170 729 203 734 _c
235 739 266 742 296 742 _c
370 742 429 725 473 691 _c
517 657 539 611 539 553 _c
539 513 527 479 504 451 _c
481 423 448 403 406 393 _c
_cl}_e}_d
/four{636 0 49 0 580 729 _sc
378 643 _m
129 254 _l
378 254 _l
378 643 _l
352 729 _m
476 729 _l
476 254 _l
580 254 _l
580 172 _l
476 172 _l
476 0 _l
378 0 _l
378 172 _l
49 172 _l
49 267 _l
352 729 _l
_cl}_d
/five{{636 0 77 -13 549 729 _sc
108 729 _m
495 729 _l
495 646 _l
198 646 _l
198 467 _l
212 472 227 476 241 478 _c
255 480 270 482 284 482 _c
365 482 429 459 477 415 _c
525 370 549 310 549 234 _c
549 155 524 94 475 51 _c
426 8 357 -13 269 -13 _c
238 -13 207 -10 175 -6 _c
143 -1 111 6 77 17 _c
77 116 _l
106 100 136 88 168 80 _c
199 72 232 69 267 69 _c
}_e{323 69 368 83 401 113 _c
433 143 450 183 450 234 _c
450 284 433 324 401 354 _c
368 384 323 399 267 399 _c
241 399 214 396 188 390 _c
162 384 135 375 108 363 _c
108 729 _l
_cl}_e}_d
/six{{636 0 70 -13 573 742 _sc
330 404 _m
286 404 251 388 225 358 _c
199 328 186 286 186 234 _c
186 181 199 139 225 109 _c
251 79 286 64 330 64 _c
374 64 409 79 435 109 _c
461 139 474 181 474 234 _c
474 286 461 328 435 358 _c
409 388 374 404 330 404 _c
526 713 _m
526 623 _l
501 635 476 644 451 650 _c
425 656 400 659 376 659 _c
310 659 260 637 226 593 _c
}_e{192 549 172 482 168 394 _c
187 422 211 444 240 459 _c
269 474 301 482 336 482 _c
409 482 467 459 509 415 _c
551 371 573 310 573 234 _c
573 159 550 99 506 54 _c
462 9 403 -13 330 -13 _c
246 -13 181 19 137 83 _c
92 147 70 241 70 364 _c
70 479 97 571 152 639 _c
206 707 280 742 372 742 _c
396 742 421 739 447 735 _c
472 730 498 723 526 713 _c
_cl}_e}_d
/seven{636 0 82 0 551 729 _sc
82 729 _m
551 729 _l
551 687 _l
286 0 _l
183 0 _l
432 646 _l
82 646 _l
82 729 _l
_cl}_d
/eight{{636 0 68 -13 568 742 _sc
318 346 _m
271 346 234 333 207 308 _c
180 283 167 249 167 205 _c
167 161 180 126 207 101 _c
234 76 271 64 318 64 _c
364 64 401 76 428 102 _c
455 127 469 161 469 205 _c
469 249 455 283 429 308 _c
402 333 365 346 318 346 _c
219 388 _m
177 398 144 418 120 447 _c
96 476 85 511 85 553 _c
85 611 105 657 147 691 _c
188 725 245 742 318 742 _c
}_e{390 742 447 725 489 691 _c
530 657 551 611 551 553 _c
551 511 539 476 515 447 _c
491 418 459 398 417 388 _c
464 377 501 355 528 323 _c
554 291 568 251 568 205 _c
568 134 546 80 503 43 _c
459 5 398 -13 318 -13 _c
237 -13 175 5 132 43 _c
89 80 68 134 68 205 _c
68 251 81 291 108 323 _c
134 355 171 377 219 388 _c
183 544 _m
183 506 194 476 218 455 _c
}_e{242 434 275 424 318 424 _c
360 424 393 434 417 455 _c
441 476 453 506 453 544 _c
453 582 441 611 417 632 _c
393 653 360 664 318 664 _c
275 664 242 653 218 632 _c
194 611 183 582 183 544 _c
_cl}_e}_d
/nine{{636 0 63 -13 566 742 _sc
110 15 _m
110 105 _l
134 93 159 84 185 78 _c
210 72 235 69 260 69 _c
324 69 374 90 408 134 _c
442 178 462 244 468 334 _c
448 306 424 284 396 269 _c
367 254 335 247 300 247 _c
226 247 168 269 126 313 _c
84 357 63 417 63 494 _c
63 568 85 628 129 674 _c
173 719 232 742 306 742 _c
390 742 455 709 499 645 _c
543 580 566 486 566 364 _c
}_e{566 248 538 157 484 89 _c
429 21 356 -13 264 -13 _c
239 -13 214 -10 189 -6 _c
163 -2 137 5 110 15 _c
306 324 _m
350 324 385 339 411 369 _c
437 399 450 441 450 494 _c
450 546 437 588 411 618 _c
385 648 350 664 306 664 _c
262 664 227 648 201 618 _c
175 588 162 546 162 494 _c
162 441 175 399 201 369 _c
227 339 262 324 306 324 _c
_cl}_e}_d
/A{684 0 8 0 676 729 _sc
342 632 _m
208 269 _l
476 269 _l
342 632 _l
286 729 _m
398 729 _l
676 0 _l
573 0 _l
507 187 _l
178 187 _l
112 0 _l
8 0 _l
286 729 _l
_cl}_d
/B{{686 0 98 0 615 729 _sc
197 348 _m
197 81 _l
355 81 _l
408 81 447 92 473 114 _c
498 136 511 169 511 215 _c
511 260 498 293 473 315 _c
447 337 408 348 355 348 _c
197 348 _l
197 648 _m
197 428 _l
343 428 _l
391 428 426 437 450 455 _c
474 473 486 500 486 538 _c
486 574 474 602 450 620 _c
426 638 391 648 343 648 _c
197 648 _l
98 729 _m
350 729 _l
}_e{425 729 483 713 524 682 _c
564 650 585 606 585 549 _c
585 504 574 468 553 442 _c
532 416 502 399 462 393 _c
510 382 548 360 575 327 _c
601 294 615 253 615 204 _c
615 138 592 88 548 53 _c
504 17 441 0 360 0 _c
98 0 _l
98 729 _l
_cl}_e}_d
/C{{698 0 56 -13 644 742 _sc
644 673 _m
644 569 _l
610 599 575 622 537 638 _c
499 653 460 661 418 661 _c
334 661 270 635 226 584 _c
182 533 160 460 160 364 _c
160 268 182 194 226 143 _c
270 92 334 67 418 67 _c
460 67 499 74 537 90 _c
575 105 610 128 644 159 _c
644 56 _l
609 32 572 15 534 4 _c
496 -7 455 -13 412 -13 _c
302 -13 215 20 151 87 _c
}_e{87 154 56 246 56 364 _c
56 481 87 573 151 641 _c
215 708 302 742 412 742 _c
456 742 497 736 535 725 _c
573 713 610 696 644 673 _c
_cl}_e}_d
/E{632 0 98 0 568 729 _sc
98 729 _m
559 729 _l
559 646 _l
197 646 _l
197 430 _l
544 430 _l
544 347 _l
197 347 _l
197 83 _l
568 83 _l
568 0 _l
98 0 _l
98 729 _l
_cl}_d
/underscore{500 0 -9 -235 510 -165 _sc
510 -165 _m
510 -235 _l
-9 -235 _l
-9 -165 _l
510 -165 _l
_cl}_d
/a{{613 0 60 -13 522 560 _sc
343 275 _m
270 275 220 266 192 250 _c
164 233 150 205 150 165 _c
150 133 160 107 181 89 _c
202 70 231 61 267 61 _c
317 61 357 78 387 114 _c
417 149 432 196 432 255 _c
432 275 _l
343 275 _l
522 312 _m
522 0 _l
432 0 _l
432 83 _l
411 49 385 25 355 10 _c
325 -5 287 -13 243 -13 _c
187 -13 142 2 109 33 _c
76 64 60 106 60 159 _c
}_e{60 220 80 266 122 298 _c
163 329 224 345 306 345 _c
432 345 _l
432 354 _l
432 395 418 427 391 450 _c
364 472 326 484 277 484 _c
245 484 215 480 185 472 _c
155 464 127 453 100 439 _c
100 522 _l
132 534 164 544 195 550 _c
226 556 256 560 286 560 _c
365 560 424 539 463 498 _c
502 457 522 395 522 312 _c
_cl}_e}_d
/b{{635 0 91 -13 580 760 _sc
487 273 _m
487 339 473 390 446 428 _c
418 466 381 485 334 485 _c
286 485 249 466 222 428 _c
194 390 181 339 181 273 _c
181 207 194 155 222 117 _c
249 79 286 61 334 61 _c
381 61 418 79 446 117 _c
473 155 487 207 487 273 _c
181 464 _m
199 496 223 520 252 536 _c
281 552 316 560 356 560 _c
422 560 476 533 518 481 _c
559 428 580 359 580 273 _c
}_e{580 187 559 117 518 65 _c
476 13 422 -13 356 -13 _c
316 -13 281 -5 252 10 _c
223 25 199 49 181 82 _c
181 0 _l
91 0 _l
91 760 _l
181 760 _l
181 464 _l
_cl}_e}_d
/e{{615 0 55 -13 562 560 _sc
562 296 _m
562 252 _l
149 252 _l
153 190 171 142 205 110 _c
238 78 284 62 344 62 _c
378 62 412 66 444 74 _c
476 82 509 95 541 113 _c
541 28 _l
509 14 476 3 442 -3 _c
408 -9 373 -13 339 -13 _c
251 -13 182 12 131 62 _c
80 112 55 181 55 268 _c
55 357 79 428 127 481 _c
175 533 241 560 323 560 _c
397 560 455 536 498 489 _c
}_e{540 441 562 377 562 296 _c
472 322 _m
471 371 457 410 431 440 _c
404 469 368 484 324 484 _c
274 484 234 469 204 441 _c
174 413 156 373 152 322 _c
472 322 _l
_cl}_e}_d
/i{278 0 94 0 184 760 _sc
94 547 _m
184 547 _l
184 0 _l
94 0 _l
94 547 _l
94 760 _m
184 760 _l
184 646 _l
94 646 _l
94 760 _l
_cl}_d
/l{278 0 94 0 184 760 _sc
94 760 _m
184 760 _l
184 0 _l
94 0 _l
94 760 _l
_cl}_d
/n{634 0 91 0 549 560 _sc
549 330 _m
549 0 _l
459 0 _l
459 327 _l
459 379 448 417 428 443 _c
408 469 378 482 338 482 _c
289 482 251 466 223 435 _c
195 404 181 362 181 309 _c
181 0 _l
91 0 _l
91 547 _l
181 547 _l
181 462 _l
202 494 227 519 257 535 _c
286 551 320 560 358 560 _c
420 560 468 540 500 501 _c
532 462 549 405 549 330 _c
_cl}_d
/r{411 0 91 0 411 560 _sc
411 463 _m
401 469 390 473 378 476 _c
366 478 353 480 339 480 _c
288 480 249 463 222 430 _c
194 397 181 350 181 288 _c
181 0 _l
91 0 _l
91 547 _l
181 547 _l
181 462 _l
199 495 224 520 254 536 _c
284 552 321 560 365 560 _c
371 560 378 559 386 559 _c
393 558 401 557 411 555 _c
411 463 _l
_cl}_d
/s{{521 0 54 -13 472 560 _sc
443 531 _m
443 446 _l
417 458 391 468 364 475 _c
336 481 308 485 279 485 _c
234 485 200 478 178 464 _c
156 450 145 430 145 403 _c
145 382 153 366 169 354 _c
185 342 217 330 265 320 _c
296 313 _l
360 299 405 279 432 255 _c
458 230 472 195 472 151 _c
472 100 452 60 412 31 _c
372 1 316 -13 246 -13 _c
216 -13 186 -10 154 -5 _c
}_e{122 0 89 8 54 20 _c
54 113 _l
87 95 120 82 152 74 _c
184 65 216 61 248 61 _c
290 61 323 68 346 82 _c
368 96 380 117 380 144 _c
380 168 371 187 355 200 _c
339 213 303 226 247 238 _c
216 245 _l
160 257 119 275 95 299 _c
70 323 58 356 58 399 _c
58 450 76 490 112 518 _c
148 546 200 560 268 560 _c
301 560 332 557 362 552 _c
391 547 418 540 443 531 _c
}_e{_cl}_e}_d
end readonly def

/BuildGlyph
 {exch begin
 CharStrings exch
 2 copy known not{pop /.notdef}if
 true 3 1 roll get exec
 end}_d

/BuildChar {
 1 index /Encoding get exch get
 1 index /BuildGlyph get exec
}_d

FontName currentdict end definefont pop
end
%%EndProlog
mpldict begin
-13.848 195.982 translate
639.697 400.036 0 0 clipbox
gsave
0 0 m
639.696875 0 l
639.696875 400.03625 l
0 400.03625 l
cl
1.000 setgray
fill
grestore
gsave
74.496875 93.85625 m
632.496875 93.85625 l
632.496875 392.83625 l
74.496875 392.83625 l
cl
1.000 setgray
fill
grestore
gsave
558 299 74.5 93.86 clipbox
99.860511 93.85625 m
113.036426 93.85625 l
113.036426 378.599107 l
99.860511 378.599107 l
cl
0.122 0.467 0.706 setrgbcolor
fill
grestore
gsave
558 299 74.5 93.86 clipbox
116.330405 93.85625 m
129.50632 93.85625 l
129.50632 326.426989 l
116.330405 326.426989 l
cl
0.122 0.467 0.706 setrgbcolor
fill
grestore
gsave
558 299 74.5 93.86 clipbox
132.800299 93.85625 m
145.976214 93.85625 l
145.976214 232.72014 l
132.800299 232.72014 l
cl
0.122 0.467 0.706 setrgbcolor
fill
grestore
gsave
558 299 74.5 93.86 clipbox
149.270193 93.85625 m
162.446108 93.85625 l
162.446108 251.280868 l
149.270193 251.280868 l
cl
0.122 0.467 0.706 setrgbcolor
fill
grestore
gsave
558 299 74.5 93.86 clipbox
165.740086 93.85625 m
178.916001 93.85625 l
178.916001 204.400908 l
165.740086 204.400908 l
cl
0.122 0.467 0.706 setrgbcolor
fill
grestore
gsave
558 299 74.5 93.86 clipbox
182.20998 93.85625 m
195.385895 93.85625 l
195.385895 340.505709 l
182.20998 340.505709 l
cl
0.122 0.467 0.706 setrgbcolor
fill
grestore
gsave
558 299 74.5 93.86 clipbox
198.679874 93.85625 m
211.855789 93.85625 l
211.855789 260.556806 l
198.679874 260.556806 l
cl
0.122 0.467 0.706 setrgbcolor
fill
grestore
gsave
558 299 74.5 93.86 clipbox
215.149768 93.85625 m
228.325683 93.85625 l
228.325683 233.295692 l
215.149768 233.295692 l
cl
0.122 0.467 0.706 setrgbcolor
fill
grestore
gsave
558 299 74.5 93.86 clipbox
231.619661 93.85625 m
244.795576 93.85625 l
244.795576 286.719052 l
231.619661 286.719052 l
cl
0.122 0.467 0.706 setrgbcolor
fill
grestore
gsave
558 299 74.5 93.86 clipbox
248.089555 93.85625 m
261.26547 93.85625 l
261.26547 293.433377 l
248.089555 293.433377 l
cl
0.122 0.467 0.706 setrgbcolor
fill
grestore
gsave
558 299 74.5 93.86 clipbox
264.559449 93.85625 m
277.735364 93.85625 l
277.735364 274.464372 l
264.559449 274.464372 l
cl
0.122 0.467 0.706 setrgbcolor
fill
grestore
gsave
558 299 74.5 93.86 clipbox
281.029343 93.85625 m
294.205258 93.85625 l
294.205258 185.816622 l
281.029343 185.816622 l
cl
0.122 0.467 0.706 setrgbcolor
fill
grestore
gsave
558 299 74.5 93.86 clipbox
297.499236 93.85625 m
310.675151 93.85625 l
310.675151 203.041877 l
297.499236 203.041877 l
cl
0.122 0.467 0.706 setrgbcolor
fill
grestore
gsave
558 299 74.5 93.86 clipbox
313.96913 93.85625 m
327.145045 93.85625 l
327.145045 328.546025 l
313.96913 328.546025 l
cl
0.122 0.467 0.706 setrgbcolor
fill
grestore
gsave
558 299 74.5 93.86 clipbox
330.439024 93.85625 m
343.614939 93.85625 l
343.614939 179.934368 l
330.439024 179.934368 l
cl
0.122 0.467 0.706 setrgbcolor
fill
grestore
gsave
558 299 74.5 93.86 clipbox
346.908918 93.85625 m
360.084832 93.85625 l
360.084832 164.753185 l
346.908918 164.753185 l
cl
0.122 0.467 0.706 setrgbcolor
fill
grestore
gsave
558 299 74.5 93.86 clipbox
363.378811 93.85625 m
376.554726 93.85625 l
376.554726 167.220417 l
363.378811 167.220417 l
cl
0.122 0.467 0.706 setrgbcolor
fill
grestore
gsave
558 299 74.5 93.86 clipbox
379.848705 93.85625 m
393.02462 93.85625 l
393.02462 173.189628 l
379.848705 173.189628 l
cl
0.122 0.467 0.706 setrgbcolor
fill
grestore
gsave
558 299 74.5 93.86 clipbox
396.318599 93.85625 m
409.494514 93.85625 l
409.494514 155.666396 l
396.318599 155.666396 l
cl
0.122 0.467 0.706 setrgbcolor
fill
grestore
gsave
558 299 74.5 93.86 clipbox
412.788492 93.85625 m
425.964407 93.85625 l
425.964407 159.662209 l
412.788492 159.662209 l
cl
0.122 0.467 0.706 setrgbcolor
fill
grestore
gsave
558 299 74.5 93.86 clipbox
429.258386 93.85625 m
442.434301 93.85625 l
442.434301 216.928111 l
429.258386 216.928111 l
cl
0.122 0.467 0.706 setrgbcolor
fill
grestore
gsave
558 299 74.5 93.86 clipbox
445.72828 93.85625 m
458.904195 93.85625 l
458.904195 199.155552 l
445.72828 199.155552 l
cl
0.122 0.467 0.706 setrgbcolor
fill
grestore
gsave
558 299 74.5 93.86 clipbox
462.198174 93.85625 m
475.374089 93.85625 l
475.374089 209.751443 l
462.198174 209.751443 l
cl
0.122 0.467 0.706 setrgbcolor
fill
grestore
gsave
558 299 74.5 93.86 clipbox
478.668067 93.85625 m
491.843982 93.85625 l
491.843982 234.022306 l
478.668067 234.022306 l
cl
0.122 0.467 0.706 setrgbcolor
fill
grestore
gsave
558 299 74.5 93.86 clipbox
495.137961 93.85625 m
508.313876 93.85625 l
508.313876 290.782703 l
495.137961 290.782703 l
cl
0.122 0.467 0.706 setrgbcolor
fill
grestore
gsave
558 299 74.5 93.86 clipbox
511.607855 93.85625 m
524.78377 93.85625 l
524.78377 211.454151 l
511.607855 211.454151 l
cl
0.122 0.467 0.706 setrgbcolor
fill
grestore
gsave
558 299 74.5 93.86 clipbox
528.077749 93.85625 m
541.253664 93.85625 l
541.253664 261.79885 l
528.077749 261.79885 l
cl
0.122 0.467 0.706 setrgbcolor
fill
grestore
gsave
558 299 74.5 93.86 clipbox
544.547642 93.85625 m
557.723557 93.85625 l
557.723557 233.084732 l
544.547642 233.084732 l
cl
0.122 0.467 0.706 setrgbcolor
fill
grestore
gsave
558 299 74.5 93.86 clipbox
561.017536 93.85625 m
574.193451 93.85625 l
574.193451 270.859805 l
561.017536 270.859805 l
cl
0.122 0.467 0.706 setrgbcolor
fill
grestore
gsave
558 299 74.5 93.86 clipbox
577.48743 93.85625 m
590.663345 93.85625 l
590.663345 298.968961 l
577.48743 298.968961 l
cl
0.122 0.467 0.706 setrgbcolor
fill
grestore
gsave
558 299 74.5 93.86 clipbox
593.957324 93.85625 m
607.133239 93.85625 l
607.133239 149.566777 l
593.957324 149.566777 l
cl
0.122 0.467 0.706 setrgbcolor
fill
grestore
0.800 setlinewidth
1 setlinejoin
0 setlinecap
[] 0 setdash
0.000 setgray
gsave
/o {
gsave
newpath
translate
0.8 setlinewidth
1 setlinejoin
0 setlinecap
0 0 m
0 -3.5 l

gsave
0.000 setgray
fill
grestore
stroke
grestore
} bind def
106.448 93.8563 o
grestore
/DejaVuSans findfont
22.000 scalefont
setfont
gsave
112.018781 32.809375 translate
90.000000 rotate
0.000000 0.000000 m /A glyphshow
15.049805 0.000000 m /underscore glyphshow
26.049805 0.000000 m /zero glyphshow
40.046875 0.000000 m /two glyphshow
grestore
gsave
/o {
gsave
newpath
translate
0.8 setlinewidth
1 setlinejoin
0 setlinecap
0 0 m
0 -3.5 l

gsave
0.000 setgray
fill
grestore
stroke
grestore
} bind def
122.918 93.8563 o
grestore
gsave
128.488675 32.809375 translate
90.000000 rotate
0.000000 0.000000 m /A glyphshow
15.049805 0.000000 m /underscore glyphshow
26.049805 0.000000 m /zero glyphshow
40.046875 0.000000 m /three glyphshow
grestore
gsave
/o {
gsave
newpath
translate
0.8 setlinewidth
1 setlinejoin
0 setlinecap
0 0 m
0 -3.5 l

gsave
0.000 setgray
fill
grestore
stroke
grestore
} bind def
139.388 93.8563 o
grestore
gsave
144.958569 32.809375 translate
90.000000 rotate
0.000000 0.000000 m /A glyphshow
15.049805 0.000000 m /underscore glyphshow
26.049805 0.000000 m /zero glyphshow
40.046875 0.000000 m /four glyphshow
grestore
gsave
/o {
gsave
newpath
translate
0.8 setlinewidth
1 setlinejoin
0 setlinecap
0 0 m
0 -3.5 l

gsave
0.000 setgray
fill
grestore
stroke
grestore
} bind def
155.858 93.8563 o
grestore
gsave
161.428463 32.809375 translate
90.000000 rotate
0.000000 0.000000 m /A glyphshow
15.049805 0.000000 m /underscore glyphshow
26.049805 0.000000 m /zero glyphshow
40.046875 0.000000 m /five glyphshow
grestore
gsave
/o {
gsave
newpath
translate
0.8 setlinewidth
1 setlinejoin
0 setlinecap
0 0 m
0 -3.5 l

gsave
0.000 setgray
fill
grestore
stroke
grestore
} bind def
172.328 93.8563 o
grestore
gsave
177.898356 32.809375 translate
90.000000 rotate
0.000000 0.000000 m /A glyphshow
15.049805 0.000000 m /underscore glyphshow
26.049805 0.000000 m /zero glyphshow
40.046875 0.000000 m /six glyphshow
grestore
gsave
/o {
gsave
newpath
translate
0.8 setlinewidth
1 setlinejoin
0 setlinecap
0 0 m
0 -3.5 l

gsave
0.000 setgray
fill
grestore
stroke
grestore
} bind def
188.798 93.8563 o
grestore
gsave
194.368250 32.809375 translate
90.000000 rotate
0.000000 0.000000 m /A glyphshow
15.049805 0.000000 m /underscore glyphshow
26.049805 0.000000 m /zero glyphshow
40.046875 0.000000 m /seven glyphshow
grestore
gsave
/o {
gsave
newpath
translate
0.8 setlinewidth
1 setlinejoin
0 setlinecap
0 0 m
0 -3.5 l

gsave
0.000 setgray
fill
grestore
stroke
grestore
} bind def
205.268 93.8563 o
grestore
gsave
210.838144 32.809375 translate
90.000000 rotate
0.000000 0.000000 m /A glyphshow
15.049805 0.000000 m /underscore glyphshow
26.049805 0.000000 m /zero glyphshow
40.046875 0.000000 m /eight glyphshow
grestore
gsave
/o {
gsave
newpath
translate
0.8 setlinewidth
1 setlinejoin
0 setlinecap
0 0 m
0 -3.5 l

gsave
0.000 setgray
fill
grestore
stroke
grestore
} bind def
221.738 93.8563 o
grestore
gsave
227.308038 32.809375 translate
90.000000 rotate
0.000000 0.000000 m /A glyphshow
15.049805 0.000000 m /underscore glyphshow
26.049805 0.000000 m /zero glyphshow
40.046875 0.000000 m /nine glyphshow
grestore
gsave
/o {
gsave
newpath
translate
0.8 setlinewidth
1 setlinejoin
0 setlinecap
0 0 m
0 -3.5 l

gsave
0.000 setgray
fill
grestore
stroke
grestore
} bind def
238.208 93.8563 o
grestore
gsave
243.777931 32.809375 translate
90.000000 rotate
0.000000 0.000000 m /A glyphshow
15.049805 0.000000 m /underscore glyphshow
26.049805 0.000000 m /one glyphshow
40.046875 0.000000 m /zero glyphshow
grestore
gsave
/o {
gsave
newpath
translate
0.8 setlinewidth
1 setlinejoin
0 setlinecap
0 0 m
0 -3.5 l

gsave
0.000 setgray
fill
grestore
stroke
grestore
} bind def
254.678 93.8563 o
grestore
gsave
260.138450 32.809375 translate
90.000000 rotate
0.000000 0.000000 m /A glyphshow
15.049805 0.000000 m /underscore glyphshow
26.049805 0.000000 m /one glyphshow
40.046875 0.000000 m /one glyphshow
grestore
gsave
/o {
gsave
newpath
translate
0.8 setlinewidth
1 setlinejoin
0 setlinecap
0 0 m
0 -3.5 l

gsave
0.000 setgray
fill
grestore
stroke
grestore
} bind def
271.147 93.8563 o
grestore
gsave
276.717719 32.809375 translate
90.000000 rotate
0.000000 0.000000 m /A glyphshow
15.049805 0.000000 m /underscore glyphshow
26.049805 0.000000 m /one glyphshow
40.046875 0.000000 m /two glyphshow
grestore
gsave
/o {
gsave
newpath
translate
0.8 setlinewidth
1 setlinejoin
0 setlinecap
0 0 m
0 -3.5 l

gsave
0.000 setgray
fill
grestore
stroke
grestore
} bind def
287.617 93.8563 o
grestore
gsave
293.187613 32.809375 translate
90.000000 rotate
0.000000 0.000000 m /A glyphshow
15.049805 0.000000 m /underscore glyphshow
26.049805 0.000000 m /one glyphshow
40.046875 0.000000 m /three glyphshow
grestore
gsave
/o {
gsave
newpath
translate
0.8 setlinewidth
1 setlinejoin
0 setlinecap
0 0 m
0 -3.5 l

gsave
0.000 setgray
fill
grestore
stroke
grestore
} bind def
304.087 93.8563 o
grestore
gsave
309.548131 32.809375 translate
90.000000 rotate
0.000000 0.000000 m /A glyphshow
15.049805 0.000000 m /underscore glyphshow
26.049805 0.000000 m /one glyphshow
40.046875 0.000000 m /four glyphshow
grestore
gsave
/o {
gsave
newpath
translate
0.8 setlinewidth
1 setlinejoin
0 setlinecap
0 0 m
0 -3.5 l

gsave
0.000 setgray
fill
grestore
stroke
grestore
} bind def
320.557 93.8563 o
grestore
gsave
326.018025 32.809375 translate
90.000000 rotate
0.000000 0.000000 m /A glyphshow
15.049805 0.000000 m /underscore glyphshow
26.049805 0.000000 m /one glyphshow
40.046875 0.000000 m /five glyphshow
grestore
gsave
/o {
gsave
newpath
translate
0.8 setlinewidth
1 setlinejoin
0 setlinecap
0 0 m
0 -3.5 l

gsave
0.000 setgray
fill
grestore
stroke
grestore
} bind def
337.027 93.8563 o
grestore
gsave
342.597294 32.809375 translate
90.000000 rotate
0.000000 0.000000 m /A glyphshow
15.049805 0.000000 m /underscore glyphshow
26.049805 0.000000 m /one glyphshow
40.046875 0.000000 m /six glyphshow
grestore
gsave
/o {
gsave
newpath
translate
0.8 setlinewidth
1 setlinejoin
0 setlinecap
0 0 m
0 -3.5 l

gsave
0.000 setgray
fill
grestore
stroke
grestore
} bind def
353.497 93.8563 o
grestore
gsave
359.067187 32.762500 translate
90.000000 rotate
0.000000 0.000000 m /B glyphshow
15.092773 0.000000 m /underscore glyphshow
26.092773 0.000000 m /zero glyphshow
40.089844 0.000000 m /one glyphshow
grestore
gsave
/o {
gsave
newpath
translate
0.8 setlinewidth
1 setlinejoin
0 setlinecap
0 0 m
0 -3.5 l

gsave
0.000 setgray
fill
grestore
stroke
grestore
} bind def
369.967 93.8563 o
grestore
gsave
375.537081 32.762500 translate
90.000000 rotate
0.000000 0.000000 m /B glyphshow
15.092773 0.000000 m /underscore glyphshow
26.092773 0.000000 m /zero glyphshow
40.089844 0.000000 m /two glyphshow
grestore
gsave
/o {
gsave
newpath
translate
0.8 setlinewidth
1 setlinejoin
0 setlinecap
0 0 m
0 -3.5 l

gsave
0.000 setgray
fill
grestore
stroke
grestore
} bind def
386.437 93.8563 o
grestore
gsave
392.006975 32.762500 translate
90.000000 rotate
0.000000 0.000000 m /B glyphshow
15.092773 0.000000 m /underscore glyphshow
26.092773 0.000000 m /zero glyphshow
40.089844 0.000000 m /three glyphshow
grestore
gsave
/o {
gsave
newpath
translate
0.8 setlinewidth
1 setlinejoin
0 setlinecap
0 0 m
0 -3.5 l

gsave
0.000 setgray
fill
grestore
stroke
grestore
} bind def
402.907 93.8563 o
grestore
gsave
408.476869 32.762500 translate
90.000000 rotate
0.000000 0.000000 m /B glyphshow
15.092773 0.000000 m /underscore glyphshow
26.092773 0.000000 m /zero glyphshow
40.089844 0.000000 m /four glyphshow
grestore
gsave
/o {
gsave
newpath
translate
0.8 setlinewidth
1 setlinejoin
0 setlinecap
0 0 m
0 -3.5 l

gsave
0.000 setgray
fill
grestore
stroke
grestore
} bind def
419.376 93.8563 o
grestore
gsave
424.946762 32.762500 translate
90.000000 rotate
0.000000 0.000000 m /B glyphshow
15.092773 0.000000 m /underscore glyphshow
26.092773 0.000000 m /zero glyphshow
40.089844 0.000000 m /five glyphshow
grestore
gsave
/o {
gsave
newpath
translate
0.8 setlinewidth
1 setlinejoin
0 setlinecap
0 0 m
0 -3.5 l

gsave
0.000 setgray
fill
grestore
stroke
grestore
} bind def
435.846 93.8563 o
grestore
gsave
441.416656 32.762500 translate
90.000000 rotate
0.000000 0.000000 m /B glyphshow
15.092773 0.000000 m /underscore glyphshow
26.092773 0.000000 m /zero glyphshow
40.089844 0.000000 m /six glyphshow
grestore
gsave
/o {
gsave
newpath
translate
0.8 setlinewidth
1 setlinejoin
0 setlinecap
0 0 m
0 -3.5 l

gsave
0.000 setgray
fill
grestore
stroke
grestore
} bind def
452.316 93.8563 o
grestore
gsave
457.886550 32.762500 translate
90.000000 rotate
0.000000 0.000000 m /B glyphshow
15.092773 0.000000 m /underscore glyphshow
26.092773 0.000000 m /zero glyphshow
40.089844 0.000000 m /seven glyphshow
grestore
gsave
/o {
gsave
newpath
translate
0.8 setlinewidth
1 setlinejoin
0 setlinecap
0 0 m
0 -3.5 l

gsave
0.000 setgray
fill
grestore
stroke
grestore
} bind def
468.786 93.8563 o
grestore
gsave
474.356444 32.762500 translate
90.000000 rotate
0.000000 0.000000 m /B glyphshow
15.092773 0.000000 m /underscore glyphshow
26.092773 0.000000 m /zero glyphshow
40.089844 0.000000 m /eight glyphshow
grestore
gsave
/o {
gsave
newpath
translate
0.8 setlinewidth
1 setlinejoin
0 setlinecap
0 0 m
0 -3.5 l

gsave
0.000 setgray
fill
grestore
stroke
grestore
} bind def
485.256 93.8563 o
grestore
gsave
490.826337 32.762500 translate
90.000000 rotate
0.000000 0.000000 m /B glyphshow
15.092773 0.000000 m /underscore glyphshow
26.092773 0.000000 m /zero glyphshow
40.089844 0.000000 m /nine glyphshow
grestore
gsave
/o {
gsave
newpath
translate
0.8 setlinewidth
1 setlinejoin
0 setlinecap
0 0 m
0 -3.5 l

gsave
0.000 setgray
fill
grestore
stroke
grestore
} bind def
501.726 93.8563 o
grestore
gsave
507.296231 32.762500 translate
90.000000 rotate
0.000000 0.000000 m /B glyphshow
15.092773 0.000000 m /underscore glyphshow
26.092773 0.000000 m /one glyphshow
40.089844 0.000000 m /zero glyphshow
grestore
gsave
/o {
gsave
newpath
translate
0.8 setlinewidth
1 setlinejoin
0 setlinecap
0 0 m
0 -3.5 l

gsave
0.000 setgray
fill
grestore
stroke
grestore
} bind def
518.196 93.8563 o
grestore
gsave
523.656750 32.762500 translate
90.000000 rotate
0.000000 0.000000 m /B glyphshow
15.092773 0.000000 m /underscore glyphshow
26.092773 0.000000 m /one glyphshow
40.089844 0.000000 m /one glyphshow
grestore
gsave
/o {
gsave
newpath
translate
0.8 setlinewidth
1 setlinejoin
0 setlinecap
0 0 m
0 -3.5 l

gsave
0.000 setgray
fill
grestore
stroke
grestore
} bind def
534.666 93.8563 o
grestore
gsave
540.236019 32.762500 translate
90.000000 rotate
0.000000 0.000000 m /B glyphshow
15.092773 0.000000 m /underscore glyphshow
26.092773 0.000000 m /one glyphshow
40.089844 0.000000 m /two glyphshow
grestore
gsave
/o {
gsave
newpath
translate
0.8 setlinewidth
1 setlinejoin
0 setlinecap
0 0 m
0 -3.5 l

gsave
0.000 setgray
fill
grestore
stroke
grestore
} bind def
551.136 93.8563 o
grestore
gsave
556.705912 32.496875 translate
90.000000 rotate
0.000000 0.000000 m /C glyphshow
15.361328 0.000000 m /underscore glyphshow
26.361328 0.000000 m /zero glyphshow
40.358398 0.000000 m /one glyphshow
grestore
gsave
/o {
gsave
newpath
translate
0.8 setlinewidth
1 setlinejoin
0 setlinecap
0 0 m
0 -3.5 l

gsave
0.000 setgray
fill
grestore
stroke
grestore
} bind def
567.605 93.8563 o
grestore
gsave
573.175806 32.496875 translate
90.000000 rotate
0.000000 0.000000 m /C glyphshow
15.361328 0.000000 m /underscore glyphshow
26.361328 0.000000 m /zero glyphshow
40.358398 0.000000 m /two glyphshow
grestore
gsave
/o {
gsave
newpath
translate
0.8 setlinewidth
1 setlinejoin
0 setlinecap
0 0 m
0 -3.5 l

gsave
0.000 setgray
fill
grestore
stroke
grestore
} bind def
584.075 93.8563 o
grestore
gsave
589.645700 32.496875 translate
90.000000 rotate
0.000000 0.000000 m /C glyphshow
15.361328 0.000000 m /underscore glyphshow
26.361328 0.000000 m /zero glyphshow
40.358398 0.000000 m /three glyphshow
grestore
gsave
/o {
gsave
newpath
translate
0.8 setlinewidth
1 setlinejoin
0 setlinecap
0 0 m
0 -3.5 l

gsave
0.000 setgray
fill
grestore
stroke
grestore
} bind def
600.545 93.8563 o
grestore
gsave
606.115594 32.496875 translate
90.000000 rotate
0.000000 0.000000 m /C glyphshow
15.361328 0.000000 m /underscore glyphshow
26.361328 0.000000 m /zero glyphshow
40.358398 0.000000 m /four glyphshow
grestore
gsave
294.450000 11.778125 translate
0.000000 rotate
0.000000 0.000000 m /C glyphshow
15.361328 0.000000 m /l glyphshow
21.473633 0.000000 m /a glyphshow
34.955078 0.000000 m /s glyphshow
46.416992 0.000000 m /s glyphshow
57.878906 0.000000 m /space glyphshow
64.872070 0.000000 m /l glyphshow
70.984375 0.000000 m /a glyphshow
84.465820 0.000000 m /b glyphshow
98.430664 0.000000 m /e glyphshow
111.965820 0.000000 m /l glyphshow
grestore
gsave
/o {
gsave
newpath
translate
0.8 setlinewidth
1 setlinejoin
0 setlinecap
0 0 m
-3.5 0 l

gsave
0.000 setgray
fill
grestore
stroke
grestore
} bind def
74.4969 93.8563 o
grestore
gsave
32.496875 85.496875 translate
0.000000 rotate
0.000000 0.000000 m /zero glyphshow
13.997070 0.000000 m /period glyphshow
20.990234 0.000000 m /zero glyphshow
grestore
gsave
/o {
gsave
newpath
translate
0.8 setlinewidth
1 setlinejoin
0 setlinecap
0 0 m
-3.5 0 l

gsave
0.000 setgray
fill
grestore
stroke
grestore
} bind def
74.4969 150.805 o
grestore
gsave
32.496875 142.445446 translate
0.000000 rotate
0.000000 0.000000 m /zero glyphshow
13.997070 0.000000 m /period glyphshow
20.990234 0.000000 m /two glyphshow
grestore
gsave
/o {
gsave
newpath
translate
0.8 setlinewidth
1 setlinejoin
0 setlinecap
0 0 m
-3.5 0 l

gsave
0.000 setgray
fill
grestore
stroke
grestore
} bind def
74.4969 207.753 o
grestore
gsave
32.496875 199.394018 translate
0.000000 rotate
0.000000 0.000000 m /zero glyphshow
13.997070 0.000000 m /period glyphshow
20.990234 0.000000 m /four glyphshow
grestore
gsave
/o {
gsave
newpath
translate
0.8 setlinewidth
1 setlinejoin
0 setlinecap
0 0 m
-3.5 0 l

gsave
0.000 setgray
fill
grestore
stroke
grestore
} bind def
74.4969 264.702 o
grestore
gsave
32.496875 256.342589 translate
0.000000 rotate
0.000000 0.000000 m /zero glyphshow
13.997070 0.000000 m /period glyphshow
20.990234 0.000000 m /six glyphshow
grestore
gsave
/o {
gsave
newpath
translate
0.8 setlinewidth
1 setlinejoin
0 setlinecap
0 0 m
-3.5 0 l

gsave
0.000 setgray
fill
grestore
stroke
grestore
} bind def
74.4969 321.651 o
grestore
gsave
32.496875 313.291161 translate
0.000000 rotate
0.000000 0.000000 m /zero glyphshow
13.997070 0.000000 m /period glyphshow
20.990234 0.000000 m /eight glyphshow
grestore
gsave
/o {
gsave
newpath
translate
0.8 setlinewidth
1 setlinejoin
0 setlinecap
0 0 m
-3.5 0 l

gsave
0.000 setgray
fill
grestore
stroke
grestore
} bind def
74.4969 378.599 o
grestore
gsave
32.496875 370.239732 translate
0.000000 rotate
0.000000 0.000000 m /one glyphshow
13.997070 0.000000 m /period glyphshow
20.990234 0.000000 m /zero glyphshow
grestore
gsave
23.918750 193.815000 translate
90.000000 rotate
0.000000 0.000000 m /E glyphshow
13.900391 0.000000 m /a glyphshow
27.381836 0.000000 m /r glyphshow
36.426758 0.000000 m /l glyphshow
42.539062 0.000000 m /i glyphshow
48.651367 0.000000 m /n glyphshow
62.594727 0.000000 m /e glyphshow
76.129883 0.000000 m /s glyphshow
87.591797 0.000000 m /s glyphshow
grestore
0 setlinejoin
2 setlinecap
[] 0 setdash
gsave
74.496875 93.85625 m
74.496875 392.83625 l
stroke
grestore
gsave
632.496875 93.85625 m
632.496875 392.83625 l
stroke
grestore
gsave
74.496875 93.85625 m
632.496875 93.85625 l
stroke
grestore
gsave
74.496875 392.83625 m
632.496875 392.83625 l
stroke
grestore

end
showpage
