PerClass
TruePositivePerClass,
130.00 ; 95.00 ; 85.00 ; 207.00 ; 224.00 ; 10.00 ; 99.00 ; 98.00 ; 88.00 ; 102.00 ; 96.00 ; 94.00 ; 89.00 ; 100.00 ; 102.00 ; 106.00 ; 105.00 ; 102.00 ; 142.00 ; 138.00 ; 240.00 ; 223.00 ; 95.00 ; 77.00 ; 82.00 ; 49.00 ; 61.00 ; 83.00 ; 61.00 ; 69.00 ; 92.00 ; 0.00
FalsePositivePerClass,
17.00 ; 29.00 ; 48.00 ; 210.00 ; 76.00 ; 64.00 ; 18.00 ; 17.00 ; 40.00 ; 18.00 ; 28.00 ; 32.00 ; 26.00 ; 12.00 ; 14.00 ; 3.00 ; 5.00 ; 13.00 ; 30.00 ; 45.00 ; 53.00 ; 50.00 ; 35.00 ; 119.00 ; 104.00 ; 111.00 ; 101.00 ; 27.00 ; 123.00 ; 107.00 ; 35.00 ; 0.00
nbActionPerClass,
144.00 ; 108.00 ; 108.00 ; 252.00 ; 252.00 ; 109.00 ; 108.00 ; 108.00 ; 108.00 ; 109.00 ; 105.00 ; 108.00 ; 108.00 ; 107.00 ; 109.00 ; 108.00 ; 108.00 ; 108.00 ; 156.00 ; 156.00 ; 252.00 ; 252.00 ; 108.00 ; 95.00 ; 108.00 ; 99.00 ; 107.00 ; 99.00 ; 104.00 ; 108.00 ; 108.00 ; 0.00
Precision_PerClass,
0.88 ; 0.77 ; 0.64 ; 0.50 ; 0.75 ; 0.14 ; 0.85 ; 0.85 ; 0.69 ; 0.85 ; 0.77 ; 0.75 ; 0.77 ; 0.89 ; 0.88 ; 0.97 ; 0.95 ; 0.89 ; 0.83 ; 0.75 ; 0.82 ; 0.82 ; 0.73 ; 0.39 ; 0.44 ; 0.31 ; 0.38 ; 0.75 ; 0.33 ; 0.39 ; 0.72 ; 0.00
Recall_PerClass,
0.90 ; 0.88 ; 0.79 ; 0.82 ; 0.89 ; 0.09 ; 0.92 ; 0.91 ; 0.81 ; 0.94 ; 0.91 ; 0.87 ; 0.82 ; 0.93 ; 0.94 ; 0.98 ; 0.97 ; 0.94 ; 0.91 ; 0.88 ; 0.95 ; 0.88 ; 0.88 ; 0.81 ; 0.76 ; 0.49 ; 0.57 ; 0.84 ; 0.59 ; 0.64 ; 0.85 ; 0.00
NLToD_PerClass,
1.00 ; 0.71 ; 0.34 ; 0.43 ; 0.29 ; 0.99 ; 0.39 ; 0.33 ; 0.57 ; 0.38 ; 0.43 ; 0.20 ; 0.19 ; 0.62 ; 0.14 ; 0.12 ; 0.13 ; 0.13 ; 0.11 ; 0.14 ; 0.24 ; 0.19 ; 0.22 ; 0.33 ; 0.45 ; 0.20 ; 0.31 ; 0.22 ; 0.46 ; 0.43 ; 0.18 ; nan
Total
TruePositives
3344.000
FalsePositives
1610.000
nbActionsTotal
4019.000
Precision
0.675
Recall
0.832
Fmeasure
0.745
NLToD
0.323
