PerClass
TruePositivePerClass,
133.00 ; 108.00 ; 106.00 ; 252.00 ; 252.00 ; 37.00 ; 105.00 ; 106.00 ; 105.00 ; 105.00 ; 105.00 ; 107.00 ; 105.00 ; 105.00 ; 108.00 ; 108.00 ; 108.00 ; 108.00 ; 156.00 ; 155.00 ; 252.00 ; 250.00 ; 106.00 ; 90.00 ; 101.00 ; 87.00 ; 96.00 ; 89.00 ; 100.00 ; 108.00 ; 105.00 ; 0.00
FalsePositivePerClass,
14.00 ; 16.00 ; 27.00 ; 165.00 ; 48.00 ; 37.00 ; 12.00 ; 9.00 ; 23.00 ; 15.00 ; 19.00 ; 19.00 ; 10.00 ; 7.00 ; 8.00 ; 1.00 ; 2.00 ; 7.00 ; 16.00 ; 28.00 ; 41.00 ; 23.00 ; 24.00 ; 106.00 ; 85.00 ; 73.00 ; 66.00 ; 21.00 ; 84.00 ; 68.00 ; 22.00 ; 0.00
nbActionPerClass,
144.00 ; 108.00 ; 108.00 ; 252.00 ; 252.00 ; 109.00 ; 108.00 ; 108.00 ; 108.00 ; 109.00 ; 105.00 ; 108.00 ; 108.00 ; 107.00 ; 109.00 ; 108.00 ; 108.00 ; 108.00 ; 156.00 ; 156.00 ; 252.00 ; 252.00 ; 108.00 ; 95.00 ; 108.00 ; 99.00 ; 107.00 ; 99.00 ; 104.00 ; 108.00 ; 108.00 ; 0.00
Precision_PerClass,
0.90 ; 0.87 ; 0.80 ; 0.60 ; 0.84 ; 0.50 ; 0.90 ; 0.92 ; 0.82 ; 0.88 ; 0.85 ; 0.85 ; 0.91 ; 0.94 ; 0.93 ; 0.99 ; 0.98 ; 0.94 ; 0.91 ; 0.85 ; 0.86 ; 0.92 ; 0.82 ; 0.46 ; 0.54 ; 0.54 ; 0.59 ; 0.81 ; 0.54 ; 0.61 ; 0.83 ; 0.00
Recall_PerClass,
0.92 ; 1.00 ; 0.98 ; 1.00 ; 1.00 ; 0.34 ; 0.97 ; 0.98 ; 0.97 ; 0.96 ; 1.00 ; 0.99 ; 0.97 ; 0.98 ; 0.99 ; 1.00 ; 1.00 ; 1.00 ; 1.00 ; 0.99 ; 1.00 ; 0.99 ; 0.98 ; 0.95 ; 0.94 ; 0.88 ; 0.90 ; 0.90 ; 0.96 ; 1.00 ; 0.97 ; 0.00
NLToD_PerClass,
1.00 ; 0.72 ; 0.37 ; 0.47 ; 0.31 ; 0.99 ; 0.41 ; 0.35 ; 0.57 ; 0.38 ; 0.45 ; 0.21 ; 0.20 ; 0.63 ; 0.16 ; 0.12 ; 0.14 ; 0.14 ; 0.13 ; 0.17 ; 0.25 ; 0.20 ; 0.25 ; 0.38 ; 0.48 ; 0.36 ; 0.42 ; 0.25 ; 0.62 ; 0.48 ; 0.22 ; nan
Total
TruePositives
3858.000
FalsePositives
1096.000
nbActionsTotal
4019.000
Precision
0.779
Recall
0.960
Fmeasure
0.860
NLToD
0.357
