<?xml version="1.0" encoding="utf-8" standalone="no"?>
<!DOCTYPE svg PUBLIC "-//W3C//DTD SVG 1.1//EN"
  "http://www.w3.org/Graphics/SVG/1.1/DTD/svg11.dtd">
<!-- Created with matplotlib (https://matplotlib.org/) -->
<svg height="2448pt" version="1.1" viewBox="0 0 7632 2448" width="7632pt" xmlns="http://www.w3.org/2000/svg" xmlns:xlink="http://www.w3.org/1999/xlink">
 <defs>
  <style type="text/css">
*{stroke-linecap:butt;stroke-linejoin:round;}
  </style>
 </defs>
 <g id="figure_1">
  <g id="patch_1">
   <path d="M 0 2448 
L 7632 2448 
L 7632 0 
L 0 0 
z
" style="fill:#ffffff;"/>
  </g>
  <g id="axes_1">
   <g id="patch_2">
    <path d="M 954 728.64 
L 6868.8 728.64 
L 6868.8 565.56 
L 954 565.56 
z
" style="fill:#ffffff;"/>
   </g>
   <g id="patch_3">
    <path clip-path="url(#pf34fbcacd7)" d="M 954 728.64 
L 1009.8 728.64 
L 1009.8 402.48 
L 954 402.48 
z
" style="fill:#2a00ff;"/>
   </g>
   <g id="patch_4">
    <path clip-path="url(#pf34fbcacd7)" d="M 1009.8 728.64 
L 1065.6 728.64 
L 1065.6 402.48 
L 1009.8 402.48 
z
" style="fill:#001cff;"/>
   </g>
   <g id="patch_5">
    <path clip-path="url(#pf34fbcacd7)" d="M 1065.6 728.64 
L 1121.4 728.64 
L 1121.4 402.48 
L 1065.6 402.48 
z
" style="fill:#001cff;"/>
   </g>
   <g id="patch_6">
    <path clip-path="url(#pf34fbcacd7)" d="M 1121.4 728.64 
L 1177.2 728.64 
L 1177.2 402.48 
L 1121.4 402.48 
z
" style="fill:#2a00ff;"/>
   </g>
   <g id="patch_7">
    <path clip-path="url(#pf34fbcacd7)" d="M 1177.2 728.64 
L 1233 728.64 
L 1233 402.48 
L 1177.2 402.48 
z
" style="fill:#001cff;"/>
   </g>
   <g id="patch_8">
    <path clip-path="url(#pf34fbcacd7)" d="M 1233 728.64 
L 1288.8 728.64 
L 1288.8 402.48 
L 1233 402.48 
z
" style="fill:#001cff;"/>
   </g>
   <g id="patch_9">
    <path clip-path="url(#pf34fbcacd7)" d="M 1288.8 728.64 
L 1344.6 728.64 
L 1344.6 402.48 
L 1288.8 402.48 
z
" style="fill:#001cff;"/>
   </g>
   <g id="patch_10">
    <path clip-path="url(#pf34fbcacd7)" d="M 1344.6 728.64 
L 1400.4 728.64 
L 1400.4 402.48 
L 1344.6 402.48 
z
" style="fill:#001cff;"/>
   </g>
   <g id="patch_11">
    <path clip-path="url(#pf34fbcacd7)" d="M 1400.4 728.64 
L 1456.2 728.64 
L 1456.2 402.48 
L 1400.4 402.48 
z
" style="fill:#001cff;"/>
   </g>
   <g id="patch_12">
    <path clip-path="url(#pf34fbcacd7)" d="M 1456.2 728.64 
L 1512 728.64 
L 1512 402.48 
L 1456.2 402.48 
z
" style="fill:#00ff89;"/>
   </g>
   <g id="patch_13">
    <path clip-path="url(#pf34fbcacd7)" d="M 1512 728.64 
L 1567.8 728.64 
L 1567.8 402.48 
L 1512 402.48 
z
" style="fill:#00ff89;"/>
   </g>
   <g id="patch_14">
    <path clip-path="url(#pf34fbcacd7)" d="M 1567.8 728.64 
L 1623.6 728.64 
L 1623.6 402.48 
L 1567.8 402.48 
z
" style="fill:#00ff89;"/>
   </g>
   <g id="patch_15">
    <path clip-path="url(#pf34fbcacd7)" d="M 1623.6 728.64 
L 1679.4 728.64 
L 1679.4 402.48 
L 1623.6 402.48 
z
" style="fill:#00ff89;"/>
   </g>
   <g id="patch_16">
    <path clip-path="url(#pf34fbcacd7)" d="M 1679.4 728.64 
L 1735.2 728.64 
L 1735.2 402.48 
L 1679.4 402.48 
z
" style="fill:#ff1c00;"/>
   </g>
   <g id="patch_17">
    <path clip-path="url(#pf34fbcacd7)" d="M 1735.2 728.64 
L 1791 728.64 
L 1791 402.48 
L 1735.2 402.48 
z
" style="fill:#ff0029;"/>
   </g>
   <g id="patch_18">
    <path clip-path="url(#pf34fbcacd7)" d="M 1791 728.64 
L 1846.8 728.64 
L 1846.8 402.48 
L 1791 402.48 
z
" style="fill:#ff6000;"/>
   </g>
   <g id="patch_19">
    <path clip-path="url(#pf34fbcacd7)" d="M 1846.8 728.64 
L 1902.6 728.64 
L 1902.6 402.48 
L 1846.8 402.48 
z
" style="fill:#ff6000;"/>
   </g>
   <g id="patch_20">
    <path clip-path="url(#pf34fbcacd7)" d="M 1902.6 728.64 
L 1958.4 728.64 
L 1958.4 402.48 
L 1902.6 402.48 
z
" style="fill:#ff6000;"/>
   </g>
   <g id="patch_21">
    <path clip-path="url(#pf34fbcacd7)" d="M 1958.4 728.64 
L 2014.2 728.64 
L 2014.2 402.48 
L 1958.4 402.48 
z
" style="fill:#ff6000;"/>
   </g>
   <g id="patch_22">
    <path clip-path="url(#pf34fbcacd7)" d="M 2014.2 728.64 
L 2070 728.64 
L 2070 402.48 
L 2014.2 402.48 
z
" style="fill:#ff6000;"/>
   </g>
   <g id="patch_23">
    <path clip-path="url(#pf34fbcacd7)" d="M 2070 728.64 
L 2125.8 728.64 
L 2125.8 402.48 
L 2070 402.48 
z
" style="fill:#ff6000;"/>
   </g>
   <g id="patch_24">
    <path clip-path="url(#pf34fbcacd7)" d="M 2125.8 728.64 
L 2181.6 728.64 
L 2181.6 402.48 
L 2125.8 402.48 
z
" style="fill:#001cff;"/>
   </g>
   <g id="patch_25">
    <path clip-path="url(#pf34fbcacd7)" d="M 2181.6 728.64 
L 2237.4 728.64 
L 2237.4 402.48 
L 2181.6 402.48 
z
" style="fill:#001cff;"/>
   </g>
   <g id="patch_26">
    <path clip-path="url(#pf34fbcacd7)" d="M 2237.4 728.64 
L 2293.2 728.64 
L 2293.2 402.48 
L 2237.4 402.48 
z
" style="fill:#001cff;"/>
   </g>
   <g id="patch_27">
    <path clip-path="url(#pf34fbcacd7)" d="M 2293.2 728.64 
L 2349 728.64 
L 2349 402.48 
L 2293.2 402.48 
z
" style="fill:#001cff;"/>
   </g>
   <g id="patch_28">
    <path clip-path="url(#pf34fbcacd7)" d="M 2349 728.64 
L 2404.8 728.64 
L 2404.8 402.48 
L 2349 402.48 
z
" style="fill:#001cff;"/>
   </g>
   <g id="patch_29">
    <path clip-path="url(#pf34fbcacd7)" d="M 2404.8 728.64 
L 2460.6 728.64 
L 2460.6 402.48 
L 2404.8 402.48 
z
" style="fill:#f900ff;"/>
   </g>
   <g id="patch_30">
    <path clip-path="url(#pf34fbcacd7)" d="M 2460.6 728.64 
L 2516.4 728.64 
L 2516.4 402.48 
L 2460.6 402.48 
z
" style="fill:#f900ff;"/>
   </g>
   <g id="patch_31">
    <path clip-path="url(#pf34fbcacd7)" d="M 2516.4 728.64 
L 2572.2 728.64 
L 2572.2 402.48 
L 2516.4 402.48 
z
" style="fill:#f900ff;"/>
   </g>
   <g id="patch_32">
    <path clip-path="url(#pf34fbcacd7)" d="M 2572.2 728.64 
L 2628 728.64 
L 2628 402.48 
L 2572.2 402.48 
z
" style="fill:#f900ff;"/>
   </g>
   <g id="patch_33">
    <path clip-path="url(#pf34fbcacd7)" d="M 2628 728.64 
L 2683.8 728.64 
L 2683.8 402.48 
L 2628 402.48 
z
" style="fill:#f900ff;"/>
   </g>
   <g id="patch_34">
    <path clip-path="url(#pf34fbcacd7)" d="M 2683.8 728.64 
L 2739.6 728.64 
L 2739.6 402.48 
L 2683.8 402.48 
z
" style="fill:#2a00ff;"/>
   </g>
   <g id="patch_35">
    <path clip-path="url(#pf34fbcacd7)" d="M 2739.6 728.64 
L 2795.4 728.64 
L 2795.4 402.48 
L 2739.6 402.48 
z
" style="fill:#001cff;"/>
   </g>
   <g id="patch_36">
    <path clip-path="url(#pf34fbcacd7)" d="M 2795.4 728.64 
L 2851.2 728.64 
L 2851.2 402.48 
L 2795.4 402.48 
z
" style="fill:#f900ff;"/>
   </g>
   <g id="patch_37">
    <path clip-path="url(#pf34fbcacd7)" d="M 2851.2 728.64 
L 2907 728.64 
L 2907 402.48 
L 2851.2 402.48 
z
" style="fill:#f900ff;"/>
   </g>
   <g id="patch_38">
    <path clip-path="url(#pf34fbcacd7)" d="M 2907 728.64 
L 2962.8 728.64 
L 2962.8 402.48 
L 2907 402.48 
z
" style="fill:#001cff;"/>
   </g>
   <g id="patch_39">
    <path clip-path="url(#pf34fbcacd7)" d="M 2962.8 728.64 
L 3018.6 728.64 
L 3018.6 402.48 
L 2962.8 402.48 
z
" style="fill:#ff00bf;"/>
   </g>
   <g id="patch_40">
    <path clip-path="url(#pf34fbcacd7)" d="M 3018.6 728.64 
L 3074.4 728.64 
L 3074.4 402.48 
L 3018.6 402.48 
z
" style="fill:#ff00bf;"/>
   </g>
   <g id="patch_41">
    <path clip-path="url(#pf34fbcacd7)" d="M 3074.4 728.64 
L 3130.2 728.64 
L 3130.2 402.48 
L 3074.4 402.48 
z
" style="fill:#ff00bf;"/>
   </g>
   <g id="patch_42">
    <path clip-path="url(#pf34fbcacd7)" d="M 3130.2 728.64 
L 3186 728.64 
L 3186 402.48 
L 3130.2 402.48 
z
" style="fill:#ff00bf;"/>
   </g>
   <g id="patch_43">
    <path clip-path="url(#pf34fbcacd7)" d="M 3186 728.64 
L 3241.8 728.64 
L 3241.8 402.48 
L 3186 402.48 
z
" style="fill:#00ff00;"/>
   </g>
   <g id="patch_44">
    <path clip-path="url(#pf34fbcacd7)" d="M 3241.8 728.64 
L 3297.6 728.64 
L 3297.6 402.48 
L 3241.8 402.48 
z
" style="fill:#8aff00;"/>
   </g>
   <g id="patch_45">
    <path clip-path="url(#pf34fbcacd7)" d="M 3297.6 728.64 
L 3353.4 728.64 
L 3353.4 402.48 
L 3297.6 402.48 
z
" style="fill:#8aff00;"/>
   </g>
   <g id="patch_46">
    <path clip-path="url(#pf34fbcacd7)" d="M 3353.4 728.64 
L 3409.2 728.64 
L 3409.2 402.48 
L 3353.4 402.48 
z
" style="fill:#8aff00;"/>
   </g>
   <g id="patch_47">
    <path clip-path="url(#pf34fbcacd7)" d="M 3409.2 728.64 
L 3465 728.64 
L 3465 402.48 
L 3409.2 402.48 
z
" style="fill:#8aff00;"/>
   </g>
   <g id="patch_48">
    <path clip-path="url(#pf34fbcacd7)" d="M 3465 728.64 
L 3520.8 728.64 
L 3520.8 402.48 
L 3465 402.48 
z
" style="fill:#8aff00;"/>
   </g>
   <g id="patch_49">
    <path clip-path="url(#pf34fbcacd7)" d="M 3520.8 728.64 
L 3576.6 728.64 
L 3576.6 402.48 
L 3520.8 402.48 
z
" style="fill:#8aff00;"/>
   </g>
   <g id="patch_50">
    <path clip-path="url(#pf34fbcacd7)" d="M 3576.6 728.64 
L 3632.4 728.64 
L 3632.4 402.48 
L 3576.6 402.48 
z
" style="fill:#8aff00;"/>
   </g>
   <g id="patch_51">
    <path clip-path="url(#pf34fbcacd7)" d="M 3632.4 728.64 
L 3688.2 728.64 
L 3688.2 402.48 
L 3632.4 402.48 
z
" style="fill:#8aff00;"/>
   </g>
   <g id="patch_52">
    <path clip-path="url(#pf34fbcacd7)" d="M 3688.2 728.64 
L 3744 728.64 
L 3744 402.48 
L 3688.2 402.48 
z
" style="fill:#8aff00;"/>
   </g>
   <g id="patch_53">
    <path clip-path="url(#pf34fbcacd7)" d="M 3744 728.64 
L 3799.8 728.64 
L 3799.8 402.48 
L 3744 402.48 
z
" style="fill:#8aff00;"/>
   </g>
   <g id="patch_54">
    <path clip-path="url(#pf34fbcacd7)" d="M 3799.8 728.64 
L 3855.6 728.64 
L 3855.6 402.48 
L 3799.8 402.48 
z
" style="fill:#8aff00;"/>
   </g>
   <g id="patch_55">
    <path clip-path="url(#pf34fbcacd7)" d="M 3855.6 728.64 
L 3911.4 728.64 
L 3911.4 402.48 
L 3855.6 402.48 
z
" style="fill:#8aff00;"/>
   </g>
   <g id="patch_56">
    <path clip-path="url(#pf34fbcacd7)" d="M 3911.4 728.64 
L 3967.2 728.64 
L 3967.2 402.48 
L 3911.4 402.48 
z
" style="fill:#2a00ff;"/>
   </g>
   <g id="patch_57">
    <path clip-path="url(#pf34fbcacd7)" d="M 3967.2 728.64 
L 4023 728.64 
L 4023 402.48 
L 3967.2 402.48 
z
" style="fill:#001cff;"/>
   </g>
   <g id="patch_58">
    <path clip-path="url(#pf34fbcacd7)" d="M 4023 728.64 
L 4078.8 728.64 
L 4078.8 402.48 
L 4023 402.48 
z
" style="fill:#001cff;"/>
   </g>
   <g id="patch_59">
    <path clip-path="url(#pf34fbcacd7)" d="M 4078.8 728.64 
L 4134.6 728.64 
L 4134.6 402.48 
L 4078.8 402.48 
z
" style="fill:#001cff;"/>
   </g>
   <g id="patch_60">
    <path clip-path="url(#pf34fbcacd7)" d="M 4134.6 728.64 
L 4190.4 728.64 
L 4190.4 402.48 
L 4134.6 402.48 
z
" style="fill:#001cff;"/>
   </g>
   <g id="patch_61">
    <path clip-path="url(#pf34fbcacd7)" d="M 4190.4 728.64 
L 4246.2 728.64 
L 4246.2 402.48 
L 4190.4 402.48 
z
" style="fill:#f900ff;"/>
   </g>
   <g id="patch_62">
    <path clip-path="url(#pf34fbcacd7)" d="M 4246.2 728.64 
L 4302 728.64 
L 4302 402.48 
L 4246.2 402.48 
z
" style="fill:#f900ff;"/>
   </g>
   <g id="patch_63">
    <path clip-path="url(#pf34fbcacd7)" d="M 4302 728.64 
L 4357.8 728.64 
L 4357.8 402.48 
L 4302 402.48 
z
" style="fill:#f900ff;"/>
   </g>
   <g id="patch_64">
    <path clip-path="url(#pf34fbcacd7)" d="M 4357.8 728.64 
L 4413.6 728.64 
L 4413.6 402.48 
L 4357.8 402.48 
z
" style="fill:#b400ff;"/>
   </g>
   <g id="patch_65">
    <path clip-path="url(#pf34fbcacd7)" d="M 4413.6 728.64 
L 4469.4 728.64 
L 4469.4 402.48 
L 4413.6 402.48 
z
" style="fill:#b400ff;"/>
   </g>
   <g id="patch_66">
    <path clip-path="url(#pf34fbcacd7)" d="M 4469.4 728.64 
L 4525.2 728.64 
L 4525.2 402.48 
L 4469.4 402.48 
z
" style="fill:#b400ff;"/>
   </g>
   <g id="patch_67">
    <path clip-path="url(#pf34fbcacd7)" d="M 4525.2 728.64 
L 4581 728.64 
L 4581 402.48 
L 4525.2 402.48 
z
" style="fill:#b400ff;"/>
   </g>
   <g id="patch_68">
    <path clip-path="url(#pf34fbcacd7)" d="M 4581 728.64 
L 4636.8 728.64 
L 4636.8 402.48 
L 4581 402.48 
z
" style="fill:#ff0029;"/>
   </g>
   <g id="patch_69">
    <path clip-path="url(#pf34fbcacd7)" d="M 4636.8 728.64 
L 4692.6 728.64 
L 4692.6 402.48 
L 4636.8 402.48 
z
" style="fill:#ffea00;"/>
   </g>
   <g id="patch_70">
    <path clip-path="url(#pf34fbcacd7)" d="M 4692.6 728.64 
L 4748.4 728.64 
L 4748.4 402.48 
L 4692.6 402.48 
z
" style="fill:#8aff00;"/>
   </g>
   <g id="patch_71">
    <path clip-path="url(#pf34fbcacd7)" d="M 4748.4 728.64 
L 4804.2 728.64 
L 4804.2 402.48 
L 4748.4 402.48 
z
" style="fill:#8aff00;"/>
   </g>
   <g id="patch_72">
    <path clip-path="url(#pf34fbcacd7)" d="M 4804.2 728.64 
L 4860 728.64 
L 4860 402.48 
L 4804.2 402.48 
z
" style="fill:#cfff00;"/>
   </g>
   <g id="patch_73">
    <path clip-path="url(#pf34fbcacd7)" d="M 4860 728.64 
L 4915.8 728.64 
L 4915.8 402.48 
L 4860 402.48 
z
" style="fill:#cfff00;"/>
   </g>
   <g id="patch_74">
    <path clip-path="url(#pf34fbcacd7)" d="M 4915.8 728.64 
L 4971.6 728.64 
L 4971.6 402.48 
L 4915.8 402.48 
z
" style="fill:#cfff00;"/>
   </g>
   <g id="patch_75">
    <path clip-path="url(#pf34fbcacd7)" d="M 4971.6 728.64 
L 5027.4 728.64 
L 5027.4 402.48 
L 4971.6 402.48 
z
" style="fill:#cfff00;"/>
   </g>
   <g id="patch_76">
    <path clip-path="url(#pf34fbcacd7)" d="M 5027.4 728.64 
L 5083.2 728.64 
L 5083.2 402.48 
L 5027.4 402.48 
z
" style="fill:#cfff00;"/>
   </g>
   <g id="matplotlib.axis_1"/>
   <g id="matplotlib.axis_2"/>
   <g id="patch_77">
    <path d="M 954 728.64 
L 954 565.56 
" style="fill:none;stroke:#000000;stroke-linecap:square;stroke-linejoin:miter;stroke-width:0.8;"/>
   </g>
   <g id="patch_78">
    <path d="M 6868.8 728.64 
L 6868.8 565.56 
" style="fill:none;stroke:#000000;stroke-linecap:square;stroke-linejoin:miter;stroke-width:0.8;"/>
   </g>
   <g id="patch_79">
    <path d="M 954 728.64 
L 6868.8 728.64 
" style="fill:none;stroke:#000000;stroke-linecap:square;stroke-linejoin:miter;stroke-width:0.8;"/>
   </g>
   <g id="patch_80">
    <path d="M 954 565.56 
L 6868.8 565.56 
" style="fill:none;stroke:#000000;stroke-linecap:square;stroke-linejoin:miter;stroke-width:0.8;"/>
   </g>
  </g>
  <g id="axes_2">
   <g id="patch_81">
    <path d="M 954 565.56 
L 6868.8 565.56 
L 6868.8 402.48 
L 954 402.48 
z
" style="fill:#ffffff;"/>
   </g>
   <g id="patch_82">
    <path clip-path="url(#pb8d71ec8a9)" d="M 954 565.56 
L 1679.4 565.56 
L 1679.4 239.4 
L 954 239.4 
z
" style="fill:#00ff89;"/>
   </g>
   <g id="patch_83">
    <path clip-path="url(#pb8d71ec8a9)" d="M 1679.4 565.56 
L 2125.8 565.56 
L 2125.8 239.4 
L 1679.4 239.4 
z
" style="fill:#ff6000;"/>
   </g>
   <g id="patch_84">
    <path clip-path="url(#pb8d71ec8a9)" d="M 2125.8 565.56 
L 2683.8 565.56 
L 2683.8 239.4 
L 2125.8 239.4 
z
" style="fill:#f900ff;"/>
   </g>
   <g id="patch_85">
    <path clip-path="url(#pb8d71ec8a9)" d="M 2683.8 565.56 
L 3186 565.56 
L 3186 239.4 
L 2683.8 239.4 
z
" style="fill:#ff00bf;"/>
   </g>
   <g id="patch_86">
    <path clip-path="url(#pb8d71ec8a9)" d="M 3186 565.56 
L 3911.4 565.56 
L 3911.4 239.4 
L 3186 239.4 
z
" style="fill:#8aff00;"/>
   </g>
   <g id="patch_87">
    <path clip-path="url(#pb8d71ec8a9)" d="M 3911.4 565.56 
L 4636.8 565.56 
L 4636.8 239.4 
L 3911.4 239.4 
z
" style="fill:#b400ff;"/>
   </g>
   <g id="patch_88">
    <path clip-path="url(#pb8d71ec8a9)" d="M 4636.8 565.56 
L 5083.2 565.56 
L 5083.2 239.4 
L 4636.8 239.4 
z
" style="fill:#00ff00;"/>
   </g>
   <g id="matplotlib.axis_3"/>
   <g id="matplotlib.axis_4"/>
   <g id="patch_89">
    <path d="M 954 565.56 
L 954 402.48 
" style="fill:none;stroke:#000000;stroke-linecap:square;stroke-linejoin:miter;stroke-width:0.8;"/>
   </g>
   <g id="patch_90">
    <path d="M 6868.8 565.56 
L 6868.8 402.48 
" style="fill:none;stroke:#000000;stroke-linecap:square;stroke-linejoin:miter;stroke-width:0.8;"/>
   </g>
   <g id="patch_91">
    <path d="M 954 565.56 
L 6868.8 565.56 
" style="fill:none;stroke:#000000;stroke-linecap:square;stroke-linejoin:miter;stroke-width:0.8;"/>
   </g>
   <g id="patch_92">
    <path d="M 954 402.48 
L 6868.8 402.48 
" style="fill:none;stroke:#000000;stroke-linecap:square;stroke-linejoin:miter;stroke-width:0.8;"/>
   </g>
  </g>
  <g id="axes_3">
   <g id="patch_93">
    <path d="M 954 1109.16 
L 6868.8 1109.16 
L 6868.8 946.08 
L 954 946.08 
z
" style="fill:#ffffff;"/>
   </g>
   <g id="patch_94">
    <path clip-path="url(#p4081e4393d)" d="M 1456.2 1109.16 
L 1679.4 1109.16 
L 1679.4 783 
L 1456.2 783 
z
" style="fill:#00ff89;"/>
   </g>
   <g id="patch_95">
    <path clip-path="url(#p4081e4393d)" d="M 1846.8 1109.16 
L 2070 1109.16 
L 2070 783 
L 1846.8 783 
z
" style="fill:#ff6000;"/>
   </g>
   <g id="patch_96">
    <path clip-path="url(#p4081e4393d)" d="M 2516.4 1109.16 
L 2683.8 1109.16 
L 2683.8 783 
L 2516.4 783 
z
" style="fill:#f900ff;"/>
   </g>
   <g id="patch_97">
    <path clip-path="url(#p4081e4393d)" d="M 2962.8 1109.16 
L 3186 1109.16 
L 3186 783 
L 2962.8 783 
z
" style="fill:#ff00bf;"/>
   </g>
   <g id="patch_98">
    <path clip-path="url(#p4081e4393d)" d="M 3632.4 1109.16 
L 3911.4 1109.16 
L 3911.4 783 
L 3632.4 783 
z
" style="fill:#8aff00;"/>
   </g>
   <g id="patch_99">
    <path clip-path="url(#p4081e4393d)" d="M 4413.6 1109.16 
L 4581 1109.16 
L 4581 783 
L 4413.6 783 
z
" style="fill:#b400ff;"/>
   </g>
   <g id="patch_100">
    <path clip-path="url(#p4081e4393d)" d="M 4804.2 1109.16 
L 5083.2 1109.16 
L 5083.2 783 
L 4804.2 783 
z
" style="fill:#cfff00;"/>
   </g>
   <g id="matplotlib.axis_5"/>
   <g id="matplotlib.axis_6"/>
   <g id="patch_101">
    <path d="M 954 1109.16 
L 954 946.08 
" style="fill:none;stroke:#000000;stroke-linecap:square;stroke-linejoin:miter;stroke-width:0.8;"/>
   </g>
   <g id="patch_102">
    <path d="M 6868.8 1109.16 
L 6868.8 946.08 
" style="fill:none;stroke:#000000;stroke-linecap:square;stroke-linejoin:miter;stroke-width:0.8;"/>
   </g>
   <g id="patch_103">
    <path d="M 954 1109.16 
L 6868.8 1109.16 
" style="fill:none;stroke:#000000;stroke-linecap:square;stroke-linejoin:miter;stroke-width:0.8;"/>
   </g>
   <g id="patch_104">
    <path d="M 954 946.08 
L 6868.8 946.08 
" style="fill:none;stroke:#000000;stroke-linecap:square;stroke-linejoin:miter;stroke-width:0.8;"/>
   </g>
  </g>
  <g id="axes_4">
   <g id="patch_105">
    <path d="M 954 946.08 
L 6868.8 946.08 
L 6868.8 728.64 
L 954 728.64 
z
" style="fill:#ffffff;"/>
   </g>
   <g id="matplotlib.axis_7"/>
   <g id="matplotlib.axis_8"/>
   <g id="line2d_1">
    <path clip-path="url(#p708ec585fa)" d="M 954 944.028679 
L 1010.331429 944.028679 
L 1066.662857 944.028679 
L 1122.994286 944.028679 
L 1179.325714 944.028679 
L 1235.657143 944.028679 
L 1291.988571 944.028679 
L 1348.32 944.028679 
L 1404.651429 944.028679 
L 1460.982857 738.896604 
L 1517.314286 738.896604 
L 1573.645714 738.896604 
L 1629.977143 738.897117 
L 1686.308571 944.028679 
L 1742.64 944.028679 
L 1798.971429 942.137101 
L 1855.302857 739.240141 
L 1911.634286 743.71923 
L 1967.965714 738.89724 
L 2024.297143 805.613996 
L 2080.628571 944.028679 
L 2136.96 944.028679 
L 2193.291429 944.028679 
L 2249.622857 944.028679 
L 2305.954286 944.028679 
L 2362.285714 944.028679 
L 2418.617143 944.028679 
L 2474.948571 944.028679 
L 2531.28 738.896604 
L 2587.611429 738.896604 
L 2643.942857 738.901837 
L 2700.274286 944.028679 
L 2756.605714 944.028679 
L 2812.937143 944.028679 
L 2869.268571 944.028679 
L 2925.6 944.028679 
L 2981.931429 738.918612 
L 3038.262857 738.899318 
L 3094.594286 738.896604 
L 3150.925714 738.896604 
L 3207.257143 944.028679 
L 3263.588571 944.028679 
L 3319.92 944.028679 
L 3376.251429 944.028679 
L 3432.582857 944.028679 
L 3488.914286 944.028679 
L 3545.245714 944.028679 
L 3601.577143 944.028679 
L 3657.908571 760.416243 
L 3714.24 738.896604 
L 3770.571429 738.896604 
L 3826.902857 738.896604 
L 3883.234286 779.074242 
L 3939.565714 944.028679 
L 3995.897143 944.028679 
L 4052.228571 944.028679 
L 4108.56 944.028679 
L 4164.891429 944.028679 
L 4221.222857 944.028679 
L 4277.554286 944.028679 
L 4333.885714 944.028679 
L 4390.217143 944.028679 
L 4446.548571 738.896604 
L 4502.88 738.896604 
L 4559.211429 738.896848 
L 4615.542857 944.028679 
L 4671.874286 944.028679 
L 4728.205714 944.028679 
L 4784.537143 944.028679 
L 4840.868571 744.675502 
L 4897.2 738.896604 
L 4953.531429 738.896653 
L 5009.862857 738.896628 
L 5066.194286 827.381644 
" style="fill:none;stroke:#1f77b4;stroke-linecap:square;stroke-width:10;"/>
   </g>
   <g id="patch_106">
    <path d="M 954 946.08 
L 954 728.64 
" style="fill:none;stroke:#000000;stroke-linecap:square;stroke-linejoin:miter;stroke-width:0.8;"/>
   </g>
   <g id="patch_107">
    <path d="M 6868.8 946.08 
L 6868.8 728.64 
" style="fill:none;stroke:#000000;stroke-linecap:square;stroke-linejoin:miter;stroke-width:0.8;"/>
   </g>
   <g id="patch_108">
    <path d="M 954 946.08 
L 6868.8 946.08 
" style="fill:none;stroke:#000000;stroke-linecap:square;stroke-linejoin:miter;stroke-width:0.8;"/>
   </g>
   <g id="patch_109">
    <path d="M 954 728.64 
L 6868.8 728.64 
" style="fill:none;stroke:#000000;stroke-linecap:square;stroke-linejoin:miter;stroke-width:0.8;"/>
   </g>
  </g>
 </g>
 <defs>
  <clipPath id="pf34fbcacd7">
   <rect height="163.08" width="5914.8" x="954" y="565.56"/>
  </clipPath>
  <clipPath id="pb8d71ec8a9">
   <rect height="163.08" width="5914.8" x="954" y="402.48"/>
  </clipPath>
  <clipPath id="p4081e4393d">
   <rect height="163.08" width="5914.8" x="954" y="946.08"/>
  </clipPath>
  <clipPath id="p708ec585fa">
   <rect height="217.44" width="5914.8" x="954" y="728.64"/>
  </clipPath>
 </defs>
</svg>
