<?xml version="1.0" encoding="utf-8" standalone="no"?>
<!DOCTYPE svg PUBLIC "-//W3C//DTD SVG 1.1//EN"
  "http://www.w3.org/Graphics/SVG/1.1/DTD/svg11.dtd">
<!-- Created with matplotlib (https://matplotlib.org/) -->
<svg height="2448pt" version="1.1" viewBox="0 0 7632 2448" width="7632pt" xmlns="http://www.w3.org/2000/svg" xmlns:xlink="http://www.w3.org/1999/xlink">
 <defs>
  <style type="text/css">
*{stroke-linecap:butt;stroke-linejoin:round;}
  </style>
 </defs>
 <g id="figure_1">
  <g id="patch_1">
   <path d="M 0 2448 
L 7632 2448 
L 7632 0 
L 0 0 
z
" style="fill:#ffffff;"/>
  </g>
  <g id="axes_1">
   <g id="patch_2">
    <path d="M 954 728.64 
L 6868.8 728.64 
L 6868.8 565.56 
L 954 565.56 
z
" style="fill:#ffffff;"/>
   </g>
   <g id="patch_3">
    <path clip-path="url(#p7607c2b18d)" d="M 954 728.64 
L 1009.8 728.64 
L 1009.8 402.48 
L 954 402.48 
z
" style="fill:#2a00ff;"/>
   </g>
   <g id="patch_4">
    <path clip-path="url(#p7607c2b18d)" d="M 1009.8 728.64 
L 1065.6 728.64 
L 1065.6 402.48 
L 1009.8 402.48 
z
" style="fill:#001cff;"/>
   </g>
   <g id="patch_5">
    <path clip-path="url(#p7607c2b18d)" d="M 1065.6 728.64 
L 1121.4 728.64 
L 1121.4 402.48 
L 1065.6 402.48 
z
" style="fill:#001cff;"/>
   </g>
   <g id="patch_6">
    <path clip-path="url(#p7607c2b18d)" d="M 1121.4 728.64 
L 1177.2 728.64 
L 1177.2 402.48 
L 1121.4 402.48 
z
" style="fill:#001cff;"/>
   </g>
   <g id="patch_7">
    <path clip-path="url(#p7607c2b18d)" d="M 1177.2 728.64 
L 1233 728.64 
L 1233 402.48 
L 1177.2 402.48 
z
" style="fill:#001cff;"/>
   </g>
   <g id="patch_8">
    <path clip-path="url(#p7607c2b18d)" d="M 1233 728.64 
L 1288.8 728.64 
L 1288.8 402.48 
L 1233 402.48 
z
" style="fill:#001cff;"/>
   </g>
   <g id="patch_9">
    <path clip-path="url(#p7607c2b18d)" d="M 1288.8 728.64 
L 1344.6 728.64 
L 1344.6 402.48 
L 1288.8 402.48 
z
" style="fill:#2a00ff;"/>
   </g>
   <g id="patch_10">
    <path clip-path="url(#p7607c2b18d)" d="M 1344.6 728.64 
L 1400.4 728.64 
L 1400.4 402.48 
L 1344.6 402.48 
z
" style="fill:#001cff;"/>
   </g>
   <g id="patch_11">
    <path clip-path="url(#p7607c2b18d)" d="M 1400.4 728.64 
L 1456.2 728.64 
L 1456.2 402.48 
L 1400.4 402.48 
z
" style="fill:#001cff;"/>
   </g>
   <g id="patch_12">
    <path clip-path="url(#p7607c2b18d)" d="M 1456.2 728.64 
L 1512 728.64 
L 1512 402.48 
L 1456.2 402.48 
z
" style="fill:#001cff;"/>
   </g>
   <g id="patch_13">
    <path clip-path="url(#p7607c2b18d)" d="M 1512 728.64 
L 1567.8 728.64 
L 1567.8 402.48 
L 1512 402.48 
z
" style="fill:#001cff;"/>
   </g>
   <g id="patch_14">
    <path clip-path="url(#p7607c2b18d)" d="M 1567.8 728.64 
L 1623.6 728.64 
L 1623.6 402.48 
L 1567.8 402.48 
z
" style="fill:#001cff;"/>
   </g>
   <g id="patch_15">
    <path clip-path="url(#p7607c2b18d)" d="M 1623.6 728.64 
L 1679.4 728.64 
L 1679.4 402.48 
L 1623.6 402.48 
z
" style="fill:#001cff;"/>
   </g>
   <g id="patch_16">
    <path clip-path="url(#p7607c2b18d)" d="M 1679.4 728.64 
L 1735.2 728.64 
L 1735.2 402.48 
L 1679.4 402.48 
z
" style="fill:#001cff;"/>
   </g>
   <g id="patch_17">
    <path clip-path="url(#p7607c2b18d)" d="M 1735.2 728.64 
L 1791 728.64 
L 1791 402.48 
L 1735.2 402.48 
z
" style="fill:#001cff;"/>
   </g>
   <g id="patch_18">
    <path clip-path="url(#p7607c2b18d)" d="M 1791 728.64 
L 1846.8 728.64 
L 1846.8 402.48 
L 1791 402.48 
z
" style="fill:#2a00ff;"/>
   </g>
   <g id="patch_19">
    <path clip-path="url(#p7607c2b18d)" d="M 1846.8 728.64 
L 1902.6 728.64 
L 1902.6 402.48 
L 1846.8 402.48 
z
" style="fill:#2a00ff;"/>
   </g>
   <g id="patch_20">
    <path clip-path="url(#p7607c2b18d)" d="M 1902.6 728.64 
L 1958.4 728.64 
L 1958.4 402.48 
L 1902.6 402.48 
z
" style="fill:#0061ff;"/>
   </g>
   <g id="patch_21">
    <path clip-path="url(#p7607c2b18d)" d="M 1958.4 728.64 
L 2014.2 728.64 
L 2014.2 402.48 
L 1958.4 402.48 
z
" style="fill:#0061ff;"/>
   </g>
   <g id="patch_22">
    <path clip-path="url(#p7607c2b18d)" d="M 2014.2 728.64 
L 2070 728.64 
L 2070 402.48 
L 2014.2 402.48 
z
" style="fill:#2a00ff;"/>
   </g>
   <g id="patch_23">
    <path clip-path="url(#p7607c2b18d)" d="M 2070 728.64 
L 2125.8 728.64 
L 2125.8 402.48 
L 2070 402.48 
z
" style="fill:#00a6ff;"/>
   </g>
   <g id="patch_24">
    <path clip-path="url(#p7607c2b18d)" d="M 2125.8 728.64 
L 2181.6 728.64 
L 2181.6 402.48 
L 2125.8 402.48 
z
" style="fill:#0061ff;"/>
   </g>
   <g id="patch_25">
    <path clip-path="url(#p7607c2b18d)" d="M 2181.6 728.64 
L 2237.4 728.64 
L 2237.4 402.48 
L 2181.6 402.48 
z
" style="fill:#00ecff;"/>
   </g>
   <g id="patch_26">
    <path clip-path="url(#p7607c2b18d)" d="M 2237.4 728.64 
L 2293.2 728.64 
L 2293.2 402.48 
L 2237.4 402.48 
z
" style="fill:#00a6ff;"/>
   </g>
   <g id="patch_27">
    <path clip-path="url(#p7607c2b18d)" d="M 2293.2 728.64 
L 2349 728.64 
L 2349 402.48 
L 2293.2 402.48 
z
" style="fill:#00ecff;"/>
   </g>
   <g id="patch_28">
    <path clip-path="url(#p7607c2b18d)" d="M 2349 728.64 
L 2404.8 728.64 
L 2404.8 402.48 
L 2349 402.48 
z
" style="fill:#00ecff;"/>
   </g>
   <g id="patch_29">
    <path clip-path="url(#p7607c2b18d)" d="M 2404.8 728.64 
L 2460.6 728.64 
L 2460.6 402.48 
L 2404.8 402.48 
z
" style="fill:#00ecff;"/>
   </g>
   <g id="patch_30">
    <path clip-path="url(#p7607c2b18d)" d="M 2460.6 728.64 
L 2516.4 728.64 
L 2516.4 402.48 
L 2460.6 402.48 
z
" style="fill:#00ecff;"/>
   </g>
   <g id="patch_31">
    <path clip-path="url(#p7607c2b18d)" d="M 2516.4 728.64 
L 2572.2 728.64 
L 2572.2 402.48 
L 2516.4 402.48 
z
" style="fill:#00ecff;"/>
   </g>
   <g id="patch_32">
    <path clip-path="url(#p7607c2b18d)" d="M 2572.2 728.64 
L 2628 728.64 
L 2628 402.48 
L 2572.2 402.48 
z
" style="fill:#2a00ff;"/>
   </g>
   <g id="patch_33">
    <path clip-path="url(#p7607c2b18d)" d="M 2628 728.64 
L 2683.8 728.64 
L 2683.8 402.48 
L 2628 402.48 
z
" style="fill:#001cff;"/>
   </g>
   <g id="patch_34">
    <path clip-path="url(#p7607c2b18d)" d="M 2683.8 728.64 
L 2739.6 728.64 
L 2739.6 402.48 
L 2683.8 402.48 
z
" style="fill:#001cff;"/>
   </g>
   <g id="patch_35">
    <path clip-path="url(#p7607c2b18d)" d="M 2739.6 728.64 
L 2795.4 728.64 
L 2795.4 402.48 
L 2739.6 402.48 
z
" style="fill:#001cff;"/>
   </g>
   <g id="patch_36">
    <path clip-path="url(#p7607c2b18d)" d="M 2795.4 728.64 
L 2851.2 728.64 
L 2851.2 402.48 
L 2795.4 402.48 
z
" style="fill:#001cff;"/>
   </g>
   <g id="patch_37">
    <path clip-path="url(#p7607c2b18d)" d="M 2851.2 728.64 
L 2907 728.64 
L 2907 402.48 
L 2851.2 402.48 
z
" style="fill:#001cff;"/>
   </g>
   <g id="patch_38">
    <path clip-path="url(#p7607c2b18d)" d="M 2907 728.64 
L 2962.8 728.64 
L 2962.8 402.48 
L 2907 402.48 
z
" style="fill:#001cff;"/>
   </g>
   <g id="patch_39">
    <path clip-path="url(#p7607c2b18d)" d="M 2962.8 728.64 
L 3018.6 728.64 
L 3018.6 402.48 
L 2962.8 402.48 
z
" style="fill:#00ffce;"/>
   </g>
   <g id="patch_40">
    <path clip-path="url(#p7607c2b18d)" d="M 3018.6 728.64 
L 3074.4 728.64 
L 3074.4 402.48 
L 3018.6 402.48 
z
" style="fill:#00ffce;"/>
   </g>
   <g id="patch_41">
    <path clip-path="url(#p7607c2b18d)" d="M 3074.4 728.64 
L 3130.2 728.64 
L 3130.2 402.48 
L 3074.4 402.48 
z
" style="fill:#00ffce;"/>
   </g>
   <g id="patch_42">
    <path clip-path="url(#p7607c2b18d)" d="M 3130.2 728.64 
L 3186 728.64 
L 3186 402.48 
L 3130.2 402.48 
z
" style="fill:#00ffce;"/>
   </g>
   <g id="patch_43">
    <path clip-path="url(#p7607c2b18d)" d="M 3186 728.64 
L 3241.8 728.64 
L 3241.8 402.48 
L 3186 402.48 
z
" style="fill:#00ffce;"/>
   </g>
   <g id="patch_44">
    <path clip-path="url(#p7607c2b18d)" d="M 3241.8 728.64 
L 3297.6 728.64 
L 3297.6 402.48 
L 3241.8 402.48 
z
" style="fill:#00ffce;"/>
   </g>
   <g id="patch_45">
    <path clip-path="url(#p7607c2b18d)" d="M 3297.6 728.64 
L 3353.4 728.64 
L 3353.4 402.48 
L 3297.6 402.48 
z
" style="fill:#00ffce;"/>
   </g>
   <g id="patch_46">
    <path clip-path="url(#p7607c2b18d)" d="M 3353.4 728.64 
L 3409.2 728.64 
L 3409.2 402.48 
L 3353.4 402.48 
z
" style="fill:#2a00ff;"/>
   </g>
   <g id="patch_47">
    <path clip-path="url(#p7607c2b18d)" d="M 3409.2 728.64 
L 3465 728.64 
L 3465 402.48 
L 3409.2 402.48 
z
" style="fill:#001cff;"/>
   </g>
   <g id="patch_48">
    <path clip-path="url(#p7607c2b18d)" d="M 3465 728.64 
L 3520.8 728.64 
L 3520.8 402.48 
L 3465 402.48 
z
" style="fill:#001cff;"/>
   </g>
   <g id="patch_49">
    <path clip-path="url(#p7607c2b18d)" d="M 3520.8 728.64 
L 3576.6 728.64 
L 3576.6 402.48 
L 3520.8 402.48 
z
" style="fill:#001cff;"/>
   </g>
   <g id="patch_50">
    <path clip-path="url(#p7607c2b18d)" d="M 3576.6 728.64 
L 3632.4 728.64 
L 3632.4 402.48 
L 3576.6 402.48 
z
" style="fill:#f900ff;"/>
   </g>
   <g id="patch_51">
    <path clip-path="url(#p7607c2b18d)" d="M 3632.4 728.64 
L 3688.2 728.64 
L 3688.2 402.48 
L 3632.4 402.48 
z
" style="fill:#f900ff;"/>
   </g>
   <g id="patch_52">
    <path clip-path="url(#p7607c2b18d)" d="M 3688.2 728.64 
L 3744 728.64 
L 3744 402.48 
L 3688.2 402.48 
z
" style="fill:#f900ff;"/>
   </g>
   <g id="patch_53">
    <path clip-path="url(#p7607c2b18d)" d="M 3744 728.64 
L 3799.8 728.64 
L 3799.8 402.48 
L 3744 402.48 
z
" style="fill:#b400ff;"/>
   </g>
   <g id="patch_54">
    <path clip-path="url(#p7607c2b18d)" d="M 3799.8 728.64 
L 3855.6 728.64 
L 3855.6 402.48 
L 3799.8 402.48 
z
" style="fill:#ff00bf;"/>
   </g>
   <g id="patch_55">
    <path clip-path="url(#p7607c2b18d)" d="M 3855.6 728.64 
L 3911.4 728.64 
L 3911.4 402.48 
L 3855.6 402.48 
z
" style="fill:#ff00bf;"/>
   </g>
   <g id="patch_56">
    <path clip-path="url(#p7607c2b18d)" d="M 3911.4 728.64 
L 3967.2 728.64 
L 3967.2 402.48 
L 3911.4 402.48 
z
" style="fill:#ff00bf;"/>
   </g>
   <g id="patch_57">
    <path clip-path="url(#p7607c2b18d)" d="M 3967.2 728.64 
L 4023 728.64 
L 4023 402.48 
L 3967.2 402.48 
z
" style="fill:#ff00bf;"/>
   </g>
   <g id="matplotlib.axis_1"/>
   <g id="matplotlib.axis_2"/>
   <g id="patch_58">
    <path d="M 954 728.64 
L 954 565.56 
" style="fill:none;stroke:#000000;stroke-linecap:square;stroke-linejoin:miter;stroke-width:0.8;"/>
   </g>
   <g id="patch_59">
    <path d="M 6868.8 728.64 
L 6868.8 565.56 
" style="fill:none;stroke:#000000;stroke-linecap:square;stroke-linejoin:miter;stroke-width:0.8;"/>
   </g>
   <g id="patch_60">
    <path d="M 954 728.64 
L 6868.8 728.64 
" style="fill:none;stroke:#000000;stroke-linecap:square;stroke-linejoin:miter;stroke-width:0.8;"/>
   </g>
   <g id="patch_61">
    <path d="M 954 565.56 
L 6868.8 565.56 
" style="fill:none;stroke:#000000;stroke-linecap:square;stroke-linejoin:miter;stroke-width:0.8;"/>
   </g>
  </g>
  <g id="axes_2">
   <g id="patch_62">
    <path d="M 954 565.56 
L 6868.8 565.56 
L 6868.8 402.48 
L 954 402.48 
z
" style="fill:#ffffff;"/>
   </g>
   <g id="patch_63">
    <path clip-path="url(#p9139352776)" d="M 954 565.56 
L 1791 565.56 
L 1791 239.4 
L 954 239.4 
z
" style="fill:#001cff;"/>
   </g>
   <g id="patch_64">
    <path clip-path="url(#p9139352776)" d="M 1791 565.56 
L 2572.2 565.56 
L 2572.2 239.4 
L 1791 239.4 
z
" style="fill:#00ecff;"/>
   </g>
   <g id="patch_65">
    <path clip-path="url(#p9139352776)" d="M 2572.2 565.56 
L 3353.4 565.56 
L 3353.4 239.4 
L 2572.2 239.4 
z
" style="fill:#00ffce;"/>
   </g>
   <g id="patch_66">
    <path clip-path="url(#p9139352776)" d="M 3353.4 565.56 
L 4023 565.56 
L 4023 239.4 
L 3353.4 239.4 
z
" style="fill:#ff00bf;"/>
   </g>
   <g id="matplotlib.axis_3"/>
   <g id="matplotlib.axis_4"/>
   <g id="patch_67">
    <path d="M 954 565.56 
L 954 402.48 
" style="fill:none;stroke:#000000;stroke-linecap:square;stroke-linejoin:miter;stroke-width:0.8;"/>
   </g>
   <g id="patch_68">
    <path d="M 6868.8 565.56 
L 6868.8 402.48 
" style="fill:none;stroke:#000000;stroke-linecap:square;stroke-linejoin:miter;stroke-width:0.8;"/>
   </g>
   <g id="patch_69">
    <path d="M 954 565.56 
L 6868.8 565.56 
" style="fill:none;stroke:#000000;stroke-linecap:square;stroke-linejoin:miter;stroke-width:0.8;"/>
   </g>
   <g id="patch_70">
    <path d="M 954 402.48 
L 6868.8 402.48 
" style="fill:none;stroke:#000000;stroke-linecap:square;stroke-linejoin:miter;stroke-width:0.8;"/>
   </g>
  </g>
  <g id="axes_3">
   <g id="patch_71">
    <path d="M 954 1109.16 
L 6868.8 1109.16 
L 6868.8 946.08 
L 954 946.08 
z
" style="fill:#ffffff;"/>
   </g>
   <g id="patch_72">
    <path clip-path="url(#p85a5ea4a22)" d="M 2293.2 1109.16 
L 2572.2 1109.16 
L 2572.2 783 
L 2293.2 783 
z
" style="fill:#00ecff;"/>
   </g>
   <g id="patch_73">
    <path clip-path="url(#p85a5ea4a22)" d="M 2962.8 1109.16 
L 3353.4 1109.16 
L 3353.4 783 
L 2962.8 783 
z
" style="fill:#00ffce;"/>
   </g>
   <g id="patch_74">
    <path clip-path="url(#p85a5ea4a22)" d="M 3799.8 1109.16 
L 4023 1109.16 
L 4023 783 
L 3799.8 783 
z
" style="fill:#ff00bf;"/>
   </g>
   <g id="matplotlib.axis_5"/>
   <g id="matplotlib.axis_6"/>
   <g id="patch_75">
    <path d="M 954 1109.16 
L 954 946.08 
" style="fill:none;stroke:#000000;stroke-linecap:square;stroke-linejoin:miter;stroke-width:0.8;"/>
   </g>
   <g id="patch_76">
    <path d="M 6868.8 1109.16 
L 6868.8 946.08 
" style="fill:none;stroke:#000000;stroke-linecap:square;stroke-linejoin:miter;stroke-width:0.8;"/>
   </g>
   <g id="patch_77">
    <path d="M 954 1109.16 
L 6868.8 1109.16 
" style="fill:none;stroke:#000000;stroke-linecap:square;stroke-linejoin:miter;stroke-width:0.8;"/>
   </g>
   <g id="patch_78">
    <path d="M 954 946.08 
L 6868.8 946.08 
" style="fill:none;stroke:#000000;stroke-linecap:square;stroke-linejoin:miter;stroke-width:0.8;"/>
   </g>
  </g>
  <g id="axes_4">
   <g id="patch_79">
    <path d="M 954 946.08 
L 6868.8 946.08 
L 6868.8 728.64 
L 954 728.64 
z
" style="fill:#ffffff;"/>
   </g>
   <g id="matplotlib.axis_7"/>
   <g id="matplotlib.axis_8"/>
   <g id="line2d_1">
    <path clip-path="url(#p3363fdbc6a)" d="M 954 944.028679 
L 1010.331429 944.028679 
L 1066.662857 944.028679 
L 1122.994286 944.028679 
L 1179.325714 944.028679 
L 1235.657143 944.028679 
L 1291.988571 944.028679 
L 1348.32 944.028679 
L 1404.651429 944.028679 
L 1460.982857 944.028679 
L 1517.314286 944.028679 
L 1573.645714 944.028679 
L 1629.977143 944.028679 
L 1686.308571 944.028679 
L 1742.64 944.028679 
L 1798.971429 944.028679 
L 1855.302857 944.028679 
L 1911.634286 944.028679 
L 1967.965714 944.028679 
L 2024.297143 944.028679 
L 2080.628571 944.028679 
L 2136.96 944.028679 
L 2193.291429 944.028679 
L 2249.622857 944.028667 
L 2305.954286 739.011401 
L 2362.285714 738.950707 
L 2418.617143 739.977859 
L 2474.948571 738.896628 
L 2531.28 738.902644 
L 2587.611429 944.028679 
L 2643.942857 944.028679 
L 2700.274286 944.028679 
L 2756.605714 944.028679 
L 2812.937143 944.028679 
L 2869.268571 944.028679 
L 2925.6 944.028679 
L 2981.931429 738.896604 
L 3038.262857 738.896604 
L 3094.594286 738.896604 
L 3150.925714 738.896604 
L 3207.257143 738.896604 
L 3263.588571 738.896604 
L 3319.92 739.215809 
L 3376.251429 944.028679 
L 3432.582857 944.028679 
L 3488.914286 944.028679 
L 3545.245714 944.028679 
L 3601.577143 944.028679 
L 3657.908571 944.028679 
L 3714.24 944.028679 
L 3770.571429 944.028679 
L 3826.902857 738.896604 
L 3883.234286 738.896604 
L 3939.565714 738.896604 
L 3995.897143 738.896604 
" style="fill:none;stroke:#1f77b4;stroke-linecap:square;stroke-width:10;"/>
   </g>
   <g id="patch_80">
    <path d="M 954 946.08 
L 954 728.64 
" style="fill:none;stroke:#000000;stroke-linecap:square;stroke-linejoin:miter;stroke-width:0.8;"/>
   </g>
   <g id="patch_81">
    <path d="M 6868.8 946.08 
L 6868.8 728.64 
" style="fill:none;stroke:#000000;stroke-linecap:square;stroke-linejoin:miter;stroke-width:0.8;"/>
   </g>
   <g id="patch_82">
    <path d="M 954 946.08 
L 6868.8 946.08 
" style="fill:none;stroke:#000000;stroke-linecap:square;stroke-linejoin:miter;stroke-width:0.8;"/>
   </g>
   <g id="patch_83">
    <path d="M 954 728.64 
L 6868.8 728.64 
" style="fill:none;stroke:#000000;stroke-linecap:square;stroke-linejoin:miter;stroke-width:0.8;"/>
   </g>
  </g>
 </g>
 <defs>
  <clipPath id="p7607c2b18d">
   <rect height="163.08" width="5914.8" x="954" y="565.56"/>
  </clipPath>
  <clipPath id="p9139352776">
   <rect height="163.08" width="5914.8" x="954" y="402.48"/>
  </clipPath>
  <clipPath id="p85a5ea4a22">
   <rect height="163.08" width="5914.8" x="954" y="946.08"/>
  </clipPath>
  <clipPath id="p3363fdbc6a">
   <rect height="217.44" width="5914.8" x="954" y="728.64"/>
  </clipPath>
 </defs>
</svg>
