PerClass
TruePositivePerClass,
7.00 ; 13.00 ; 54.00 ; 14.00 ; 5.00 ; 35.00 ; 25.00 ; 60.00 ; 45.00 ; 7.00 ; 16.00 ; 36.00 ; 40.00 ; 40.00 ; 30.00 ; 11.00 ; 6.00 ; 18.00 ; 33.00 ; 42.00 ; 29.00 ; 0.00
FalsePositivePerClass,
10.00 ; 54.00 ; 36.00 ; 27.00 ; 3.00 ; 31.00 ; 30.00 ; 82.00 ; 56.00 ; 33.00 ; 72.00 ; 29.00 ; 35.00 ; 74.00 ; 17.00 ; 27.00 ; 30.00 ; 0.00 ; 69.00 ; 81.00 ; 34.00 ; 0.00
nbActionPerClass,
66.00 ; 49.00 ; 66.00 ; 41.00 ; 41.00 ; 55.00 ; 49.00 ; 97.00 ; 85.00 ; 92.00 ; 39.00 ; 49.00 ; 68.00 ; 97.00 ; 40.00 ; 22.00 ; 21.00 ; 21.00 ; 78.00 ; 99.00 ; 49.00 ; 0.00
Precision_PerClass,
0.41 ; 0.19 ; 0.60 ; 0.34 ; 0.62 ; 0.53 ; 0.45 ; 0.42 ; 0.45 ; 0.17 ; 0.18 ; 0.55 ; 0.53 ; 0.35 ; 0.64 ; 0.29 ; 0.17 ; 1.00 ; 0.32 ; 0.34 ; 0.46 ; 0.00
Recall_PerClass,
0.11 ; 0.27 ; 0.82 ; 0.34 ; 0.12 ; 0.64 ; 0.51 ; 0.62 ; 0.53 ; 0.08 ; 0.41 ; 0.73 ; 0.59 ; 0.41 ; 0.75 ; 0.50 ; 0.29 ; 0.86 ; 0.42 ; 0.42 ; 0.59 ; 0.00
NLToD_PerClass,
0.90 ; 0.66 ; 0.49 ; 0.78 ; 0.93 ; 0.66 ; 0.71 ; 0.55 ; 0.64 ; 0.84 ; 0.71 ; 0.64 ; 0.78 ; 0.70 ; 0.65 ; 0.66 ; 0.66 ; 0.52 ; 0.80 ; 0.73 ; 0.67 ; nan
Total
TruePositives
566.000
FalsePositives
830.000
nbActionsTotal
1224.000
Precision
0.405
Recall
0.462
Fmeasure
0.432
NLToD
0.664
