PerClass
TruePositivePerClass,
8.00 ; 13.00 ; 28.00 ; 15.00 ; 4.00 ; 25.00 ; 20.00 ; 31.00 ; 34.00 ; 4.00 ; 9.00 ; 20.00 ; 29.00 ; 31.00 ; 21.00 ; 6.00 ; 4.00 ; 10.00 ; 28.00 ; 32.00 ; 25.00 ; 0.00
FalsePositivePerClass,
9.00 ; 54.00 ; 62.00 ; 26.00 ; 4.00 ; 41.00 ; 35.00 ; 111.00 ; 67.00 ; 36.00 ; 79.00 ; 45.00 ; 46.00 ; 83.00 ; 26.00 ; 32.00 ; 32.00 ; 8.00 ; 74.00 ; 91.00 ; 38.00 ; 0.00
nbActionPerClass,
66.00 ; 49.00 ; 66.00 ; 41.00 ; 41.00 ; 55.00 ; 49.00 ; 97.00 ; 85.00 ; 92.00 ; 39.00 ; 49.00 ; 68.00 ; 97.00 ; 40.00 ; 22.00 ; 21.00 ; 21.00 ; 78.00 ; 99.00 ; 49.00 ; 0.00
Precision_PerClass,
0.47 ; 0.19 ; 0.31 ; 0.37 ; 0.50 ; 0.38 ; 0.36 ; 0.22 ; 0.34 ; 0.10 ; 0.10 ; 0.31 ; 0.39 ; 0.27 ; 0.45 ; 0.16 ; 0.11 ; 0.56 ; 0.27 ; 0.26 ; 0.40 ; 0.00
Recall_PerClass,
0.12 ; 0.27 ; 0.42 ; 0.37 ; 0.10 ; 0.45 ; 0.41 ; 0.32 ; 0.40 ; 0.04 ; 0.23 ; 0.41 ; 0.43 ; 0.32 ; 0.53 ; 0.27 ; 0.19 ; 0.48 ; 0.36 ; 0.32 ; 0.51 ; 0.00
NLToD_PerClass,
0.91 ; 0.74 ; 0.53 ; 0.83 ; 0.94 ; 0.68 ; 0.78 ; 0.63 ; 0.70 ; 0.86 ; 0.85 ; 0.67 ; 0.82 ; 0.79 ; 0.67 ; 0.73 ; 0.84 ; 0.52 ; 0.83 ; 0.82 ; 0.69 ; nan
Total
TruePositives
397.000
FalsePositives
999.000
nbActionsTotal
1224.000
Precision
0.284
Recall
0.324
Fmeasure
0.303
NLToD
0.732
