PerClass
TruePositivePerClass,
7.00 ; 9.00 ; 26.00 ; 12.00 ; 4.00 ; 21.00 ; 15.00 ; 24.00 ; 23.00 ; 4.00 ; 6.00 ; 18.00 ; 25.00 ; 18.00 ; 20.00 ; 5.00 ; 2.00 ; 10.00 ; 24.00 ; 15.00 ; 19.00 ; 0.00
FalsePositivePerClass,
10.00 ; 58.00 ; 64.00 ; 29.00 ; 4.00 ; 45.00 ; 40.00 ; 118.00 ; 78.00 ; 36.00 ; 82.00 ; 47.00 ; 50.00 ; 96.00 ; 27.00 ; 33.00 ; 34.00 ; 8.00 ; 78.00 ; 108.00 ; 44.00 ; 0.00
nbActionPerClass,
66.00 ; 49.00 ; 66.00 ; 41.00 ; 41.00 ; 55.00 ; 49.00 ; 97.00 ; 85.00 ; 92.00 ; 39.00 ; 49.00 ; 68.00 ; 97.00 ; 40.00 ; 22.00 ; 21.00 ; 21.00 ; 78.00 ; 99.00 ; 49.00 ; 0.00
Precision_PerClass,
0.41 ; 0.13 ; 0.29 ; 0.29 ; 0.50 ; 0.32 ; 0.27 ; 0.17 ; 0.23 ; 0.10 ; 0.07 ; 0.28 ; 0.33 ; 0.16 ; 0.43 ; 0.13 ; 0.06 ; 0.56 ; 0.24 ; 0.12 ; 0.30 ; 0.00
Recall_PerClass,
0.11 ; 0.18 ; 0.39 ; 0.29 ; 0.10 ; 0.38 ; 0.31 ; 0.25 ; 0.27 ; 0.04 ; 0.15 ; 0.37 ; 0.37 ; 0.19 ; 0.50 ; 0.23 ; 0.10 ; 0.48 ; 0.31 ; 0.15 ; 0.39 ; 0.00
NLToD_PerClass,
0.90 ; 0.68 ; 0.53 ; 0.80 ; 0.94 ; 0.68 ; 0.76 ; 0.57 ; 0.65 ; 0.86 ; 0.78 ; 0.65 ; 0.80 ; 0.73 ; 0.65 ; 0.68 ; 0.75 ; 0.52 ; 0.81 ; 0.77 ; 0.68 ; nan
Total
TruePositives
307.000
FalsePositives
1089.000
nbActionsTotal
1224.000
Precision
0.220
Recall
0.251
Fmeasure
0.234
NLToD
0.697
